<?xml version="1.0" encoding="UTF-8" standalone="no"?>
<!-- Created with Inkscape (http://www.inkscape.org/) -->

<svg
   xmlns:dc="http://purl.org/dc/elements/1.1/"
   xmlns:cc="http://creativecommons.org/ns#"
   xmlns:rdf="http://www.w3.org/1999/02/22-rdf-syntax-ns#"
   xmlns:svg="http://www.w3.org/2000/svg"
   xmlns="http://www.w3.org/2000/svg"
   xmlns:xlink="http://www.w3.org/1999/xlink"
   xmlns:sodipodi="http://sodipodi.sourceforge.net/DTD/sodipodi-0.dtd"
   xmlns:inkscape="http://www.inkscape.org/namespaces/inkscape"
   sodipodi:docname="shapes-f17.svg"
   inkscape:version="0.48+devel r11701 custom"
   sodipodi:version="0.32"
   id="svg2586"
   height="1052.3622047"
   width="744.09448819"
   inkscape:output_extension="org.inkscape.output.svg.inkscape"
   version="1.1">
  <defs
     id="defs3" />
  <sodipodi:namedview
     inkscape:window-y="208"
     inkscape:window-x="186"
     inkscape:window-height="794"
     inkscape:window-width="1278"
     inkscape:current-layer="layer1"
     inkscape:document-units="px"
     inkscape:cy="952.69959"
     inkscape:cx="170.19202"
     inkscape:zoom="1.9858156"
     inkscape:pageshadow="2"
     inkscape:pageopacity="0.0"
     borderopacity="1.0"
     bordercolor="#666666"
     pagecolor="#ffffff"
     id="base"
     showguides="true"
     inkscape:guide-bbox="true"
     showgrid="false"
     inkscape:window-maximized="0">
    <sodipodi:guide
       orientation="horizontal"
       position="1045.3571"
       id="guide2725" />
  </sodipodi:namedview>
  <metadata
     id="metadata4">
    <rdf:RDF>
      <cc:Work
         rdf:about="">
        <dc:format>image/svg+xml</dc:format>
        <dc:type
           rdf:resource="http://purl.org/dc/dcmitype/StillImage" />
        <dc:title></dc:title>
      </cc:Work>
    </rdf:RDF>
  </metadata>
  <g
     id="layer1"
     inkscape:groupmode="layer"
     inkscape:label="Layer 1">
    <path
       transform="matrix(1.32052,0,0,1.32052,80.68152,-18)"
       d="m 62.5,24.96875 c -0.505623,1.262204 -0.992546,2.294207 -1.53125,3.78125 -0.964761,2.663132 -1.945919,5.4939 -3.28125,8.03125 -1.335331,2.53735 -2.996296,5.270681 -6.625,6.28125 C 47.250479,44.124121 44.230626,42.559835 41.53125,41 38.831874,39.440165 36.242879,37.454228 33.8125,35.65625 32.629894,34.781366 31.824898,34.383887 30.78125,33.6875 c 0.641174,0.8241 0.958783,1.374633 1.71875,2.28125 1.900753,2.267542 4.00205,4.689922 5.6875,7.25 1.68545,2.560078 3.470611,5.452434 2.46875,9.34375 -0.986036,3.829853 -3.864085,5.661135 -6.5625,7.21875 -2.698415,1.557615 -5.699522,2.794802 -8.46875,4 -1.371576,0.596925 -2.143889,1.092177 -3.28125,1.65625 1.048577,-0.144993 1.68949,-0.134429 2.875,-0.34375 2.912198,-0.514196 6.066187,-1.131199 9.125,-1.3125 3.058813,-0.181301 6.474732,-0.282015 9.34375,2.53125 2.823865,2.76899 2.970706,6.166277 2.96875,9.28125 -0.002,3.114973 -0.438464,6.344461 -0.78125,9.34375 -0.164865,1.442521 -0.105531,2.323501 -0.1875,3.5625 0.38791,-0.957211 0.694311,-1.496674 1.09375,-2.59375 1.0114,-2.777852 2.064518,-5.792624 3.4375,-8.53125 1.372982,-2.738626 3.005292,-5.734813 6.875,-6.8125 3.812021,-1.061621 6.831874,0.502665 9.53125,2.0625 2.699376,1.559835 5.288371,3.545772 7.71875,5.34375 1.182606,0.874884 1.987602,1.272363 3.03125,1.96875 -0.641174,-0.8241 -0.958783,-1.374633 -1.71875,-2.28125 -1.900753,-2.267542 -4.00205,-4.689922 -5.6875,-7.25 C 68.2833,67.846172 66.498139,64.953816 67.5,61.0625 c 0.986036,-3.829853 3.864085,-5.661135 6.5625,-7.21875 2.698415,-1.557615 5.699522,-2.794802 8.46875,-4 1.371576,-0.596925 2.143889,-1.092177 3.28125,-1.65625 -1.048577,0.144993 -1.68949,0.134429 -2.875,0.34375 -2.912198,0.514196 -6.066187,1.131199 -9.125,1.3125 -3.058813,0.181301 -6.474732,0.282015 -9.34375,-2.53125 -2.823865,-2.76899 -2.970706,-6.166277 -2.96875,-9.28125 0.002,-3.114973 0.438464,-6.344461 0.78125,-9.34375 C 62.453404,27.181201 62.419586,26.247865 62.5,24.96875 Z"
       inkscape:href="#path2693"
       id="path2694"
       style="fill:#ffb800;fill-opacity:0.75;fill-rule:evenodd;stroke:#000000;stroke-width:0.4732984;stroke-linecap:butt;stroke-linejoin:miter;stroke-miterlimit:4;stroke-opacity:1;stroke-dashoffset:0;marker:none"
       xlink:href="#path2693"
       inkscape:original="M 63.34375 16.28125 C 57.845938 17.170119 55.922201 37.128396 49.875 38.8125 C 43.139438 40.688307 29.350635 22.780244 24.25 27.5625 C 19.365349 32.142254 38.044466 44.984396 36.375 51.46875 C 34.631716 58.239822 12.252512 61.222842 13.84375 68.03125 C 15.367608 74.551359 35.812868 64.780773 40.59375 69.46875 C 45.586028 74.364015 36.964377 95.223849 43.65625 97.25 C 50.064759 99.190355 51.830902 76.608877 58.28125 74.8125 C 65.016812 72.936693 78.805615 90.844756 83.90625 86.0625 C 88.790901 81.482746 70.111784 68.640604 71.78125 62.15625 C 73.524534 55.385178 95.903738 52.402158 94.3125 45.59375 C 92.788642 39.073641 72.343382 48.844227 67.5625 44.15625 C 62.570222 39.260985 71.191873 18.401151 64.5 16.375 C 64.099468 16.253728 63.710271 16.221992 63.34375 16.28125 z "
       inkscape:radius="-4.4234619"
       sodipodi:type="inkscape:offset" />
    <path
       transform="matrix(0.827366,0,0,0.827366,205.7036,10.537)"
       d="M 64.71875,6.375 C 63.772269,6.2986576 62.754852,6.3375386 61.75,6.5 c -7.058652,1.1412208 -9.237117,5.895085 -10.78125,8.875 -1.544133,2.979915 -2.512842,5.861306 -3.46875,8.5 -0.461015,1.272589 -0.801572,1.950271 -1.21875,3 -1.261221,-0.875411 -2.372215,-1.592013 -3.9375,-2.75 -2.537333,-1.877101 -5.159565,-3.918434 -8.71875,-5.5625 -1.779592,-0.822033 -3.886718,-1.62538 -6.78125,-1.71875 -2.894532,-0.09337 -6.797146,1.051804 -9.375,3.46875 -2.605054,2.442448 -4.09121,6.731727 -3.9375,9.8125 0.15371,3.080773 1.118783,5.13049 2.03125,6.84375 1.824934,3.42652 3.957289,5.856417 5.9375,8.21875 1.153099,1.375612 1.852536,2.304963 2.75,3.4375 -1.387493,0.654447 -2.558728,1.223139 -4.34375,2 -2.891396,1.258367 -5.98576,2.520124 -9.1875,4.78125 -1.60087,1.130563 -3.34854,2.53954 -4.875,5 -1.52646,2.46046 -2.4598026,6.43685 -1.65625,9.875 0.812356,3.475816 3.7847768,6.905141 6.53125,8.3125 2.746473,1.407359 4.997582,1.591038 6.9375,1.65625 3.879837,0.130424 7.028685,-0.495581 10.0625,-1.03125 1.764554,-0.31156 2.916624,-0.444555 4.34375,-0.65625 -0.12795,1.525008 -0.217195,2.822394 -0.4375,4.75 -0.357899,3.13152 -0.792579,6.440298 -0.4375,10.34375 0.17754,1.951726 0.507484,4.134001 1.875,6.6875 1.367516,2.5535 4.340311,5.38333 7.71875,6.40625 3.415374,1.0341 7.876625,0.1735 10.46875,-1.5 2.592125,-1.6735 3.879216,-3.54062 4.90625,-5.1875 2.054067,-3.293765 3.071294,-6.355953 4.125,-9.25 0.609055,-1.672795 1.06579,-2.726289 1.59375,-4.0625 1.261221,0.875411 2.372215,1.592013 3.9375,2.75 2.537333,1.877101 5.159565,3.918434 8.71875,5.5625 1.779592,0.822033 3.886718,1.62538 6.78125,1.71875 2.894532,0.09337 6.797146,-1.051804 9.375,-3.46875 2.605054,-2.442448 4.09121,-6.731727 3.9375,-9.8125 -0.15371,-3.080773 -1.118783,-5.13049 -2.03125,-6.84375 -1.824934,-3.42652 -3.957289,-5.856417 -5.9375,-8.21875 -1.153099,-1.375612 -1.852536,-2.304963 -2.75,-3.4375 1.387493,-0.654447 2.558728,-1.223139 4.34375,-2 2.891396,-1.258367 5.98576,-2.520124 9.1875,-4.78125 1.60087,-1.130563 3.34854,-2.53954 4.875,-5 1.52646,-2.46046 2.4598,-6.43685 1.65625,-9.875 -0.81236,-3.475816 -3.78478,-6.905141 -6.53125,-8.3125 C 94.691027,33.623891 92.439918,33.440212 90.5,33.375 c -3.879837,-0.130424 -7.028685,0.495581 -10.0625,1.03125 -1.764554,0.31156 -2.916624,0.444555 -4.34375,0.65625 0.12795,-1.525008 0.217195,-2.822394 0.4375,-4.75 0.357899,-3.13152 0.792579,-6.440298 0.4375,-10.34375 -0.17754,-1.951726 -0.507484,-4.134001 -1.875,-6.6875 C 73.726234,10.727751 70.753439,7.8979164 67.375,6.875 66.551511,6.6256662 65.665231,6.4513424 64.71875,6.375 Z"
       inkscape:href="#path2693"
       id="path2696"
       style="color:#000000;fill:#ffb800;fill-opacity:0.75;fill-rule:evenodd;stroke:#000000;stroke-width:0.75540936;stroke-linecap:butt;stroke-linejoin:miter;stroke-miterlimit:4;stroke-opacity:1;stroke-dashoffset:0;marker:none"
       xlink:href="#path2693"
       inkscape:original="M 63.34375 16.28125 C 57.845938 17.170119 55.922201 37.128396 49.875 38.8125 C 43.139438 40.688307 29.350635 22.780244 24.25 27.5625 C 19.365349 32.142254 38.044466 44.984396 36.375 51.46875 C 34.631716 58.239822 12.252512 61.222842 13.84375 68.03125 C 15.367608 74.551359 35.812868 64.780773 40.59375 69.46875 C 45.586028 74.364015 36.964377 95.223849 43.65625 97.25 C 50.064759 99.190355 51.830902 76.608877 58.28125 74.8125 C 65.016812 72.936693 78.805615 90.844756 83.90625 86.0625 C 88.790901 81.482746 70.111784 68.640604 71.78125 62.15625 C 73.524534 55.385178 95.903738 52.402158 94.3125 45.59375 C 92.788642 39.073641 72.343382 48.844227 67.5625 44.15625 C 62.570222 39.260985 71.191873 18.401151 64.5 16.375 C 64.099468 16.253728 63.710271 16.221992 63.34375 16.28125 z "
       inkscape:radius="9.9201479"
       sodipodi:type="inkscape:offset" />
    <path
       transform="translate(-32.78474,-5201.170)"
       d="M 116.67619,5287.2238 C 111.57555,5292.0061 97.800036,5274.1131 91.064473,5275.9889 C 84.614125,5277.7853 82.850643,5300.3688 76.442134,5298.4284 C 69.750261,5296.4023 78.358283,5275.5258 73.366005,5270.6306 C 68.585122,5265.9426 48.145527,5275.7071 46.621669,5269.1870 C 45.030431,5262.3786 67.413968,5259.3951 69.157252,5252.6241 C 70.826718,5246.1397 52.150604,5233.3207 57.035255,5228.7410 C 62.135890,5223.9587 75.911405,5241.8517 82.646968,5239.9759 C 89.097316,5238.1795 90.860798,5215.5961 97.269307,5217.5364 C 103.96118,5219.5626 95.353158,5240.4390 100.34544,5245.3343 C 105.12632,5250.0223 125.56591,5240.2577 127.08977,5246.7779 C 128.68101,5253.5863 106.29747,5256.5697 104.55419,5263.3408 C 102.88472,5269.8251 121.56084,5282.6441 116.67619,5287.2238 z "
       inkscape:randomized="0.0000000"
       inkscape:rounded="0.25000000"
       inkscape:flatsided="false"
       sodipodi:arg2="1.3411834"
       sodipodi:arg1="0.77559456"
       sodipodi:r2="18.491833"
       sodipodi:r1="41.765072"
       sodipodi:cy="5257.9824"
       sodipodi:cx="86.855721"
       sodipodi:sides="6"
       id="path2693"
       style="stroke-opacity:1.0000000;stroke-dashoffset:0.0000000;stroke-miterlimit:4.0000000;marker-end:none;marker-mid:none;marker-start:none;marker:none;stroke-linejoin:miter;stroke-linecap:butt;stroke-width:0.62500000;stroke:#000000;fill-rule:evenodd;fill-opacity:0.75000000;fill:#ffb800;color:#000000"
       sodipodi:type="star" />
    <flowRoot
       xml:space="preserve"
       id="flowRoot2701"
       style="font-size:6;text-align:center;text-anchor:middle"
       transform="translate(-0.2315097,0)"><flowRegion
         id="flowRegion2703"><rect
           id="rect2705"
           width="84.64286"
           height="15"
           x="11.785714"
           y="-0.1378185"
           style="font-size:6;text-align:center;text-anchor:middle" /></flowRegion><flowPara
         id="flowPara2707">Original star</flowPara></flowRoot>    <flowRoot
       xml:space="preserve"
       id="flowRoot2709"
       style="font-size:6;text-align:center;text-anchor:middle"
       transform="translate(93.078572,-5.8909855e-2)"><flowRegion
         id="flowRegion2711"><rect
           id="rect2713"
           width="84.64286"
           height="15"
           x="11.785714"
           y="-0.1378185"
           style="font-size:6;text-align:center;text-anchor:middle" /></flowRegion><flowPara
         id="flowPara2715">Linked offset, inset</flowPara></flowRoot>    <flowRoot
       xml:space="preserve"
       id="flowRoot2717"
       style="font-size:6;text-align:center;text-anchor:middle"
       transform="translate(195.2656,-5.8909858e-2)"><flowRegion
         id="flowRegion2719"><rect
           id="rect2721"
           width="84.64286"
           height="15"
           x="11.785714"
           y="-0.1378185"
           style="font-size:6;text-align:center;text-anchor:middle" /></flowRegion><flowPara
         id="flowPara2723">Linked offset, outset</flowPara></flowRoot>  </g>
</svg>
