<?xml version="1.0" encoding="UTF-8" standalone="no"?>
<!-- Created with Inkscape (http://www.inkscape.org/) -->
<svg
   xmlns:dc="http://purl.org/dc/elements/1.1/"
   xmlns:cc="http://web.resource.org/cc/"
   xmlns:rdf="http://www.w3.org/1999/02/22-rdf-syntax-ns#"
   xmlns:svg="http://www.w3.org/2000/svg"
   xmlns="http://www.w3.org/2000/svg"
   xmlns:sodipodi="http://sodipodi.sourceforge.net/DTD/sodipodi-0.dtd"
   xmlns:inkscape="http://www.inkscape.org/namespaces/inkscape"
   sodipodi:docname="shapes-f18.svg"
   sodipodi:docbase="/home/aaron/notes/inkdoc/shapes"
   inkscape:version="0.41+cvs"
   sodipodi:version="0.32"
   id="svg2767"
   height="1052.3622047"
   width="744.09448819">
  <defs
     id="defs3" />
  <sodipodi:namedview
     inkscape:window-y="21"
     inkscape:window-x="0"
     inkscape:window-height="513"
     inkscape:window-width="753"
     inkscape:current-layer="layer1"
     inkscape:document-units="px"
     inkscape:cy="634.28571"
     inkscape:cx="375.00000"
     inkscape:zoom="0.35000000"
     inkscape:pageshadow="2"
     inkscape:pageopacity="0.0"
     borderopacity="1.0"
     bordercolor="#666666"
     pagecolor="#ffffff"
     id="base" />
  <metadata
     id="metadata4">
    <rdf:RDF
       id="RDF5">
      <cc:Work
         id="Work6"
         rdf:about="">
        <dc:format
           id="format7">image/svg+xml</dc:format>
        <dc:type
           rdf:resource="http://purl.org/dc/dcmitype/StillImage"
           id="type9" />
      </cc:Work>
    </rdf:RDF>
  </metadata>
  <g
     id="layer1"
     inkscape:groupmode="layer"
     inkscape:label="Layer 1">
    <path
       transform="matrix(0.847225,0.000000,0.000000,0.847225,6.330246,-4695.815)"
       d="M 58.552885,5590.9135 C 55.980193,5594.2918 43.528041,5587.4305 40.634977,5589.9941 C 37.844784,5592.4667 42.979891,5603.7983 38.956922,5604.2788 C 34.785633,5604.7771 35.141842,5589.6763 31.287322,5588.5250 C 27.569860,5587.4146 13.307517,5602.3382 10.860530,5599.4403 C 8.3233251,5596.4356 21.126150,5586.6960 19.870030,5582.8772 C 18.658574,5579.1942 1.9910396,5576.3070 2.6985329,5572.5482 C 3.4321106,5568.6508 20.401139,5571.1958 22.772952,5567.9635 C 25.060428,5564.8462 10.053367,5549.3462 13.371388,5547.5875 C 16.811741,5545.7640 28.599565,5560.4654 32.466738,5559.6200 C 36.196403,5558.8046 41.523454,5541.1999 45.156628,5542.6710 C 48.923752,5544.1964 43.700012,5560.3608 46.451863,5563.2725 C 49.105865,5566.0806 61.659111,5559.5105 62.993348,5563.1186 C 64.376776,5566.8597 49.955355,5573.0232 50.155723,5577.1909 C 50.348967,5581.2103 61.034097,5587.6554 58.552885,5590.9135 z "
       inkscape:randomized="0.10000000"
       inkscape:rounded="0.22000000"
       inkscape:flatsided="false"
       sodipodi:arg2="0.98389742"
       sodipodi:arg1="0.50595040"
       sodipodi:r2="15.364238"
       sodipodi:r1="30.728476"
       sodipodi:cy="5574.6763"
       sodipodi:cx="34.143131"
       sodipodi:sides="7"
       id="path2788"
       style="stroke-opacity:0.23692299;stroke-dashoffset:0.0000000;stroke-miterlimit:4.0000000;marker-end:none;marker-mid:none;marker-start:none;marker:none;stroke-linejoin:miter;stroke-linecap:butt;stroke-width:1.0184744pt;stroke:none;fill-rule:evenodd;fill-opacity:1.0000000;fill:#ff6c2e;color:#000000"
       sodipodi:type="star" />
    <path
       transform="matrix(0.847225,0.000000,0.000000,0.847225,66.37022,-4695.815)"
       d="M 62.191560,5577.1902 C 61.458685,5580.8598 51.126859,5578.4795 48.838310,5581.5984 C 46.636485,5584.5992 49.791644,5598.1223 46.690502,5600.1885 C 43.467215,5602.3361 36.674693,5590.7847 32.894210,5590.5684 C 29.256987,5590.3603 27.032281,5601.9514 23.494578,5600.6928 C 19.817534,5599.3848 26.451259,5590.5275 24.143719,5587.2571 C 21.923622,5584.1106 6.5692248,5587.1458 5.2937040,5583.4980 C 3.9679442,5579.7066 17.624071,5577.5529 17.900381,5573.5722 C 18.166221,5569.7424 6.7396238,5560.3112 9.3161986,5557.5202 C 11.994257,5554.6192 25.984937,5565.2571 29.426156,5563.3874 C 32.736970,5561.5886 31.236580,5546.7738 34.845434,5546.9739 C 38.596431,5547.1819 39.218751,5558.2293 42.547418,5559.8781 C 45.749947,5561.4645 53.590063,5554.6607 55.943981,5557.6787 C 58.390613,5560.8156 46.962163,5565.0847 47.597563,5568.8404 C 48.208885,5572.4537 62.896663,5573.6597 62.191560,5577.1902 z "
       inkscape:randomized="0.10000000"
       inkscape:rounded="0.22000000"
       inkscape:flatsided="false"
       sodipodi:arg2="0.64669515"
       sodipodi:arg1="0.16874813"
       sodipodi:r2="15.188270"
       sodipodi:r1="29.479511"
       sodipodi:cy="5574.6763"
       sodipodi:cx="34.143131"
       sodipodi:sides="7"
       id="path2789"
       style="stroke-opacity:0.23692299;stroke-dashoffset:0.0000000;stroke-miterlimit:4.0000000;marker-end:none;marker-mid:none;marker-start:none;marker:none;stroke-linejoin:miter;stroke-linecap:butt;stroke-width:1.0184744pt;stroke:none;fill-rule:evenodd;fill-opacity:1.0000000;fill:#ff6c2e;color:#000000"
       sodipodi:type="star" />
    <path
       transform="matrix(0.847225,0.000000,0.000000,0.847225,126.4111,-4695.815)"
       d="M 62.486956,5591.0579 C 59.903014,5594.3477 42.691510,5586.3135 39.362099,5588.5203 C 36.151073,5590.6486 40.762947,5604.2733 36.805763,5605.2530 C 32.702683,5606.2688 35.468063,5592.5582 31.676502,5591.4451 C 28.019759,5590.3715 12.608298,5599.8286 10.185357,5596.6903 C 7.6730860,5593.4362 20.889364,5582.8872 19.641771,5578.9068 C 18.438540,5575.0679 0.13004800,5578.8427 1.1799116,5574.9891 C 2.2684822,5570.9933 16.161098,5569.3149 18.500026,5565.9361 C 20.755787,5562.6775 11.645708,5551.8549 15.102032,5549.8426 C 18.685786,5547.7560 30.504598,5559.2299 34.582355,5559.2998 C 38.515117,5559.3672 41.089737,5545.3669 44.479968,5547.1595 C 47.995193,5549.0183 40.323831,5561.9148 43.383645,5564.4249 C 46.334659,5566.8457 60.878032,5558.1360 62.456044,5561.6963 C 64.092236,5565.3878 48.490933,5572.8371 47.674030,5576.7584 C 46.886174,5580.5402 64.979019,5587.8851 62.486956,5591.0579 z "
       inkscape:randomized="0.10000000"
       inkscape:rounded="0.22000000"
       inkscape:flatsided="false"
       sodipodi:arg2="1.0163215"
       sodipodi:arg1="0.53837452"
       sodipodi:r2="15.230559"
       sodipodi:r1="30.461117"
       sodipodi:cy="5574.6763"
       sodipodi:cx="34.143131"
       sodipodi:sides="7"
       id="path2790"
       style="stroke-opacity:0.23692299;stroke-dashoffset:0.0000000;stroke-miterlimit:4.0000000;marker-end:none;marker-mid:none;marker-start:none;marker:none;stroke-linejoin:miter;stroke-linecap:butt;stroke-width:1.0184744pt;stroke:none;fill-rule:evenodd;fill-opacity:1.0000000;fill:#ff6c2e;color:#000000"
       sodipodi:type="star" />
    <path
       transform="matrix(0.847225,0.000000,0.000000,0.847225,186.4497,-4695.815)"
       d="M 60.007892,5593.6395 C 58.125113,5597.0084 47.605861,5585.3906 44.178161,5587.0783 C 40.872342,5588.7059 42.451902,5607.6782 38.542979,5607.7896 C 34.489939,5607.9050 33.555160,5591.5810 29.746318,5590.4092 C 26.072910,5589.2790 15.842572,5597.4040 13.336275,5594.4468 C 10.737574,5591.3806 22.727863,5582.5624 22.081118,5578.5426 C 21.457369,5574.6658 6.3542956,5576.3415 6.9459401,5572.5066 C 7.5593975,5568.5302 17.959054,5570.8155 19.693069,5567.4175 C 21.365426,5564.1402 18.219383,5550.6720 21.889231,5548.9463 C 25.694380,5547.1570 28.705818,5559.0649 32.506075,5558.1665 C 36.171203,5557.2999 43.042511,5546.4711 46.727099,5547.6141 C 50.547533,5548.7992 42.465487,5558.9785 45.239341,5561.8173 C 47.914564,5564.5552 59.829529,5559.8857 60.751362,5563.5510 C 61.707181,5567.3514 51.087644,5574.0165 50.788246,5578.0494 C 50.499494,5581.9389 61.823725,5590.3903 60.007892,5593.6395 z "
       inkscape:randomized="0.10000000"
       inkscape:rounded="0.22000000"
       inkscape:flatsided="false"
       sodipodi:arg2="1.0759160"
       sodipodi:arg1="0.59796906"
       sodipodi:r2="15.162188"
       sodipodi:r1="30.324377"
       sodipodi:cy="5574.6763"
       sodipodi:cx="34.143131"
       sodipodi:sides="7"
       id="path2791"
       style="stroke-opacity:0.23692299;stroke-dashoffset:0.0000000;stroke-miterlimit:4.0000000;marker-end:none;marker-mid:none;marker-start:none;marker:none;stroke-linejoin:miter;stroke-linecap:butt;stroke-width:1.0184744pt;stroke:none;fill-rule:evenodd;fill-opacity:1.0000000;fill:#ff6c2e;color:#000000"
       sodipodi:type="star" />
    <path
       transform="matrix(0.847225,0.000000,0.000000,0.847225,246.4904,-4695.815)"
       d="M 59.226259,5596.8211 C 56.801365,5600.0811 44.094343,5589.1275 40.337524,5590.1484 C 36.714287,5591.1331 33.535715,5606.9925 29.881465,5606.8263 C 26.092489,5606.6539 32.280098,5591.9659 28.628102,5590.1469 C 25.105962,5588.3926 14.040302,5597.8945 12.320490,5594.3954 C 10.537270,5590.7673 19.165650,5580.1388 18.010959,5576.3813 C 16.897327,5572.7575 1.9505293,5570.0864 3.0630866,5566.2103 C 4.2166622,5562.1912 22.160106,5568.3199 24.521312,5564.8723 C 26.798559,5561.5472 19.560042,5550.6702 23.267880,5549.8792 C 27.112420,5549.0589 32.648341,5561.5327 36.730185,5562.1361 C 40.666889,5562.7181 46.026796,5543.0714 49.182440,5545.4501 C 52.454428,5547.9164 41.603528,5562.0237 44.356426,5565.1230 C 47.011437,5568.1121 63.135887,5563.0713 63.293467,5566.9552 C 63.456856,5570.9823 51.229966,5575.2072 50.685872,5579.0723 C 50.161125,5582.8001 61.564930,5593.6771 59.226259,5596.8211 z "
       inkscape:randomized="0.10000000"
       inkscape:rounded="0.22000000"
       inkscape:flatsided="false"
       sodipodi:arg2="1.2035873"
       sodipodi:arg1="0.72564034"
       sodipodi:r2="15.051932"
       sodipodi:r1="30.103865"
       sodipodi:cy="5574.6763"
       sodipodi:cx="34.143131"
       sodipodi:sides="7"
       id="path2792"
       style="stroke-opacity:0.23692299;stroke-dashoffset:0.0000000;stroke-miterlimit:4.0000000;marker-end:none;marker-mid:none;marker-start:none;marker:none;stroke-linejoin:miter;stroke-linecap:butt;stroke-width:1.0184744pt;stroke:none;fill-rule:evenodd;fill-opacity:1.0000000;fill:#ff6c2e;color:#000000"
       sodipodi:type="star" />
  </g>
</svg>
