<?xml version="1.0" encoding="UTF-8" standalone="no"?>
<!-- Created with Inkscape (http://www.inkscape.org/) -->
<svg
   xmlns:dc="http://purl.org/dc/elements/1.1/"
   xmlns:cc="http://web.resource.org/cc/"
   xmlns:rdf="http://www.w3.org/1999/02/22-rdf-syntax-ns#"
   xmlns:svg="http://www.w3.org/2000/svg"
   xmlns="http://www.w3.org/2000/svg"
   xmlns:xlink="http://www.w3.org/1999/xlink"
   xmlns:sodipodi="http://sodipodi.sourceforge.net/DTD/sodipodi-0.dtd"
   xmlns:inkscape="http://www.inkscape.org/namespaces/inkscape"
   sodipodi:docname="shapes-f08.svg"
   sodipodi:docbase="/home/aaron/notes/inkdoc/shapes"
   inkscape:version="0.41+cvs"
   sodipodi:version="0.32"
   id="svg3997"
   height="1052.3622047"
   width="744.09448819">
  <defs
     id="defs3">
    <linearGradient
       id="linearGradient2321">
      <stop
         id="stop2322"
         offset="0"
         style="stop-color:#e08f0d;stop-opacity:1;" />
      <stop
         id="stop2323"
         offset="1"
         style="stop-color:#e08f0d;stop-opacity:0;" />
    </linearGradient>
    <linearGradient
       gradientUnits="userSpaceOnUse"
       y2="-406.24228"
       x2="2389.0610"
       y1="-406.24228"
       x1="2298.4407"
       gradientTransform="matrix(0.148969,-7.928818e-8,2.041633e-7,0.441755,2592.988,-3996.382)"
       id="linearGradient2324"
       xlink:href="#linearGradient2321"
       inkscape:collect="always" />
    <linearGradient
       id="linearGradient2317">
      <stop
         id="stop2318"
         offset="0"
         style="stop-color:#e08f0d;stop-opacity:1;" />
      <stop
         id="stop2319"
         offset="1"
         style="stop-color:#e08f0d;stop-opacity:0;" />
    </linearGradient>
    <linearGradient
       gradientUnits="userSpaceOnUse"
       y2="-750.32340"
       x2="1342.9664"
       y1="-750.32340"
       x1="1237.0407"
       gradientTransform="matrix(0.265008,-1.410491e-7,1.147669e-7,0.248324,2592.988,-3996.382)"
       id="linearGradient2320"
       xlink:href="#linearGradient2317"
       inkscape:collect="always" />
    <linearGradient
       id="linearGradient2313">
      <stop
         id="stop2314"
         offset="0"
         style="stop-color:#e08f0d;stop-opacity:1;" />
      <stop
         id="stop2315"
         offset="1"
         style="stop-color:#e08f0d;stop-opacity:0;" />
    </linearGradient>
    <linearGradient
       gradientUnits="userSpaceOnUse"
       y2="-923.98458"
       x2="1197.9237"
       y1="-923.98458"
       x1="1090.1496"
       gradientTransform="matrix(0.307909,-1.638820e-7,9.877614e-8,0.213725,2592.988,-3996.382)"
       id="linearGradient2316"
       xlink:href="#linearGradient2313"
       inkscape:collect="always" />
    <linearGradient
       id="linearGradient2309">
      <stop
         id="stop2310"
         offset="0"
         style="stop-color:#e08f0d;stop-opacity:1;" />
      <stop
         id="stop2311"
         offset="1"
         style="stop-color:#e08f0d;stop-opacity:0;" />
    </linearGradient>
    <linearGradient
       gradientUnits="userSpaceOnUse"
       y2="-506.85540"
       x2="2318.4164"
       y1="-506.85540"
       x1="2203.8625"
       gradientTransform="matrix(0.159096,-8.467790e-8,1.911677e-7,0.413636,2592.988,-3996.382)"
       id="linearGradient2312"
       xlink:href="#linearGradient2309"
       inkscape:collect="always" />
    <linearGradient
       id="linearGradient2305">
      <stop
         id="stop2306"
         offset="0"
         style="stop-color:#e08f0d;stop-opacity:1;" />
      <stop
         id="stop2307"
         offset="1"
         style="stop-color:#e08f0d;stop-opacity:0;" />
    </linearGradient>
    <linearGradient
       gradientUnits="userSpaceOnUse"
       y2="-754.11358"
       x2="1699.0203"
       y1="-754.11358"
       x1="1634.6170"
       gradientTransform="matrix(0.212049,-1.128628e-7,1.434289e-7,0.310341,2592.988,-3996.382)"
       id="linearGradient2308"
       xlink:href="#linearGradient2305"
       inkscape:collect="always" />
    <linearGradient
       id="linearGradient2301">
      <stop
         id="stop2302"
         offset="0"
         style="stop-color:#e08f0d;stop-opacity:1;" />
      <stop
         id="stop2303"
         offset="1"
         style="stop-color:#e08f0d;stop-opacity:0;" />
    </linearGradient>
    <linearGradient
       gradientUnits="userSpaceOnUse"
       y2="-699.84037"
       x2="1520.0875"
       y1="-699.84037"
       x1="1457.0280"
       gradientTransform="matrix(0.247634,-1.318013e-7,1.228196e-7,0.265748,2592.988,-3996.382)"
       id="linearGradient2304"
       xlink:href="#linearGradient2301"
       inkscape:collect="always" />
    <linearGradient
       id="linearGradient2297">
      <stop
         id="stop2298"
         offset="0"
         style="stop-color:#e08f0d;stop-opacity:1;" />
      <stop
         id="stop2299"
         offset="1"
         style="stop-color:#e08f0d;stop-opacity:0;" />
    </linearGradient>
    <linearGradient
       gradientUnits="userSpaceOnUse"
       y2="-913.09080"
       x2="1034.4881"
       y1="-913.09080"
       x1="902.98678"
       gradientTransform="matrix(0.337024,-1.793832e-7,9.024314e-8,0.195262,2592.988,-3996.382)"
       id="linearGradient2300"
       xlink:href="#linearGradient2297"
       inkscape:collect="always" />
    <linearGradient
       id="linearGradient2293">
      <stop
         id="stop2294"
         offset="0"
         style="stop-color:#e08f0d;stop-opacity:1;" />
      <stop
         id="stop2295"
         offset="1"
         style="stop-color:#e08f0d;stop-opacity:0;" />
    </linearGradient>
    <linearGradient
       gradientUnits="userSpaceOnUse"
       y2="-613.84405"
       x2="1468.0661"
       y1="-613.84405"
       x1="1403.6628"
       gradientTransform="matrix(0.212049,-1.128628e-7,1.434289e-7,0.310341,2592.988,-3996.382)"
       id="linearGradient2296"
       xlink:href="#linearGradient2293"
       inkscape:collect="always" />
    <linearGradient
       id="linearGradient2289">
      <stop
         id="stop2290"
         offset="0"
         style="stop-color:#e08f0d;stop-opacity:1;" />
      <stop
         id="stop2291"
         offset="1"
         style="stop-color:#e08f0d;stop-opacity:0;" />
    </linearGradient>
    <linearGradient
       gradientUnits="userSpaceOnUse"
       y2="-405.69091"
       x2="1847.2608"
       y1="-405.69091"
       x1="1751.0344"
       gradientTransform="matrix(0.170017,-9.049121e-8,1.788880e-7,0.387066,2592.988,-3996.382)"
       id="linearGradient2292"
       xlink:href="#linearGradient2289"
       inkscape:collect="always" />
    <linearGradient
       id="linearGradient2363">
      <stop
         id="stop2364"
         offset="0"
         style="stop-color:#1c3e8b;stop-opacity:1;" />
      <stop
         id="stop2365"
         offset="1"
         style="stop-color:#1c3e8b;stop-opacity:0;" />
    </linearGradient>
    <linearGradient
       gradientUnits="userSpaceOnUse"
       y2="2797.5331"
       x2="3752.3441"
       y1="2797.5331"
       x1="3510.8434"
       gradientTransform="matrix(0.471219,-2.453493e-7,-2.617424e-8,0.530544,11864.54,11901.51)"
       id="linearGradient2366"
       xlink:href="#linearGradient2363"
       inkscape:collect="always" />
    <linearGradient
       id="linearGradient2359">
      <stop
         id="stop2360"
         offset="0"
         style="stop-color:#1c3e8b;stop-opacity:1;" />
      <stop
         id="stop2361"
         offset="1"
         style="stop-color:#1c3e8b;stop-opacity:0;" />
    </linearGradient>
    <linearGradient
       gradientUnits="userSpaceOnUse"
       y2="2131.1328"
       x2="4643.3326"
       y1="2131.1328"
       x1="4567.0376"
       gradientTransform="matrix(0.367977,-1.915944e-7,-3.351836e-8,0.679399,11965.28,11995.58)"
       id="linearGradient2362"
       xlink:href="#linearGradient2359"
       inkscape:collect="always" />
    <linearGradient
       id="linearGradient2355">
      <stop
         id="stop2356"
         offset="0"
         style="stop-color:#1c3e8b;stop-opacity:1;" />
      <stop
         id="stop2357"
         offset="1"
         style="stop-color:#1c3e8b;stop-opacity:0;" />
    </linearGradient>
    <linearGradient
       gradientUnits="userSpaceOnUse"
       y2="3355.8861"
       x2="2930.7437"
       y1="3355.8861"
       x1="2819.9553"
       gradientTransform="matrix(0.573292,-2.984954e-7,-2.151420e-8,0.436082,11833.63,11924.33)"
       id="linearGradient2358"
       xlink:href="#linearGradient2355"
       inkscape:collect="always" />
    <linearGradient
       id="linearGradient2347">
      <stop
         id="stop2348"
         offset="0"
         style="stop-color:#1c3e8b;stop-opacity:1;" />
      <stop
         id="stop2349"
         offset="1"
         style="stop-color:#1c3e8b;stop-opacity:0;" />
    </linearGradient>
    <linearGradient
       gradientUnits="userSpaceOnUse"
       y2="2637.3258"
       x2="3327.6196"
       y1="2637.3258"
       x1="3268.3346"
       gradientTransform="matrix(0.484667,-2.523513e-7,-2.544800e-8,0.515823,11864.54,11901.51)"
       id="linearGradient2350"
       xlink:href="#linearGradient2347"
       inkscape:collect="always" />
    <linearGradient
       gradientUnits="userSpaceOnUse"
       y2="3040.8998"
       x2="2679.7410"
       y1="3040.8998"
       x1="2642.4227"
       gradientTransform="matrix(0.576320,-3.000720e-7,-2.140105e-8,0.433791,11864.54,11901.51)"
       id="linearGradient2346"
       xlink:href="#linearGradient2343"
       inkscape:collect="always" />
    <linearGradient
       id="linearGradient2351">
      <stop
         id="stop2352"
         offset="0"
         style="stop-color:#1c3e8b;stop-opacity:1;" />
      <stop
         id="stop2353"
         offset="1"
         style="stop-color:#1c3e8b;stop-opacity:0;" />
    </linearGradient>
    <linearGradient
       gradientUnits="userSpaceOnUse"
       y2="2983.0510"
       x2="3164.0902"
       y1="2983.0510"
       x1="3063.7444"
       gradientTransform="matrix(0.525523,-2.736232e-7,-2.346968e-8,0.475722,11845.87,11880.86)"
       id="linearGradient2354"
       xlink:href="#linearGradient2351"
       inkscape:collect="always" />
    <linearGradient
       id="linearGradient2343">
      <stop
         id="stop2344"
         offset="0"
         style="stop-color:#1c3e8b;stop-opacity:1;" />
      <stop
         id="stop2345"
         offset="1"
         style="stop-color:#1c3e8b;stop-opacity:0;" />
    </linearGradient>
    <linearGradient
       y2="3040.8998"
       x2="2679.7410"
       y1="3040.8998"
       x1="2642.4227"
       gradientTransform="matrix(0.576320,-3.000720e-7,-2.140110e-8,0.433791,11834.73,11861.02)"
       gradientUnits="userSpaceOnUse"
       id="linearGradient5741"
       xlink:href="#linearGradient2343"
       inkscape:collect="always" />
    <linearGradient
       y2="-406.24228"
       x2="2389.0610"
       y1="-406.24228"
       x1="2298.4407"
       gradientTransform="matrix(0.148969,-7.928818e-8,2.041633e-7,0.441755,2592.988,-3996.382)"
       gradientUnits="userSpaceOnUse"
       id="linearGradient4114"
       xlink:href="#linearGradient2321"
       inkscape:collect="always" />
    <linearGradient
       y2="-750.32340"
       x2="1342.9664"
       y1="-750.32340"
       x1="1237.0407"
       gradientTransform="matrix(0.265008,-1.410491e-7,1.147669e-7,0.248324,2592.988,-3996.382)"
       gradientUnits="userSpaceOnUse"
       id="linearGradient4116"
       xlink:href="#linearGradient2317"
       inkscape:collect="always" />
    <linearGradient
       y2="-923.98458"
       x2="1197.9237"
       y1="-923.98458"
       x1="1090.1496"
       gradientTransform="matrix(0.307909,-1.638820e-7,9.877614e-8,0.213725,2592.988,-3996.382)"
       gradientUnits="userSpaceOnUse"
       id="linearGradient4118"
       xlink:href="#linearGradient2313"
       inkscape:collect="always" />
    <linearGradient
       y2="-506.85540"
       x2="2318.4164"
       y1="-506.85540"
       x1="2203.8625"
       gradientTransform="matrix(0.159096,-8.467790e-8,1.911677e-7,0.413636,2592.988,-3996.382)"
       gradientUnits="userSpaceOnUse"
       id="linearGradient4120"
       xlink:href="#linearGradient2309"
       inkscape:collect="always" />
    <linearGradient
       y2="-754.11358"
       x2="1699.0203"
       y1="-754.11358"
       x1="1634.6170"
       gradientTransform="matrix(0.212049,-1.128628e-7,1.434289e-7,0.310341,2592.988,-3996.382)"
       gradientUnits="userSpaceOnUse"
       id="linearGradient4122"
       xlink:href="#linearGradient2305"
       inkscape:collect="always" />
    <linearGradient
       y2="-699.84037"
       x2="1520.0875"
       y1="-699.84037"
       x1="1457.0280"
       gradientTransform="matrix(0.247634,-1.318013e-7,1.228196e-7,0.265748,2592.988,-3996.382)"
       gradientUnits="userSpaceOnUse"
       id="linearGradient4124"
       xlink:href="#linearGradient2301"
       inkscape:collect="always" />
    <linearGradient
       y2="-913.09080"
       x2="1034.4881"
       y1="-913.09080"
       x1="902.98678"
       gradientTransform="matrix(0.337024,-1.793832e-7,9.024314e-8,0.195262,2592.988,-3996.382)"
       gradientUnits="userSpaceOnUse"
       id="linearGradient4126"
       xlink:href="#linearGradient2297"
       inkscape:collect="always" />
    <linearGradient
       y2="-613.84405"
       x2="1468.0661"
       y1="-613.84405"
       x1="1403.6628"
       gradientTransform="matrix(0.212049,-1.128628e-7,1.434289e-7,0.310341,2592.988,-3996.382)"
       gradientUnits="userSpaceOnUse"
       id="linearGradient4128"
       xlink:href="#linearGradient2293"
       inkscape:collect="always" />
    <linearGradient
       y2="-405.69091"
       x2="1847.2608"
       y1="-405.69091"
       x1="1751.0344"
       gradientTransform="matrix(0.170017,-9.049121e-8,1.788880e-7,0.387066,2592.988,-3996.382)"
       gradientUnits="userSpaceOnUse"
       id="linearGradient4130"
       xlink:href="#linearGradient2289"
       inkscape:collect="always" />
    <linearGradient
       y2="2797.5331"
       x2="3752.3441"
       y1="2797.5331"
       x1="3510.8434"
       gradientTransform="matrix(0.471219,-2.453493e-7,-2.617424e-8,0.530544,11864.54,11901.51)"
       gradientUnits="userSpaceOnUse"
       id="linearGradient4132"
       xlink:href="#linearGradient2363"
       inkscape:collect="always" />
    <linearGradient
       y2="2131.1328"
       x2="4643.3326"
       y1="2131.1328"
       x1="4567.0376"
       gradientTransform="matrix(0.367977,-1.915944e-7,-3.351836e-8,0.679399,11965.28,11995.58)"
       gradientUnits="userSpaceOnUse"
       id="linearGradient4134"
       xlink:href="#linearGradient2359"
       inkscape:collect="always" />
    <linearGradient
       y2="3355.8861"
       x2="2930.7437"
       y1="3355.8861"
       x1="2819.9553"
       gradientTransform="matrix(0.573292,-2.984954e-7,-2.151420e-8,0.436082,11833.63,11924.33)"
       gradientUnits="userSpaceOnUse"
       id="linearGradient4136"
       xlink:href="#linearGradient2355"
       inkscape:collect="always" />
    <linearGradient
       y2="2637.3258"
       x2="3327.6196"
       y1="2637.3258"
       x1="3268.3346"
       gradientTransform="matrix(0.484667,-2.523513e-7,-2.544800e-8,0.515823,11864.54,11901.51)"
       gradientUnits="userSpaceOnUse"
       id="linearGradient4138"
       xlink:href="#linearGradient2347"
       inkscape:collect="always" />
    <linearGradient
       y2="3040.8998"
       x2="2679.7410"
       y1="3040.8998"
       x1="2642.4227"
       gradientTransform="matrix(0.576320,-3.000720e-7,-2.140105e-8,0.433791,11864.54,11901.51)"
       gradientUnits="userSpaceOnUse"
       id="linearGradient4140"
       xlink:href="#linearGradient2343"
       inkscape:collect="always" />
    <linearGradient
       y2="2983.0510"
       x2="3164.0902"
       y1="2983.0510"
       x1="3063.7444"
       gradientTransform="matrix(0.525523,-2.736232e-7,-2.346968e-8,0.475722,11845.87,11880.86)"
       gradientUnits="userSpaceOnUse"
       id="linearGradient4142"
       xlink:href="#linearGradient2351"
       inkscape:collect="always" />
    <linearGradient
       y2="3040.8998"
       x2="2679.7410"
       y1="3040.8998"
       x1="2642.4227"
       gradientTransform="matrix(0.576320,-3.000720e-7,-2.140110e-8,0.433791,11834.73,11861.02)"
       gradientUnits="userSpaceOnUse"
       id="linearGradient4144"
       xlink:href="#linearGradient2343"
       inkscape:collect="always" />
    <linearGradient
       y2="3040.8998"
       x2="2679.7410"
       y1="3040.8998"
       x1="2642.4227"
       gradientTransform="matrix(0.576320,-3.000720e-7,-2.140111e-8,0.433791,-1180.852,-1144.845)"
       gradientUnits="userSpaceOnUse"
       id="linearGradient4147"
       xlink:href="#linearGradient2343"
       inkscape:collect="always" />
    <linearGradient
       y2="2983.0510"
       x2="3164.0902"
       y1="2983.0510"
       x1="3063.7444"
       gradientTransform="matrix(0.525523,-2.736232e-7,-2.346969e-8,0.475722,-1169.712,-1125.005)"
       gradientUnits="userSpaceOnUse"
       id="linearGradient4150"
       xlink:href="#linearGradient2351"
       inkscape:collect="always" />
    <linearGradient
       y2="3040.8998"
       x2="2679.7410"
       y1="3040.8998"
       x1="2642.4227"
       gradientTransform="matrix(0.576320,-3.000720e-7,-2.140106e-8,0.433791,-1151.042,-1104.355)"
       gradientUnits="userSpaceOnUse"
       id="linearGradient4153"
       xlink:href="#linearGradient2343"
       inkscape:collect="always" />
    <linearGradient
       y2="2637.3258"
       x2="3327.6196"
       y1="2637.3258"
       x1="3268.3346"
       gradientTransform="matrix(0.484667,-2.523513e-7,-2.544801e-8,0.515823,-1151.042,-1104.355)"
       gradientUnits="userSpaceOnUse"
       id="linearGradient4156"
       xlink:href="#linearGradient2347"
       inkscape:collect="always" />
    <linearGradient
       y2="3355.8861"
       x2="2930.7437"
       y1="3355.8861"
       x1="2819.9553"
       gradientTransform="matrix(0.573292,-2.984954e-7,-2.151421e-8,0.436082,-1181.952,-1081.535)"
       gradientUnits="userSpaceOnUse"
       id="linearGradient4159"
       xlink:href="#linearGradient2355"
       inkscape:collect="always" />
    <linearGradient
       y2="2131.1328"
       x2="4643.3326"
       y1="2131.1328"
       x1="4567.0376"
       gradientTransform="matrix(0.367977,-1.915944e-7,-3.351838e-8,0.679399,-1050.302,-1010.285)"
       gradientUnits="userSpaceOnUse"
       id="linearGradient4162"
       xlink:href="#linearGradient2359"
       inkscape:collect="always" />
    <linearGradient
       y2="2797.5331"
       x2="3752.3441"
       y1="2797.5331"
       x1="3510.8434"
       gradientTransform="matrix(0.471219,-2.453493e-7,-2.617425e-8,0.530544,-1151.042,-1104.355)"
       gradientUnits="userSpaceOnUse"
       id="linearGradient4165"
       xlink:href="#linearGradient2363"
       inkscape:collect="always" />
    <linearGradient
       y2="-405.69091"
       x2="1847.2608"
       y1="-405.69091"
       x1="1751.0344"
       gradientTransform="matrix(0.170017,-9.049116e-8,1.788881e-7,0.387066,-556.0146,144.2860)"
       gradientUnits="userSpaceOnUse"
       id="linearGradient4168"
       xlink:href="#linearGradient2289"
       inkscape:collect="always" />
    <linearGradient
       y2="-613.84405"
       x2="1468.0661"
       y1="-613.84405"
       x1="1403.6628"
       gradientTransform="matrix(0.212049,-1.128627e-7,1.434290e-7,0.310341,-556.0146,144.2860)"
       gradientUnits="userSpaceOnUse"
       id="linearGradient4171"
       xlink:href="#linearGradient2293"
       inkscape:collect="always" />
    <linearGradient
       y2="-913.09080"
       x2="1034.4881"
       y1="-913.09080"
       x1="902.98678"
       gradientTransform="matrix(0.337024,-1.793831e-7,9.024318e-8,0.195262,-556.0146,144.2860)"
       gradientUnits="userSpaceOnUse"
       id="linearGradient4174"
       xlink:href="#linearGradient2297"
       inkscape:collect="always" />
    <linearGradient
       y2="-699.84037"
       x2="1520.0875"
       y1="-699.84037"
       x1="1457.0280"
       gradientTransform="matrix(0.247634,-1.318012e-7,1.228197e-7,0.265748,-556.0146,144.2860)"
       gradientUnits="userSpaceOnUse"
       id="linearGradient4177"
       xlink:href="#linearGradient2301"
       inkscape:collect="always" />
    <linearGradient
       y2="-754.11358"
       x2="1699.0203"
       y1="-754.11358"
       x1="1634.6170"
       gradientTransform="matrix(0.212049,-1.128627e-7,1.434290e-7,0.310341,-556.0146,144.2860)"
       gradientUnits="userSpaceOnUse"
       id="linearGradient4180"
       xlink:href="#linearGradient2305"
       inkscape:collect="always" />
    <linearGradient
       y2="-506.85540"
       x2="2318.4164"
       y1="-506.85540"
       x1="2203.8625"
       gradientTransform="matrix(0.159096,-8.467785e-8,1.911678e-7,0.413636,-556.0146,144.2860)"
       gradientUnits="userSpaceOnUse"
       id="linearGradient4183"
       xlink:href="#linearGradient2309"
       inkscape:collect="always" />
    <linearGradient
       y2="-923.98458"
       x2="1197.9237"
       y1="-923.98458"
       x1="1090.1496"
       gradientTransform="matrix(0.307909,-1.638819e-7,9.877619e-8,0.213725,-556.0146,144.2860)"
       gradientUnits="userSpaceOnUse"
       id="linearGradient4186"
       xlink:href="#linearGradient2313"
       inkscape:collect="always" />
    <linearGradient
       y2="-750.32340"
       x2="1342.9664"
       y1="-750.32340"
       x1="1237.0407"
       gradientTransform="matrix(0.265008,-1.410490e-7,1.147670e-7,0.248324,-556.0146,144.2860)"
       gradientUnits="userSpaceOnUse"
       id="linearGradient4189"
       xlink:href="#linearGradient2317"
       inkscape:collect="always" />
    <linearGradient
       y2="-406.24228"
       x2="2389.0610"
       y1="-406.24228"
       x1="2298.4407"
       gradientTransform="matrix(0.148969,-7.928814e-8,2.041634e-7,0.441755,-556.0146,144.2860)"
       gradientUnits="userSpaceOnUse"
       id="linearGradient4192"
       xlink:href="#linearGradient2321"
       inkscape:collect="always" />
  </defs>
  <sodipodi:namedview
     inkscape:window-y="21"
     inkscape:window-x="4"
     inkscape:window-height="513"
     inkscape:window-width="753"
     inkscape:current-layer="layer1"
     inkscape:document-units="px"
     inkscape:cy="634.28571"
     inkscape:cx="375.00000"
     inkscape:zoom="0.35000000"
     inkscape:pageshadow="2"
     inkscape:pageopacity="0.0"
     borderopacity="1.0"
     bordercolor="#666666"
     pagecolor="#ffffff"
     id="base" />
  <metadata
     id="metadata4">
    <rdf:RDF
       id="RDF5">
      <cc:Work
         id="Work6"
         rdf:about="">
        <dc:format
           id="format7">image/svg+xml</dc:format>
        <dc:type
           rdf:resource="http://purl.org/dc/dcmitype/StillImage"
           id="type9" />
      </cc:Work>
    </rdf:RDF>
  </metadata>
  <g
     id="layer1"
     inkscape:groupmode="layer"
     inkscape:label="Layer 1">
    <rect
       transform="matrix(0.983287,0.182064,-0.629384,0.777094,0.000000,0.000000)"
       rx="7.9945683"
       ry="7.9253607"
       y="24.730272"
       x="52.982876"
       height="42.483540"
       width="14.214997"
       id="rect1001"
       style="opacity:0.27540985;color:#000000;fill:#1c768b;fill-opacity:1.0000000;fill-rule:evenodd;stroke:none;stroke-width:0.012500000;stroke-linecap:butt;stroke-linejoin:miter;marker:none;marker-start:none;marker-mid:none;marker-end:none;stroke-miterlimit:4.0000000;stroke-dashoffset:0.0000000;stroke-opacity:1.0000000" />
    <rect
       transform="matrix(0.983287,0.182064,-0.629384,0.777094,0.000000,0.000000)"
       rx="6.9707313"
       ry="7.9253669"
       y="9.1277390"
       x="73.669891"
       height="83.704903"
       width="13.941463"
       id="rect1002"
       style="opacity:0.27540985;color:#000000;fill:#1c768b;fill-opacity:1.0000000;fill-rule:evenodd;stroke:none;stroke-width:0.012500000;stroke-linecap:butt;stroke-linejoin:miter;marker:none;marker-start:none;marker-mid:none;marker-end:none;stroke-miterlimit:4.0000000;stroke-dashoffset:0.0000000;stroke-opacity:1.0000000" />
    <rect
       transform="matrix(0.983287,0.182064,-0.629384,0.777094,0.000000,0.000000)"
       rx="7.9945636"
       ry="7.9253669"
       y="-22.942562"
       x="94.021584"
       height="90.342232"
       width="15.751300"
       id="rect1003"
       style="opacity:0.27540985;color:#000000;fill:#1c768b;fill-opacity:1.0000000;fill-rule:evenodd;stroke:none;stroke-width:0.012500000;stroke-linecap:butt;stroke-linejoin:miter;marker:none;marker-start:none;marker-mid:none;marker-end:none;stroke-miterlimit:4.0000000;stroke-dashoffset:0.0000000;stroke-opacity:1.0000000" />
    <rect
       transform="matrix(0.983287,0.182064,-0.629384,0.777094,0.000000,0.000000)"
       rx="7.9945636"
       ry="7.9253669"
       y="-2.3353920"
       x="116.44432"
       height="69.735130"
       width="15.688381"
       id="rect1004"
       style="opacity:0.27540985;color:#000000;fill:#1c768b;fill-opacity:1.0000000;fill-rule:evenodd;stroke:none;stroke-width:0.012500000;stroke-linecap:butt;stroke-linejoin:miter;marker:none;marker-start:none;marker-mid:none;marker-end:none;stroke-miterlimit:4.0000000;stroke-dashoffset:0.0000000;stroke-opacity:1.0000000" />
    <rect
       transform="matrix(0.597045,-0.802208,-0.985911,-0.167270,0.000000,0.000000)"
       rx="7.9959264"
       ry="7.9131050"
       y="-135.38934"
       x="-63.499767"
       height="87.652534"
       width="12.887196"
       id="rect1005"
       style="opacity:0.27540985;color:#000000;fill:#1c768b;fill-opacity:1.0000000;fill-rule:evenodd;stroke:none;stroke-width:0.012500000;stroke-linecap:butt;stroke-linejoin:miter;marker:none;marker-start:none;marker-mid:none;marker-end:none;stroke-miterlimit:4.0000000;stroke-dashoffset:0.0000000;stroke-opacity:1.0000000" />
    <rect
       transform="matrix(0.597045,-0.802208,-0.985911,-0.167270,0.000000,0.000000)"
       rx="7.9959264"
       ry="7.9131050"
       y="-135.38934"
       x="-42.203621"
       height="87.652527"
       width="13.112824"
       id="rect1006"
       style="opacity:0.27540985;color:#000000;fill:#1c768b;fill-opacity:1.0000000;fill-rule:evenodd;stroke:none;stroke-width:0.012500000;stroke-linecap:butt;stroke-linejoin:miter;marker:none;marker-start:none;marker-mid:none;marker-end:none;stroke-miterlimit:4.0000000;stroke-dashoffset:0.0000000;stroke-opacity:1.0000000" />
    <rect
       transform="matrix(-0.999870,-1.615251e-2,-0.760407,-0.649446,0.000000,0.000000)"
       y="-55.075050"
       x="-213.50343"
       height="39.812424"
       width="13.271334"
       id="rect1628"
       style="color:#000000;fill:url(#linearGradient4192);fill-opacity:1.0000000;fill-rule:evenodd;stroke:#000000;stroke-width:0.39935148;stroke-linecap:butt;stroke-linejoin:miter;marker:none;marker-start:none;marker-mid:none;marker-end:none;stroke-miterlimit:4.0000000;stroke-dashoffset:0.0000000;stroke-opacity:1.0000000" />
    <rect
       transform="matrix(-0.999870,-1.615251e-2,-0.760407,-0.649446,0.000000,0.000000)"
       y="-55.075050"
       x="-228.07474"
       height="26.084311"
       width="27.842880"
       id="rect1629"
       style="color:#000000;fill:url(#linearGradient4189);fill-opacity:1.0000000;fill-rule:evenodd;stroke:#000000;stroke-width:0.39935148;stroke-linecap:butt;stroke-linejoin:miter;marker:none;marker-start:none;marker-mid:none;marker-end:none;stroke-miterlimit:4.0000000;stroke-dashoffset:0.0000000;stroke-opacity:1.0000000" />
    <rect
       transform="matrix(-0.999870,-1.615251e-2,-0.760407,-0.649446,0.000000,0.000000)"
       y="-64.595551"
       x="-220.23343"
       height="22.814457"
       width="32.956329"
       id="rect1630"
       style="color:#000000;fill:url(#linearGradient4186);fill-opacity:1.0000000;fill-rule:evenodd;stroke:#000000;stroke-width:0.39935148;stroke-linecap:butt;stroke-linejoin:miter;marker:none;marker-start:none;marker-mid:none;marker-end:none;stroke-miterlimit:4.0000000;stroke-dashoffset:0.0000000;stroke-opacity:1.0000000" />
    <rect
       transform="matrix(-0.999870,-1.615251e-2,-0.760407,-0.649446,0.000000,0.000000)"
       y="-88.944664"
       x="-205.27394"
       height="47.164021"
       width="17.996763"
       id="rect1631"
       style="color:#000000;fill:url(#linearGradient4183);fill-opacity:1.0000000;fill-rule:evenodd;stroke:#000000;stroke-width:0.39935148;stroke-linecap:butt;stroke-linejoin:miter;marker:none;marker-start:none;marker-mid:none;marker-end:none;stroke-miterlimit:4.0000000;stroke-dashoffset:0.0000000;stroke-opacity:1.0000000" />
    <rect
       transform="matrix(-0.999870,-1.615251e-2,-0.760407,-0.649446,0.000000,0.000000)"
       y="-99.625320"
       x="-209.27931"
       height="19.767448"
       width="13.428414"
       id="rect1632"
       style="color:#000000;fill:url(#linearGradient4180);fill-opacity:1.0000000;fill-rule:evenodd;stroke:#000000;stroke-width:0.39935148;stroke-linecap:butt;stroke-linejoin:miter;marker:none;marker-start:none;marker-mid:none;marker-end:none;stroke-miterlimit:4.0000000;stroke-dashoffset:0.0000000;stroke-opacity:1.0000000" />
    <rect
       transform="matrix(-0.999870,-1.615251e-2,-0.760407,-0.649446,0.000000,0.000000)"
       y="-49.959332"
       x="-195.09181"
       height="16.538391"
       width="15.387299"
       id="rect1633"
       style="color:#000000;fill:url(#linearGradient4177);fill-opacity:1.0000000;fill-rule:evenodd;stroke:#000000;stroke-width:0.39935148;stroke-linecap:butt;stroke-linejoin:miter;marker:none;marker-start:none;marker-mid:none;marker-end:none;stroke-miterlimit:4.0000000;stroke-dashoffset:0.0000000;stroke-opacity:1.0000000" />
    <rect
       transform="matrix(-0.999870,-1.615251e-2,-0.760407,-0.649446,0.000000,0.000000)"
       y="-46.729839"
       x="-251.57182"
       height="25.457584"
       width="44.090946"
       id="rect1634"
       style="color:#000000;fill:url(#linearGradient4174);fill-opacity:1.0000000;fill-rule:evenodd;stroke:#000000;stroke-width:0.39935148;stroke-linecap:butt;stroke-linejoin:miter;marker:none;marker-start:none;marker-mid:none;marker-end:none;stroke-miterlimit:4.0000000;stroke-dashoffset:0.0000000;stroke-opacity:1.0000000" />
    <rect
       transform="matrix(-0.999870,-1.615251e-2,-0.760407,-0.649446,0.000000,0.000000)"
       y="-56.094093"
       x="-258.25394"
       height="19.767448"
       width="13.428414"
       id="rect1635"
       style="color:#000000;fill:url(#linearGradient4171);fill-opacity:1.0000000;fill-rule:evenodd;stroke:#000000;stroke-width:0.39935148;stroke-linecap:butt;stroke-linejoin:miter;marker:none;marker-start:none;marker-mid:none;marker-end:none;stroke-miterlimit:4.0000000;stroke-dashoffset:0.0000000;stroke-opacity:1.0000000" />
    <rect
       transform="matrix(-0.999870,-1.615251e-2,-0.760407,-0.649446,0.000000,0.000000)"
       y="-31.251333"
       x="-278.05133"
       height="37.026443"
       width="35.988594"
       id="rect2258"
       style="color:#000000;fill:url(#linearGradient4168);fill-opacity:1.0000000;fill-rule:evenodd;stroke:#000000;stroke-width:0.39935157;stroke-linecap:butt;stroke-linejoin:miter;marker:none;marker-start:none;marker-mid:none;marker-end:none;stroke-miterlimit:4.0000000;stroke-dashoffset:0.0000000;stroke-opacity:1.0000000" />
    <rect
       transform="matrix(0.994469,0.105035,-0.995212,9.773932e-2,0.000000,0.000000)"
       ry="7.8878312"
       rx="13.385932"
       y="316.07477"
       x="503.61084"
       height="127.64034"
       width="113.31665"
       id="rect2260"
       style="color:#000000;fill:url(#linearGradient4165);fill-opacity:1.0000000;fill-rule:evenodd;stroke:#000000;stroke-width:0.97176641;stroke-linecap:butt;stroke-linejoin:miter;marker:none;marker-start:none;marker-mid:none;marker-end:none;stroke-miterlimit:4.0000000;stroke-dashoffset:0.0000000;stroke-opacity:1.0000000" />
    <rect
       transform="matrix(0.994469,0.105035,-0.995212,9.773932e-2,0.000000,0.000000)"
       ry="7.8878512"
       rx="12.530846"
       y="411.96344"
       x="630.53180"
       height="51.348545"
       width="27.589558"
       id="rect2261"
       style="color:#000000;fill:url(#linearGradient4162);fill-opacity:1.0000000;fill-rule:evenodd;stroke:#000000;stroke-width:0.97176427;stroke-linecap:butt;stroke-linejoin:miter;marker:none;marker-start:none;marker-mid:none;marker-end:none;stroke-miterlimit:4.0000000;stroke-dashoffset:0.0000000;stroke-opacity:1.0000000" />
    <rect
       transform="matrix(0.994469,0.105035,-0.995212,9.773932e-2,0.000000,0.000000)"
       ry="17.916412"
       rx="9.9613905"
       y="357.17535"
       x="458.08252"
       height="64.786018"
       width="33.879719"
       id="rect2262"
       style="color:#000000;fill:url(#linearGradient4159);fill-opacity:1.0000000;fill-rule:evenodd;stroke:#000000;stroke-width:0.97176623;stroke-linecap:butt;stroke-linejoin:miter;marker:none;marker-start:none;marker-mid:none;marker-end:none;stroke-miterlimit:4.0000000;stroke-dashoffset:0.0000000;stroke-opacity:1.0000000" />
    <rect
       transform="matrix(0.994469,0.105035,-0.995212,9.773932e-2,0.000000,0.000000)"
       ry="7.8878517"
       rx="12.636621"
       y="241.02594"
       x="433.28561"
       height="30.094519"
       width="28.248280"
       id="rect2263"
       style="color:#000000;fill:url(#linearGradient4156);fill-opacity:1.0000000;fill-rule:evenodd;stroke:#000000;stroke-width:0.97176409;stroke-linecap:butt;stroke-linejoin:miter;marker:none;marker-start:none;marker-mid:none;marker-end:none;stroke-miterlimit:4.0000000;stroke-dashoffset:0.0000000;stroke-opacity:1.0000000" />
    <rect
       transform="matrix(0.994469,0.105035,-0.995212,9.773932e-2,0.000000,0.000000)"
       ry="7.8878517"
       rx="10.936826"
       y="206.94293"
       x="372.11176"
       height="15.702374"
       width="21.021872"
       id="rect2264"
       style="color:#000000;fill:url(#linearGradient4153);fill-opacity:1.0000000;fill-rule:evenodd;stroke:#000000;stroke-width:0.97176409;stroke-linecap:butt;stroke-linejoin:miter;marker:none;marker-start:none;marker-mid:none;marker-end:none;stroke-miterlimit:4.0000000;stroke-dashoffset:0.0000000;stroke-opacity:1.0000000" />
    <rect
       transform="matrix(0.994469,0.105035,-0.995212,9.773932e-2,0.000000,0.000000)"
       ry="7.8878512"
       rx="13.385848"
       y="270.50543"
       x="440.64011"
       height="47.250500"
       width="52.249256"
       id="rect2259"
       style="color:#000000;fill:url(#linearGradient4150);fill-opacity:1.0000000;fill-rule:evenodd;stroke:#000000;stroke-width:0.97176427;stroke-linecap:butt;stroke-linejoin:miter;marker:none;marker-start:none;marker-mid:none;marker-end:none;stroke-miterlimit:4.0000000;stroke-dashoffset:0.0000000;stroke-opacity:1.0000000" />
    <rect
       transform="matrix(0.994469,0.105035,-0.995212,9.773932e-2,0.000000,0.000000)"
       ry="5.0297093"
       rx="4.8632979"
       y="170.69685"
       x="353.51703"
       height="11.478856"
       width="9.8363581"
       id="rect5740"
       style="color:#000000;fill:url(#linearGradient4147);fill-opacity:1.0000000;fill-rule:evenodd;stroke:#000000;stroke-width:0.97176498;stroke-linecap:butt;stroke-linejoin:miter;marker:none;marker-start:none;marker-mid:none;marker-end:none;stroke-miterlimit:4.0000000;stroke-dashoffset:0.0000000;stroke-opacity:1.0000000" />
  </g>
</svg>
