<?xml version="1.0" encoding="UTF-8" standalone="no"?>
<!-- Created with Inkscape (http://www.inkscape.org/) -->
<svg
   xmlns:xml="http://www.w3.org/XML/1998/namespace"
   xmlns:dc="http://purl.org/dc/elements/1.1/"
   xmlns:cc="http://web.resource.org/cc/"
   xmlns:rdf="http://www.w3.org/1999/02/22-rdf-syntax-ns#"
   xmlns:svg="http://www.w3.org/2000/svg"
   xmlns="http://www.w3.org/2000/svg"
   xmlns:sodipodi="http://sodipodi.sourceforge.net/DTD/sodipodi-0.dtd"
   xmlns:inkscape="http://www.inkscape.org/namespaces/inkscape"
   sodipodi:docname="shapes-f03.svg"
   sodipodi:docbase="/home/aaron/notes/inkdoc/shapes"
   inkscape:version="0.41+cvs"
   sodipodi:version="0.32"
   id="svg3737"
   height="1052.3622047"
   width="744.09448819">
  <defs
     id="defs3" />
  <sodipodi:namedview
     inkscape:window-y="21"
     inkscape:window-x="0"
     inkscape:window-height="513"
     inkscape:window-width="753"
     inkscape:current-layer="layer1"
     inkscape:document-units="px"
     inkscape:cy="634.28571"
     inkscape:cx="375.00000"
     inkscape:zoom="0.35000000"
     inkscape:pageshadow="2"
     inkscape:pageopacity="0.0"
     borderopacity="1.0"
     bordercolor="#666666"
     pagecolor="#ffffff"
     id="base" />
  <metadata
     id="metadata4">
    <rdf:RDF
       id="RDF5">
      <cc:Work
         id="Work6"
         rdf:about="">
        <dc:format
           id="format7">image/svg+xml</dc:format>
        <dc:type
           rdf:resource="http://purl.org/dc/dcmitype/StillImage"
           id="type9" />
      </cc:Work>
    </rdf:RDF>
  </metadata>
  <g
     id="layer1"
     inkscape:groupmode="layer"
     inkscape:label="Layer 1">
    <text
       sodipodi:insensitive="true"
       sodipodi:linespacing="140.00000%"
       id="text3161"
       y="145.20607"
       x="37.091438"
       style="font-size:5.9588757;font-style:normal;font-variant:normal;font-weight:normal;font-stretch:normal;line-height:140.00000%;writing-mode:lr-tb;text-anchor:start;fill:#000000;fill-opacity:1.0000000;stroke:none;stroke-width:1.0000000pt;stroke-linecap:butt;stroke-linejoin:miter;stroke-opacity:1.0000000;font-family:sans-serif"
       xml:space="preserve"><tspan
         y="145.20607"
         x="37.091438"
         id="tspan3162"
         sodipodi:role="line">Scaling rounded rectangles </tspan><tspan
         y="153.54850"
         x="37.091438"
         id="tspan3166"
         sodipodi:role="line">with &quot;Scale rounded corners&quot; OFF</tspan><tspan
         y="161.89092"
         x="37.091438"
         id="tspan3164"
         sodipodi:role="line" /></text>
    <rect
       rx="6.6371522"
       ry="16.969765"
       y="0.32250684"
       x="69.227531"
       height="122.77399"
       width="196.90794"
       id="rect2134"
       style="font-size:12.000000;fill:#0000ff;fill-opacity:0.11036784;fill-rule:evenodd;stroke:#000000;stroke-width:0.62500000;stroke-miterlimit:4.0000000;stroke-dasharray:0.62500000 1.2500000 ;stroke-dashoffset:0.0000000" />
    <rect
       rx="6.6371522"
       ry="16.969770"
       y="0.32091993"
       x="69.227531"
       height="63.105938"
       width="196.90794"
       id="rect2133"
       style="font-size:12.000000;fill:#0000ff;fill-opacity:0.11036784;fill-rule:evenodd;stroke:#000000;stroke-width:0.62500000;stroke-miterlimit:4.0000000;stroke-dasharray:0.62500000 1.2500000 ;stroke-dashoffset:0.0000000" />
    <rect
       rx="6.6371512"
       ry="16.969772"
       y="0.32848829"
       x="114.80495"
       height="105.77767"
       width="151.46671"
       id="rect2756"
       style="font-size:12.000000;fill:#0000ff;fill-opacity:0.11036784;fill-rule:evenodd;stroke:#000000;stroke-width:0.62500000;stroke-miterlimit:4.0000000;stroke-dasharray:0.62500000 1.2500000 ;stroke-dashoffset:0.0000000" />
    <rect
       rx="6.6371536"
       ry="16.969770"
       y="0.32091993"
       x="183.42854"
       height="63.105938"
       width="82.830170"
       id="rect2130"
       style="font-size:12.000000;fill:#ff0004;fill-opacity:0.75000000;fill-rule:evenodd;stroke:#000000;stroke-width:0.62500000;stroke-miterlimit:4.0000000;stroke-dashoffset:0.0000000" />
    <rect
       rx="6.6371431"
       ry="16.969759"
       y="0.33190626"
       x="205.55838"
       height="55.114822"
       width="60.755871"
       id="rect2757"
       style="font-size:12.000000;fill:#0000ff;fill-opacity:0.11036784;fill-rule:evenodd;stroke:#000000;stroke-width:0.62500000;stroke-miterlimit:4.0000000;stroke-dasharray:0.62500000 1.2500000 ;stroke-dashoffset:0.0000000" />
    <rect
       rx="6.6371565"
       ry="16.969774"
       y="0.33080763"
       x="218.33806"
       height="149.51537"
       width="47.954056"
       id="rect2759"
       style="font-size:12.000000;fill:#0000ff;fill-opacity:0.11036784;fill-rule:evenodd;stroke:#000000;stroke-width:0.62500000;stroke-miterlimit:4.0000000;stroke-dasharray:0.62500000 1.2500000 ;stroke-dashoffset:0.0000000" />
    <rect
       rx="6.6371417"
       ry="16.969746"
       y="0.31225294"
       x="227.63776"
       height="28.790329"
       width="38.351963"
       id="rect2758"
       style="font-size:12.000000;fill:#0000ff;fill-opacity:0.11036784;fill-rule:evenodd;stroke:#000000;stroke-width:0.62500000;stroke-miterlimit:4.0000000;stroke-dasharray:0.62500000 1.2500000 ;stroke-dashoffset:0.0000000" />
    <rect
       rx="6.6371417"
       ry="16.969742"
       y="0.35815138"
       x="36.352345"
       height="41.086792"
       width="229.81862"
       id="rect1911"
       style="font-size:12.000000;fill:#0000ff;fill-opacity:0.11036784;fill-rule:evenodd;stroke:#000000;stroke-width:0.62499994;stroke-miterlimit:4.0000000;stroke-dasharray:0.62499992 1.2499998 ;stroke-dashoffset:0.0000000" />
  </g>
</svg>
