<?xml version="1.0" encoding="UTF-8" standalone="no"?>
<!-- Created with Inkscape (http://www.inkscape.org/) -->
<svg
   xmlns:dc="http://purl.org/dc/elements/1.1/"
   xmlns:cc="http://web.resource.org/cc/"
   xmlns:rdf="http://www.w3.org/1999/02/22-rdf-syntax-ns#"
   xmlns:svg="http://www.w3.org/2000/svg"
   xmlns="http://www.w3.org/2000/svg"
   xmlns:sodipodi="http://sodipodi.sourceforge.net/DTD/sodipodi-0.dtd"
   xmlns:inkscape="http://www.inkscape.org/namespaces/inkscape"
   sodipodi:docname="shapes-f14.svg"
   sodipodi:docbase="/home/aaron/notes/inkdoc/shapes"
   inkscape:version="0.41+cvs"
   sodipodi:version="0.32"
   id="svg5645"
   height="1052.3622047"
   width="744.09448819">
  <defs
     id="defs3" />
  <sodipodi:namedview
     inkscape:window-y="21"
     inkscape:window-x="4"
     inkscape:window-height="513"
     inkscape:window-width="753"
     inkscape:current-layer="layer1"
     inkscape:document-units="px"
     inkscape:cy="520.00000"
     inkscape:cx="375.00000"
     inkscape:zoom="0.35000000"
     inkscape:pageshadow="2"
     inkscape:pageopacity="0.0"
     borderopacity="1.0"
     bordercolor="#666666"
     pagecolor="#ffffff"
     id="base" />
  <metadata
     id="metadata4">
    <rdf:RDF
       id="RDF5">
      <cc:Work
         id="Work6"
         rdf:about="">
        <dc:format
           id="format7">image/svg+xml</dc:format>
        <dc:type
           rdf:resource="http://purl.org/dc/dcmitype/StillImage"
           id="type9" />
      </cc:Work>
    </rdf:RDF>
  </metadata>
  <g
     id="layer1"
     inkscape:groupmode="layer"
     inkscape:label="Layer 1">
    <path
       transform="matrix(2.435996,0.000000,0.000000,2.435996,-239.6238,-10265.24)"
       d="M 184.94761,4242.2965 L 168.89287,4238.6576 L 183.74624,4244.0066 L 168.30381,4238.3033 L 182.33193,4245.5452 L 167.76605,4237.8751 L 180.72888,4246.8861 L 167.28878,4237.3803 L 178.96453,4248.0063 L 166.88016,4236.8275 L 177.06906,4248.8866 L 166.54720,4236.2261 L 175.07491,4249.5120 L 166.29558,4235.5864 L 173.01619,4249.8717 L 166.12962,4234.9194 L 170.92813,4249.9596 L 166.05214,4234.2363 L 168.84646,4249.7742 L 166.06448,4233.5490 L 166.80679,4249.3187 L 166.16643,4232.8692 L 164.84403,4248.6009 L 166.35624,4232.2085 L 162.99175,4247.6330 L 166.63066,4231.5782 L 161.28166,4246.4316 L 166.98500,4230.9892 L 159.74301,4245.0173 L 167.41320,4230.4514 L 158.40213,4243.4143 L 167.90792,4229.9742 L 157.28195,4241.6499 L 168.46071,4229.5655 L 156.40166,4239.7544 L 169.06211,4229.2326 L 155.77630,4237.7603 L 169.70182,4228.9810 L 155.41658,4235.7016 L 170.36890,4228.8150 L 155.32866,4233.6135 L 171.05193,4228.7375 L 155.51404,4231.5318 L 171.73924,4228.7499 L 155.96954,4229.4922 L 172.41905,4228.8518 L 156.68737,4227.5294 L 173.07975,4229.0416 L 157.65526,4225.6771 L 173.71001,4229.3160 L 158.85664,4223.9670 L 174.29906,4229.6704 L 160.27095,4222.4284 L 174.83682,4230.0986 L 161.87399,4221.0875 L 175.31410,4230.5933 L 163.63834,4219.9673 L 175.72271,4231.1461 L 165.53381,4219.0870 L 176.05567,4231.7475 L 167.52797,4218.4617 L 176.30729,4232.3872 L 169.58669,4218.1020 L 176.47326,4233.0543 L 171.67475,4218.0140 L 176.55073,4233.7373 L 173.75642,4218.1994 L 176.53839,4234.4246 L 175.79608,4218.6549 L 176.43644,4235.1044 L 177.75885,4219.3728 L 176.24664,4235.7651 L 179.61112,4220.3406 L 175.97221,4236.3954 L 181.32121,4221.5420 L 175.61787,4236.9844 L 182.85987,4222.9563 L 175.18968,4237.5222 L 184.20075,4224.5594 L 174.69495,4237.9995 L 185.32092,4226.3237 L 174.14216,4238.4081 L 186.20122,4228.2192 L 173.54077,4238.7411 L 186.82658,4230.2133 L 172.90106,4238.9927 L 187.18629,4232.2721 L 172.23398,4239.1586 L 187.27422,4234.3601 L 171.55094,4239.2361 L 187.08884,4236.4418 L 170.86364,4239.2238 L 186.63334,4238.4815 L 170.18382,4239.1218 L 185.91550,4240.4442 L 169.52313,4238.9320 L 184.94761,4242.2965 z "
       inkscape:randomized="0.0000000"
       inkscape:rounded="0.0000000"
       inkscape:flatsided="false"
       sodipodi:arg2="2.0469000"
       sodipodi:arg1="0.54696605"
       sodipodi:r2="5.2552228"
       sodipodi:r1="15.977139"
       sodipodi:cy="4233.9868"
       sodipodi:cx="171.30144"
       sodipodi:sides="48"
       id="path2725"
       style="stroke-opacity:1.0000000;stroke-dashoffset:0.0000000;stroke-miterlimit:4.0000000;marker-end:none;marker-mid:none;marker-start:none;marker:none;stroke-linejoin:miter;stroke-linecap:butt;stroke-width:0.015394123;stroke:#000000;fill-rule:evenodd;fill-opacity:0.75000000;fill:none;color:#000000"
       sodipodi:type="star" />
    <path
       transform="matrix(0.996295,-8.599074e-2,8.599074e-2,0.996295,-255.7489,-4191.319)"
       d="M 45.956989,4353.4876 L 35.655021,4310.8169 L 16.817800,4355.9931 L 54.216588,4333.0093 L 5.4304445,4329.0543 L 38.846134,4357.5203 L 27.531860,4309.8997 L 10.785104,4350.4764 L 52.578641,4325.0003 L 8.8128881,4321.6121 L 45.956989,4353.4876 z "
       inkscape:randomized="0.0000000"
       inkscape:rounded="0.0000000"
       inkscape:flatsided="false"
       sodipodi:arg2="-1.3248582"
       sodipodi:arg1="0.85670563"
       sodipodi:r2="24.610689"
       sodipodi:r1="24.878733"
       sodipodi:cy="4334.6870"
       sodipodi:cx="29.663147"
       sodipodi:sides="5"
       id="path2918"
       style="stroke-opacity:0.23692299;stroke-dashoffset:0.0000000;stroke-miterlimit:4.0000000;marker-end:none;marker-mid:none;marker-start:none;marker:none;stroke-linejoin:miter;stroke-linecap:butt;stroke-width:0.68540149pt;stroke:none;fill-rule:evenodd;fill-opacity:1.0000000;fill:#520100;color:#000000"
       sodipodi:type="star" />
    <polygon
       d="M 32.276994,2897.7581 L 42.831345,2851.0513 L -12.364565,2867.1939 L 22.807589,2899.6877 L 36.425599,2843.8153 L -9.3009067,2858.0284 L 32.276994,2897.7581 z "
       inkscape:randomized="0.0000000"
       inkscape:rounded="0.0000000"
       inkscape:flatsided="false"
       transform="matrix(8.282123e-2,0.375917,-0.375917,8.282123e-2,1327.200,-115.9900)"
       points="32.277,2897.76 42.8313,2851.05 -12.3646,2867.19 22.8076,2899.69 36.4256,2843.82 -9.30091,2858.03 32.277,2897.76 "
       sodipodi:arg2="-0.65664333"
       sodipodi:arg1="1.1239539"
       sodipodi:r2="30.366934"
       sodipodi:r1="31.235876"
       sodipodi:cy="2869.5891"
       sodipodi:cx="18.779343"
       sodipodi:sides="3"
       id="polygon1259"
       style="stroke-opacity:1.0000000;stroke-dashoffset:0.0000000;stroke-miterlimit:4.0000000;marker-end:none;marker-mid:none;marker-start:none;marker:none;stroke-linejoin:miter;stroke-linecap:butt;stroke-width:0.47465411;stroke:#000000;fill-rule:evenodd;fill-opacity:0.75000000;fill:none;color:#000000;font-size:12.000000"
       sodipodi:type="star" />
    <polygon
       d="M 171.36150,2897.7582 L 187.98050,2859.9248 L 156.48797,2872.4552 L 197.60521,2876.5696 L 175.95638,2850.4906 L 184.74922,2890.8668 L 202.86204,2862.2187 L 167.17908,2883.0581 L 200.02225,2891.4317 L 169.17612,2863.9349 L 171.36150,2897.7582 z "
       inkscape:randomized="0.0000000"
       inkscape:rounded="0.0000000"
       inkscape:flatsided="false"
       transform="matrix(0.968463,-0.249152,0.249152,0.968463,-691.4436,-2621.787)"
       points="171.362,2897.76 187.981,2859.92 156.488,2872.46 197.605,2876.57 175.956,2850.49 184.749,2890.87 202.862,2862.22 167.179,2883.06 200.022,2891.43 169.176,2863.93 171.362,2897.76 "
       sodipodi:arg2="-1.1525840"
       sodipodi:arg1="1.9818609"
       sodipodi:r2="16.355642"
       sodipodi:r1="24.967192"
       sodipodi:cy="2874.8708"
       sodipodi:cx="181.33803"
       sodipodi:sides="5"
       id="polygon1263"
       style="stroke-opacity:1.0000000;stroke-width:0.25000000;stroke:#000000;fill-rule:evenodd;fill-opacity:0.75000000;fill:none;font-size:12.000000"
       sodipodi:type="star" />
    <path
       transform="matrix(1.287909,0.000000,0.000000,1.287909,2.889197,-5380.424)"
       d="M 35.930009,4210.6035 L 17.469246,4187.5232 L 33.960246,4212.2200 L 20.356951,4185.9817 L 31.712960,4213.4212 L 23.489899,4185.0332 L 29.274512,4214.1609 L 26.747694,4184.7141 L 26.738611,4214.4107 L 30.005140,4185.0367 L 24.202710,4214.1609 L 33.137055,4185.9886 L 21.764263,4213.4212 L 36.023081,4187.5333 L 19.516977,4212.2200 L 38.552310,4189.6113 L 17.547214,4210.6035 L 40.627546,4192.1427 L 15.930671,4208.6337 L 42.169038,4195.0304 L 14.729472,4206.3865 L 43.117546,4198.1634 L 13.989777,4203.9480 L 43.436622,4201.4212 L 13.740012,4201.4121 L 43.114002,4204.6786 L 13.989777,4198.8762 L 42.162086,4207.8106 L 14.729472,4196.4378 L 40.617454,4210.6966 L 15.930671,4194.1905 L 38.539465,4213.2258 L 17.547214,4192.2207 L 36.007977,4215.3010 L 19.516976,4190.6042 L 33.120272,4216.8425 L 21.764263,4189.4030 L 29.987323,4217.7910 L 24.202710,4188.6633 L 26.729528,4218.1101 L 26.738611,4188.4135 L 23.472083,4217.7875 L 29.274512,4188.6633 L 20.340168,4216.8356 L 31.712960,4189.4030 L 17.454141,4215.2910 L 33.960246,4190.6042 L 14.924912,4213.2130 L 35.930009,4192.2207 L 12.849676,4210.6815 L 37.546551,4194.1905 L 11.308185,4207.7938 L 38.747751,4196.4378 L 10.359676,4204.6608 L 39.487446,4198.8762 L 10.040600,4201.4030 L 39.737210,4201.4121 L 10.363220,4198.1456 L 39.487446,4203.9480 L 11.315137,4195.0137 L 38.747751,4206.3865 L 12.859769,4192.1276 L 37.546551,4208.6337 L 14.937757,4189.5984 L 35.930009,4210.6035 z "
       inkscape:randomized="0.0000000"
       inkscape:rounded="0.0000000"
       inkscape:flatsided="false"
       sodipodi:arg2="-2.1593010"
       sodipodi:arg1="0.78539816"
       sodipodi:r2="16.698013"
       sodipodi:r1="12.998599"
       sodipodi:cy="4201.4121"
       sodipodi:cx="26.738611"
       sodipodi:sides="32"
       id="path3540"
       style="stroke-opacity:0.23692299;stroke-dashoffset:0.0000000;stroke-miterlimit:4.0000000;marker-end:none;marker-mid:none;marker-start:none;marker:none;stroke-linejoin:miter;stroke-linecap:butt;stroke-width:0.68540149pt;stroke:none;fill-rule:evenodd;fill-opacity:1.0000000;fill:#520100;color:#000000"
       sodipodi:type="star" />
    <path
       transform="translate(9.625604,-4175.231)"
       d="M 262.66790,4224.3501 L 227.00457,4237.4206 L 250.41518,4228.0157 L 215.95520,4212.0401 L 239.15922,4221.9437 L 226.08878,4186.2804 L 235.49361,4209.6910 L 251.46920,4175.2310 L 241.56562,4198.4350 L 277.22895,4185.3646 L 253.81834,4194.7694 L 288.27832,4210.7450 L 265.07430,4200.8414 L 278.14474,4236.5048 L 268.73991,4213.0942 L 252.76432,4247.5541 L 262.66790,4224.3501 z "
       inkscape:randomized="0.0000000"
       inkscape:rounded="0.0000000"
       inkscape:flatsided="false"
       sodipodi:arg2="2.3382889"
       sodipodi:arg1="0.88740509"
       sodipodi:r2="36.167358"
       sodipodi:r1="16.710012"
       sodipodi:cy="4211.3926"
       sodipodi:cx="252.11676"
       sodipodi:sides="8"
       id="path2723"
       style="stroke-opacity:0.23692299;stroke-dashoffset:0.0000000;stroke-miterlimit:4.0000000;marker-end:none;marker-mid:none;marker-start:none;marker:none;stroke-linejoin:miter;stroke-linecap:butt;stroke-width:0.68540149pt;stroke:none;fill-rule:evenodd;fill-opacity:1.0000000;fill:#520100;color:#000000"
       sodipodi:type="star" />
    <path
       transform="matrix(1.000000,3.348310e-5,-3.348310e-5,1.000000,0.143069,-4181.756)"
       d="M 307.95060,4272.0326 L 266.67057,4272.6751 L 300.22613,4290.0915 L 270.58240,4261.3565 L 281.99451,4297.3991 L 281.35198,4256.1191 L 263.93558,4289.6746 L 292.67063,4260.0309 L 256.62802,4271.4430 L 297.90804,4270.8005 L 264.35248,4253.3841 L 293.99621,4282.1191 L 282.58410,4246.0765 L 283.22663,4287.3565 L 300.64303,4253.8010 L 271.90798,4283.4447 L 307.95060,4272.0326 z "
       inkscape:randomized="0.0000000"
       inkscape:rounded="0.0000000"
       inkscape:flatsided="false"
       sodipodi:arg2="3.0816518"
       sodipodi:arg1="0.011487387"
       sodipodi:r2="15.646836"
       sodipodi:r1="25.662985"
       sodipodi:cy="4271.7378"
       sodipodi:cx="282.28931"
       sodipodi:sides="8"
       id="path2724"
       style="stroke-opacity:0.23692299;stroke-dashoffset:0.0000000;stroke-miterlimit:4.0000000;marker-end:none;marker-mid:none;marker-start:none;marker:none;stroke-linejoin:miter;stroke-linecap:butt;stroke-width:0.68540149pt;stroke:none;fill-rule:evenodd;fill-opacity:1.0000000;fill:#520100;color:#000000"
       sodipodi:type="star" />
    <path
       transform="matrix(0.727174,0.000000,0.000000,0.727174,28.25777,-3046.217)"
       d="M 104.59527,4260.9893 L 85.296407,4214.6070 L 85.393576,4253.0357 L 104.54444,4206.5921 L 77.439974,4233.8340 L 123.82225,4214.5351 L 85.393575,4214.6323 L 131.83715,4233.7832 L 104.59527,4206.6787 L 123.89413,4253.0610 L 123.79696,4214.6323 L 104.64610,4261.0759 L 131.75056,4233.8340 L 85.368289,4253.1328 L 123.79696,4253.0357 L 77.353386,4233.8848 L 104.59527,4260.9893 z "
       inkscape:randomized="0.0000000"
       inkscape:rounded="0.0000000"
       inkscape:flatsided="false"
       sodipodi:arg2="-2.3580603"
       sodipodi:arg1="1.5707963"
       sodipodi:r2="27.241930"
       sodipodi:r1="27.155294"
       sodipodi:cy="4233.8340"
       sodipodi:cx="104.59527"
       sodipodi:sides="8"
       id="path3347"
       style="stroke-opacity:1.0000000;stroke-dashoffset:0.0000000;stroke-miterlimit:4.0000000;marker-end:none;marker-mid:none;marker-start:none;marker:none;stroke-linejoin:miter;stroke-linecap:butt;stroke-width:0.34379637;stroke:#000000;fill-rule:evenodd;fill-opacity:0.75000000;fill:none;color:#000000"
       sodipodi:type="star" />
    <path
       transform="translate(0.000000,-4182.265)"
       d="M 114.31283,4305.9417 L 59.333363,4267.5071 L 101.57971,4320.6178 L 64.197074,4264.9177 L 84.404808,4329.7031 L 69.667740,4264.2602 L 65.107698,4331.9706 L 75.006519,4265.6233 L 46.294559,4327.1141 L 79.492377,4268.8229 L 30.506210,4315.7895 L 82.519475,4273.4269 L 19.874954,4299.5261 L 83.678988,4278.8136 L 15.836601,4280.5205 L 82.814315,4284.2554 L 18.936554,4261.3395 L 80.042237,4289.0173 L 28.756147,4244.5736 L 75.737137,4292.4563 L 43.969188,4232.4871 L 70.480443,4294.1079 L 62.521074,4226.7124 L 64.982101,4293.7490 L 81.906268,4228.0293 L 59.984693,4291.4281 L 99.506693,4236.2601 L 56.163145,4287.4587 L 112.94531,4250.2930 L 54.033580,4282.3768 L 120.40717,4268.2329 L 53.883606,4276.8688 L 120.88450,4287.6569 L 55.733479,4271.6786 L 114.31283,4305.9417 z "
       inkscape:randomized="0.0000000"
       inkscape:rounded="0.0000000"
       inkscape:flatsided="false"
       sodipodi:arg2="-2.2448164"
       sodipodi:arg1="0.52982957"
       sodipodi:r2="14.993350"
       sodipodi:r1="52.870548"
       sodipodi:cy="4279.2217"
       sodipodi:cx="68.691193"
       sodipodi:sides="17"
       id="path5832"
       style="stroke-opacity:0.23692299;stroke-dashoffset:0.0000000;stroke-miterlimit:4.0000000;marker-end:none;marker-mid:none;marker-start:none;marker:none;stroke-linejoin:miter;stroke-linecap:butt;stroke-width:1.0184744pt;stroke:none;fill-rule:evenodd;fill-opacity:1.0000000;fill:#520100;color:#000000"
       sodipodi:type="star" />
  </g>
</svg>
