<?xml version="1.0" encoding="UTF-8" standalone="no"?>
<!-- Created with Inkscape (http://www.inkscape.org/) -->
<svg
   xmlns:dc="http://purl.org/dc/elements/1.1/"
   xmlns:cc="http://web.resource.org/cc/"
   xmlns:rdf="http://www.w3.org/1999/02/22-rdf-syntax-ns#"
   xmlns:svg="http://www.w3.org/2000/svg"
   xmlns="http://www.w3.org/2000/svg"
   xmlns:sodipodi="http://sodipodi.sourceforge.net/DTD/sodipodi-0.dtd"
   xmlns:inkscape="http://www.inkscape.org/namespaces/inkscape"
   width="744.09448819"
   height="1052.3622047"
   id="svg15699"
   sodipodi:version="0.32"
   inkscape:version="0.45+devel"
   sodipodi:docbase="C:\Documents and Settings\ryan\Desktop\tut"
   sodipodi:docname="interpolate-f15.svg"
   inkscape:output_extension="org.inkscape.output.svg.inkscape">
  <defs
     id="defs15701" />
  <sodipodi:namedview
     id="base"
     pagecolor="#ffffff"
     bordercolor="#666666"
     borderopacity="1.0"
     gridtolerance="10000"
     guidetolerance="10"
     objecttolerance="10"
     inkscape:pageopacity="0.0"
     inkscape:pageshadow="2"
     inkscape:zoom="1.4"
     inkscape:cx="119.59622"
     inkscape:cy="1025.9268"
     inkscape:document-units="px"
     inkscape:current-layer="layer1"
     inkscape:window-width="744"
     inkscape:window-height="664"
     inkscape:window-x="501"
     inkscape:window-y="198" />
  <metadata
     id="metadata15704">
    <rdf:RDF>
      <cc:Work
         rdf:about="">
        <dc:format>image/svg+xml</dc:format>
        <dc:type
           rdf:resource="http://purl.org/dc/dcmitype/StillImage" />
      </cc:Work>
    </rdf:RDF>
  </metadata>
  <g
     inkscape:label="Layer 1"
     inkscape:groupmode="layer"
     id="layer1">
    <g
       id="g2738"
       transform="translate(-24.748458,-19.105216)">
      <path
         d="M 272.34757,46.546389 L 261.69418,46.546389 L 256.36749,37.320289 L 261.69419,28.094189 L 272.34757,28.094189 L 277.67426,37.320289 L 272.34757,46.546389 z"
         id="path6652"
         style="fill:#00ff00;fill-opacity:1;stroke:#17a500;stroke-width:0.86884195;stroke-linejoin:round;stroke-miterlimit:4;stroke-opacity:1" />
      <path
         id="path6654"
         d="M 47.746956,47.724389 C 47.746956,47.724389 44.256797,44.449889 44.125958,44.449889 C 44.060537,44.449889 43.336238,49.279389 43.254464,49.279389 C 43.172687,49.279389 40.860957,45.113589 40.77373,45.113589 C 40.686504,45.113589 38.490619,49.506489 38.408843,49.506489 C 38.327069,49.506489 37.422417,44.857189 37.356997,44.857189 C 37.226158,44.857189 33.775999,48.383489 33.775999,48.383489 C 33.775999,48.383489 34.381318,43.630189 34.315898,43.516889 C 34.283189,43.460189 29.957012,45.708589 29.916125,45.637789 C 29.875238,45.566989 31.894291,41.243189 31.85068,41.167589 C 31.807065,41.092089 26.970094,41.892689 26.929206,41.821889 C 26.888319,41.750989 30.124655,38.281989 30.091944,38.225289 C 30.026526,38.111989 25.153416,37.388589 25.153416,37.388589 C 25.153416,37.388589 29.362827,35.088489 29.428247,34.975189 C 29.460956,34.918489 25.10623,32.743689 25.147117,32.672889 C 25.167561,32.637489 29.838003,31.772589 29.859469,31.735389 C 29.880935,31.698189 26.376469,28.297589 26.398276,28.259789 C 26.420083,28.221989 31.11962,28.833189 31.141086,28.795989 C 31.162552,28.758789 28.869196,24.434189 28.88964,24.398789 C 28.930527,24.327989 33.216944,26.324589 33.249655,26.267889 C 33.315074,26.154589 32.482553,21.285689 32.482553,21.285689 C 32.482553,21.285689 35.972712,24.560189 36.103551,24.560189 C 36.168972,24.560189 36.893271,19.730689 36.975046,19.730689 C 37.05682,19.730689 39.368553,23.896489 39.455779,23.896489 C 39.543006,23.896489 41.738891,19.503589 41.820664,19.503589 C 41.902441,19.503589 42.807092,24.152889 42.872512,24.152889 C 43.003351,24.152889 46.453507,20.626589 46.453507,20.626589 C 46.453507,20.626589 45.848191,25.379889 45.913609,25.493189 C 45.946321,25.549889 50.272496,23.301489 50.313383,23.372289 C 50.35427,23.443189 48.335215,27.766889 48.37883,27.842489 C 48.400636,27.880189 53.215801,27.041889 53.237267,27.078989 C 53.258733,27.116189 50.005361,30.555689 50.025804,30.591189 C 50.066691,30.661989 54.934349,31.376089 54.967058,31.432689 C 55.032478,31.545989 50.910294,33.846089 50.910294,33.846089 C 50.910294,33.846089 55.25957,36.030289 55.194149,36.143589 C 55.16144,36.200289 50.473959,37.094589 50.433072,37.165489 C 50.412629,37.200889 53.917777,40.600389 53.896311,40.637589 C 53.874844,40.674789 49.175307,40.063589 49.153501,40.101389 C 49.109889,40.176889 51.380756,44.540489 51.339869,44.611289 C 51.298982,44.682089 47.012566,42.685589 46.979854,42.742189 C 46.914436,42.855489 47.746956,47.724389 47.746956,47.724389 C 47.746956,47.724389 47.746956,47.724389 47.746956,47.724389"
         style="fill:#00ff00;fill-opacity:1;stroke:#17a500;stroke-width:0.79674554;stroke-linejoin:round;stroke-miterlimit:4;stroke-opacity:1" />
      <g
         transform="matrix(0.5218716,0,0,0.5218716,15.53092,-723.58311)"
         id="g7705">
        <path
           d="M 70.514903,1477.9181 C 70.514903,1477.9181 63.938756,1471.7717 63.655592,1471.7717 C 63.514432,1471.7717 62.13347,1480.837 61.956957,1480.837 C 61.783686,1480.837 57.42343,1473.0175 57.238438,1473.0175 C 57.05344,1473.0175 52.910036,1481.2632 52.735575,1481.2632 C 52.56083,1481.2632 50.842103,1472.5362 50.700231,1472.5362 C 50.429923,1472.5362 43.931616,1479.1553 43.914163,1479.1553 C 43.889216,1479.1553 44.289796,1475.8884 44.591167,1473.2611 C 44.787845,1471.5465 44.931613,1470.0973 44.876107,1470.0012 C 44.8072,1469.8818 36.675766,1474.0833 36.586173,1473.9281 C 36.499933,1473.7788 40.27928,1465.6443 40.186343,1465.4834 C 40.094182,1465.3237 31.004094,1466.8079 30.916629,1466.6565 C 30.829519,1466.5056 36.894016,1459.976 36.82269,1459.8524 C 36.688444,1459.6199 27.530367,1458.2431 27.520676,1458.2263 C 27.507465,1458.2034 35.397852,1453.8669 35.513479,1453.6418 C 35.529653,1453.5938 34.496203,1453.0422 33.166744,1452.3502 C 30.776623,1451.1061 27.427572,1449.3754 27.490429,1449.2665 C 27.53732,1449.1852 36.314605,1447.5435 36.366565,1447.4536 C 36.416667,1447.3668 29.849143,1440.965 29.901003,1440.8752 C 29.951972,1440.7869 38.78365,1441.9163 38.834105,1441.8289 C 38.88523,1441.7403 34.59111,1433.6042 34.639537,1433.5204 C 34.727372,1433.3683 42.783619,1437.0981 42.853946,1436.9763 C 42.987898,1436.7443 41.641731,1428.7185 41.464753,1427.6798 C 41.452462,1427.6077 41.44613,1427.5692 41.446634,1427.5692 C 41.451105,1427.5692 48.026196,1433.7156 48.305931,1433.7156 C 48.447121,1433.7156 49.828074,1424.6503 50.004554,1424.6503 C 50.177833,1424.6503 54.538093,1432.4698 54.723073,1432.4698 C 54.908085,1432.4698 59.051492,1424.224 59.225941,1424.224 C 59.400712,1424.224 61.119447,1432.9511 61.261311,1432.9511 C 61.531663,1432.9511 68.029968,1426.332 68.047356,1426.332 C 68.071863,1426.332 67.682643,1429.5073 67.38244,1432.1145 C 67.179418,1433.8778 67.028261,1435.3885 67.085052,1435.4869 C 67.154024,1435.6064 75.285444,1431.4047 75.374983,1431.5598 C 75.461236,1431.7093 71.681887,1439.8436 71.774822,1440.0046 C 71.825955,1440.0931 80.875005,1438.5379 80.925907,1438.6261 C 80.976487,1438.7137 74.879937,1445.1877 74.928166,1445.2713 C 75.016364,1445.424 84.164208,1446.7833 84.235303,1446.9064 C 84.370591,1447.1407 76.643458,1451.4763 76.650652,1451.4888 C 76.657227,1451.5002 77.885038,1452.1215 79.378039,1452.8872 C 81.740857,1454.099 84.769448,1455.7028 84.681409,1455.8552 C 84.611483,1455.9764 75.802051,1457.6737 75.713388,1457.8273 C 75.665232,1457.9107 82.234041,1464.3103 82.182812,1464.399 C 82.132488,1464.4862 73.300805,1463.3568 73.249695,1463.4453 C 73.156845,1463.6062 77.408588,1471.8157 77.321633,1471.9663 C 77.233807,1472.1184 69.177557,1468.3886 69.107211,1468.5104 C 68.965072,1468.7566 70.514903,1477.9181 70.514903,1477.9181 C 70.514903,1477.9181 70.514903,1477.9181 70.514903,1477.9181"
           id="path7707"
           style="fill:#00ff00;fill-opacity:1;stroke:#17a500;stroke-width:1.52670813;stroke-linejoin:round;stroke-miterlimit:4;stroke-opacity:1" />
        <path
           d="M 96.86441,1477.7799 C 96.86441,1477.7799 90.623149,1472.0176 90.242624,1472.0176 C 90.054055,1472.0176 88.693872,1480.5164 88.457903,1480.5164 C 88.234913,1480.5164 84.082968,1473.1856 83.844424,1473.1856 C 83.605856,1473.1856 79.655375,1480.916 79.427623,1480.916 C 79.198728,1480.916 77.524245,1472.7343 77.332828,1472.7343 C 77.003729,1472.7343 70.843879,1478.9397 70.774067,1478.9397 C 70.674277,1478.9397 71.002509,1475.8771 71.285044,1473.414 C 71.46943,1471.8066 71.591728,1470.4263 71.518216,1470.299 C 71.430615,1470.1472 63.774082,1474.0284 63.650752,1473.8148 C 63.540832,1473.6244 67.051611,1465.9424 66.930566,1465.7327 C 66.812644,1465.5285 58.257821,1466.863 58.143001,1466.6641 C 58.029603,1466.4677 63.683379,1460.2913 63.58612,1460.1228 C 63.425194,1459.8441 54.806156,1458.4956 54.767389,1458.4284 C 54.714548,1458.3369 62.078129,1454.2132 62.16456,1453.9641 C 62.162052,1453.8885 61.183085,1453.3538 59.936717,1452.705 C 57.695978,1451.5388 54.582217,1449.8712 54.682611,1449.6973 C 54.752652,1449.5759 63.013566,1447.9811 63.098008,1447.8348 C 63.175016,1447.7014 57.050487,1441.6435 57.13257,1441.5013 C 57.211093,1441.3652 65.522321,1442.3694 65.600744,1442.2336 C 65.681845,1442.0931 61.688813,1434.4089 61.765001,1434.277 C 61.881298,1434.0755 69.465648,1437.5175 69.558912,1437.3559 C 69.743081,1437.0369 68.519949,1429.4455 68.354033,1428.4717 C 68.342509,1428.404 68.337364,1428.3679 68.339379,1428.3679 C 68.357263,1428.3679 74.594304,1434.1302 74.961113,1434.1302 C 75.149796,1434.1302 76.509944,1425.6314 76.745783,1425.6314 C 76.968818,1425.6314 81.120764,1432.9622 81.359261,1432.9622 C 81.597883,1432.9622 85.548377,1425.2319 85.776094,1425.2319 C 86.005082,1425.2319 87.679599,1433.4135 87.87098,1433.4135 C 88.200257,1433.4135 94.360111,1427.2081 94.429665,1427.2081 C 94.527694,1427.2081 94.209166,1430.1849 93.927726,1432.6292 C 93.737393,1434.2822 93.608629,1435.721 93.684074,1435.8517 C 93.77192,1436.0039 101.4284,1432.1224 101.55152,1432.3357 C 101.66149,1432.5263 98.150714,1440.2082 98.271735,1440.4179 C 98.350913,1440.555 106.86694,1439.1533 106.94715,1439.2922 C 107.02607,1439.429 101.34201,1445.5528 101.41741,1445.6834 C 101.53516,1445.8874 110.14461,1447.2194 110.24096,1447.3862 C 110.40604,1447.6722 103.19405,1451.7926 103.22283,1451.8425 C 103.24913,1451.888 104.41184,1452.4906 105.81153,1453.2085 C 108.02667,1454.3445 110.84164,1455.8902 110.71994,1456.101 C 110.62827,1456.2598 102.33671,1457.9077 102.2171,1458.1149 C 102.14199,1458.245 108.26775,1464.3009 108.18623,1464.4421 C 108.10833,1464.577 99.797085,1463.5729 99.717998,1463.7098 C 99.597302,1463.9189 103.5501,1471.6729 103.43732,1471.8682 C 103.32106,1472.0696 95.736698,1468.6277 95.643359,1468.7893 C 95.450863,1469.1228 96.86441,1477.7799 96.86441,1477.7799 C 96.86441,1477.7799 96.86441,1477.7799 96.86441,1477.7799"
           id="path7709"
           style="fill:#00ff00;fill-opacity:1;stroke:#17a500;stroke-width:1.52670813;stroke-linejoin:round;stroke-miterlimit:4;stroke-opacity:1" />
        <path
           d="M 140.78025,1477.5496 C 140.78025,1477.5496 135.09714,1472.4276 134.55434,1472.4276 C 134.28676,1472.4276 132.96121,1479.982 132.62614,1479.982 C 132.32029,1479.982 128.51553,1473.4658 128.18773,1473.4658 C 127.85988,1473.4658 124.23094,1480.3372 123.91437,1480.3372 C 123.59522,1480.3372 121.99448,1473.0646 121.72049,1473.0646 C 121.29341,1473.0646 115.69765,1478.5805 115.54057,1478.5805 C 115.31605,1478.5805 115.5237,1475.8581 115.77484,1473.6688 C 115.93874,1472.2399 116.02525,1470.9746 115.92173,1470.7953 C 115.80297,1470.5895 108.93794,1473.9369 108.75838,1473.6259 C 108.609,1473.3672 111.67216,1466.4391 111.50427,1466.1483 C 111.34341,1465.8697 103.6807,1466.9547 103.52029,1466.6769 C 103.36308,1466.4046 108.33232,1460.8169 108.19184,1460.5735 C 107.98644,1460.2178 100.2658,1458.9164 100.17858,1458.7653 C 100.05968,1458.5594 106.54526,1454.7902 106.58303,1454.5012 C 106.54938,1454.3795 105.66122,1453.8731 104.55334,1453.2965 C 102.56157,1452.2598 99.839959,1450.6975 100.00292,1450.4153 C 100.11154,1450.2271 107.51184,1448.7102 107.65041,1448.4703 C 107.77226,1448.2592 102.38606,1442.7742 102.51851,1442.5447 C 102.64296,1442.3292 110.08677,1443.1247 110.21181,1442.9081 C 110.34287,1442.6811 106.85165,1435.75 106.97411,1435.5379 C 107.13784,1435.2543 113.9357,1438.2165 114.06719,1437.9887 C 114.33505,1437.5248 113.31698,1430.657 113.1695,1429.7914 C 113.15925,1429.7313 113.15609,1429.6992 113.16062,1429.6992 C 113.20086,1429.6992 118.87448,1434.8212 119.38642,1434.8212 C 119.65425,1434.8212 120.97973,1427.2668 121.3145,1427.2668 C 121.62046,1427.2668 125.42522,1433.783 125.75291,1433.783 C 126.08088,1433.783 129.70985,1426.9116 130.02635,1426.9116 C 130.3457,1426.9116 131.94652,1434.1841 132.22043,1434.1841 C 132.64791,1434.1841 138.24368,1428.6682 138.40018,1428.6682 C 138.62075,1428.6682 138.42004,1431.3143 138.16987,1433.487 C 138.00068,1434.9563 137.90924,1436.2751 138.01578,1436.4596 C 138.13508,1436.6663 145.00001,1433.3186 145.17908,1433.6288 C 145.32858,1433.8878 142.26543,1440.8159 142.43326,1441.1066 C 142.55917,1441.3247 150.18683,1440.179 150.31589,1440.4025 C 150.44205,1440.621 145.44548,1446.1613 145.56615,1446.3704 C 145.73316,1446.6596 153.44528,1447.9463 153.58371,1448.1861 C 153.79846,1448.558 147.44505,1452.3198 147.50979,1452.4319 C 147.56897,1452.5344 148.62318,1453.1059 149.86735,1453.744 C 151.83637,1454.7538 154.2953,1456.2027 154.11749,1456.5107 C 153.98957,1456.7323 146.56115,1458.2978 146.38996,1458.5943 C 146.26993,1458.8022 151.65726,1464.2853 151.52526,1464.5139 C 151.40141,1464.7285 143.95755,1463.933 143.83184,1464.1507 C 143.66473,1464.4402 147.11929,1471.4349 146.96347,1471.7048 C 146.79981,1471.9882 140.00193,1469.0261 139.87027,1469.2541 C 139.59385,1469.7329 140.78025,1477.5496 140.78025,1477.5496 C 140.78025,1477.5496 140.78025,1477.5496 140.78025,1477.5496"
           id="path7711"
           style="fill:#00ff00;fill-opacity:1;stroke:#17a500;stroke-width:1.52670813;stroke-linejoin:round;stroke-miterlimit:4;stroke-opacity:1" />
        <path
           d="M 202.26244,1477.2271 C 202.26244,1477.2271 197.36072,1473.0014 196.59075,1473.0014 C 196.21255,1473.0014 194.93548,1479.2339 194.46168,1479.2339 C 194.03982,1479.2339 190.72112,1473.858 190.26837,1473.858 C 189.81552,1473.858 186.63673,1479.5269 186.19582,1479.5269 C 185.75032,1479.5269 184.25281,1473.527 183.86322,1473.527 C 183.29895,1473.527 178.49293,1478.0776 178.21368,1478.0776 C 177.81452,1478.0776 177.85336,1475.8317 178.06056,1474.0254 C 178.19577,1472.8467 178.23219,1471.7422 178.08665,1471.4901 C 177.92428,1471.2088 172.16734,1473.8089 171.90907,1473.3615 C 171.70443,1473.0071 174.14093,1467.1344 173.90746,1466.7301 C 173.68649,1466.3473 167.27273,1467.0831 167.04849,1466.6947 C 166.82994,1466.3162 170.84083,1461.5526 170.63984,1461.2045 C 170.37219,1460.7409 163.90931,1459.5056 163.75424,1459.237 C 163.54288,1458.8709 168.79923,1455.5981 168.76889,1455.2531 C 168.69165,1455.0671 167.93061,1454.6003 167.01661,1454.1245 C 165.3734,1453.2693 163.2008,1451.8544 163.45134,1451.4204 C 163.61398,1451.1387 169.80941,1449.7311 170.02378,1449.3598 C 170.20841,1449.04 165.85587,1444.3572 166.05884,1444.0056 C 166.24757,1443.6787 172.47701,1444.182 172.6673,1443.8525 C 172.8683,1443.5043 170.07963,1437.6275 170.26685,1437.3032 C 170.497,1436.9046 176.19376,1439.1951 176.37878,1438.8746 C 176.76381,1438.2077 176.03282,1432.3531 175.91115,1431.639 C 175.9027,1431.5894 175.9023,1431.5629 175.91036,1431.5629 C 175.9819,1431.5629 180.86674,1435.7886 181.58184,1435.7886 C 181.9605,1435.7886 183.23743,1429.5562 183.7107,1429.5562 C 184.13276,1429.5562 187.45145,1434.9321 187.90401,1434.9321 C 188.35708,1434.9321 191.53592,1429.2632 191.97671,1429.2632 C 192.42256,1429.2632 193.92021,1435.263 194.30966,1435.263 C 194.87463,1435.263 199.68069,1430.7124 199.9589,1430.7124 C 200.35102,1430.7124 200.31526,1432.8954 200.10887,1434.6879 C 199.96929,1435.9001 199.9301,1437.0509 200.08016,1437.3108 C 200.2435,1437.5937 206.00025,1434.9933 206.25767,1435.4391 C 206.46251,1435.794 204.02602,1441.6666 204.25939,1442.0708 C 204.45074,1442.4022 210.83467,1441.6148 211.03213,1441.9568 C 211.22442,1442.2899 207.19032,1447.0132 207.37439,1447.3321 C 207.61035,1447.7407 214.06621,1448.964 214.26358,1449.3058 C 214.54784,1449.7981 209.39644,1453.0578 209.51153,1453.2571 C 209.61674,1453.4393 210.51906,1453.9673 211.5455,1454.4937 C 213.16994,1455.3268 215.13042,1456.6402 214.87407,1457.0842 C 214.6954,1457.3937 208.47535,1458.8439 208.23195,1459.2654 C 208.04904,1459.5823 212.40257,1464.2635 212.1999,1464.6145 C 212.01172,1464.9405 205.7822,1464.4372 205.59121,1464.768 C 205.35913,1465.17 208.11615,1471.1017 207.90008,1471.4759 C 207.67006,1471.8743 201.97326,1469.5839 201.78795,1469.9049 C 201.39403,1470.5872 202.26244,1477.2271 202.26244,1477.2271 C 202.26244,1477.2271 202.26244,1477.2271 202.26244,1477.2271"
           id="path7713"
           style="fill:#00ff00;fill-opacity:1;stroke:#17a500;stroke-width:1.52670813;stroke-linejoin:round;stroke-miterlimit:4;stroke-opacity:1" />
        <path
           d="M 281.31096,1476.8125 C 281.31096,1476.8125 277.4139,1473.7393 276.35185,1473.7393 C 275.83142,1473.7393 274.61669,1478.272 273.96452,1478.272 C 273.3935,1478.272 270.69973,1474.3622 270.08633,1474.3622 C 269.47277,1474.3622 266.87275,1478.4851 266.27196,1478.4851 C 265.66401,1478.4851 264.29924,1474.1215 263.76101,1474.1215 C 263.02037,1474.1215 259.22972,1477.4311 258.7934,1477.4311 C 258.16971,1477.4311 257.9915,1475.7976 258.14219,1474.484 C 258.24053,1473.6267 258.21254,1472.7291 258.01298,1472.3835 C 257.79452,1472.0051 253.46229,1473.6442 253.1028,1473.0216 C 252.82712,1472.5441 254.45793,1468.0285 254.14013,1467.4781 C 253.84188,1466.9615 249.03391,1467.2482 248.72761,1466.7177 C 248.43019,1466.2025 251.20892,1462.4986 250.93013,1462.0157 C 250.58244,1461.4135 245.73667,1460.2631 245.49438,1459.8434 C 245.16412,1459.2714 248.84006,1456.6368 248.72213,1456.2199 C 248.58885,1455.951 247.99126,1455.5351 247.32653,1455.1891 C 246.13147,1454.5671 244.66473,1453.3418 245.02789,1452.7128 C 245.25998,1452.3108 249.9063,1451.0437 250.21811,1450.5036 C 250.48346,1450.044 247.4599,1446.3924 247.75354,1445.8838 C 248.02493,1445.4137 252.69302,1445.5415 252.96722,1445.0666 C 253.25815,1444.5627 251.37274,1440.0415 251.64324,1439.5729 C 251.95878,1439.0264 256.23985,1440.4532 256.49367,1440.0136 C 257.02936,1439.0857 256.66748,1434.5339 256.57899,1434.0145 C 256.57284,1433.9784 256.576,1433.9592 256.5886,1433.9592 C 256.70037,1433.9592 260.57106,1437.0324 261.54738,1437.0324 C 262.06852,1437.0324 263.28304,1432.4997 263.93439,1432.4997 C 264.50571,1432.4997 267.19947,1436.4095 267.81258,1436.4095 C 268.42647,1436.4095 271.02657,1432.2866 271.62716,1432.2866 C 272.23567,1432.2866 273.60066,1436.6502 274.13867,1436.6502 C 274.88042,1436.6502 278.67112,1433.3406 279.10583,1433.3406 C 279.71851,1433.3406 279.89483,1434.9283 279.74473,1436.2319 C 279.64321,1437.1135 279.6712,1438.0483 279.87723,1438.4051 C 280.09719,1438.7861 284.42913,1437.1464 284.78728,1437.7667 C 285.06327,1438.2448 283.4325,1442.7604 283.75013,1443.3106 C 284.02561,1443.7877 288.81047,1443.461 289.09587,1443.9553 C 289.37317,1444.4356 286.57655,1448.1085 286.84213,1448.5685 C 287.16674,1449.1308 292.00741,1450.2724 292.28054,1450.7455 C 292.65419,1451.3926 289.04822,1454.0066 289.22806,1454.3181 C 289.39244,1454.6028 290.09947,1455.0748 290.84597,1455.4576 C 292.02738,1456.0635 293.347,1457.2026 292.98966,1457.8215 C 292.74576,1458.244 288.07933,1459.546 287.74309,1460.1284 C 287.47933,1460.5852 290.50369,1464.2354 290.21016,1464.7438 C 289.93925,1465.213 285.27104,1465.0855 284.99612,1465.5616 C 284.6805,1466.1083 286.54069,1470.6733 286.24714,1471.1817 C 285.93182,1471.7278 281.65068,1470.3011 281.3964,1470.7416 C 280.8514,1471.6856 281.31096,1476.8125 281.31096,1476.8125 C 281.31096,1476.8125 281.31096,1476.8125 281.31096,1476.8125"
           id="path7715"
           style="fill:#00ff00;fill-opacity:1;stroke:#17a500;stroke-width:1.52670813;stroke-linejoin:round;stroke-miterlimit:4;stroke-opacity:1" />
        <path
           d="M 377.92581,1476.3058 C 377.92581,1476.3058 375.25667,1474.6411 373.83763,1474.6411 C 373.14337,1474.6411 372.00483,1477.0963 371.13465,1477.0963 C 370.38134,1477.0963 368.45137,1474.9785 367.64161,1474.9785 C 366.83163,1474.9785 364.939,1477.2117 364.14281,1477.2117 C 363.3363,1477.2117 362.13376,1474.8482 361.41386,1474.8482 C 360.45766,1474.8482 357.90802,1476.6408 357.27971,1476.6408 C 356.3816,1476.6408 355.93812,1475.7561 356.01974,1475.0445 C 356.07301,1474.5801 355.96629,1473.9354 355.70071,1473.4754 C 355.41371,1472.9783 352.82278,1473.443 352.33959,1472.6061 C 351.97709,1471.9782 352.62314,1469.1212 352.20228,1468.3923 C 351.80957,1467.7121 348.96424,1467.45 348.55764,1466.7457 C 348.16383,1466.0636 349.43659,1463.6548 349.0627,1463.0072 C 348.61719,1462.2356 345.7479,1461.189 345.39899,1460.5847 C 344.92342,1459.7609 346.66774,1457.9064 346.44276,1457.4015 C 346.24098,1457.0314 345.84316,1456.6777 345.48309,1456.4903 C 344.83577,1456.1534 344.23177,1455.1598 344.73256,1454.2924 C 345.04953,1453.7434 347.80249,1452.6479 348.2334,1451.9015 C 348.59741,1451.271 347.19816,1448.88 347.60261,1448.1794 C 347.97504,1447.5344 350.73481,1447.2031 351.11156,1446.5506 C 351.5124,1445.8563 350.73098,1442.9918 351.10328,1442.347 C 351.52318,1441.6197 354.07395,1441.991 354.41188,1441.4057 C 355.13169,1440.1589 355.22094,1437.1992 355.17301,1436.9179 C 355.16968,1436.8984 355.1772,1436.8879 355.19533,1436.8879 C 355.35629,1436.8879 357.98745,1438.5526 359.28305,1438.5526 C 359.97833,1438.5526 361.11656,1436.0974 361.98556,1436.0974 C 362.73932,1436.0974 364.66926,1438.2152 365.4786,1438.2152 C 366.28906,1438.2152 368.18182,1435.982 368.97772,1435.982 C 369.78502,1435.982 370.98788,1438.3456 371.70745,1438.3456 C 372.66526,1438.3456 375.21498,1436.5529 375.84096,1436.5529 C 376.72322,1436.5529 377.15874,1437.4129 377.07744,1438.119 C 377.02245,1438.5965 377.13255,1439.2673 377.40697,1439.7426 C 377.69614,1440.2435 380.28665,1439.778 380.76792,1440.6116 C 381.13087,1441.2403 380.48487,1444.0973 380.90547,1444.8258 C 381.28379,1445.481 384.11422,1445.7174 384.5071,1446.3979 C 384.88832,1447.0582 383.60417,1449.4472 383.96936,1450.0798 C 384.40233,1450.8297 387.26888,1451.8716 387.63461,1452.505 C 388.1175,1453.3414 386.40041,1455.1664 386.65938,1455.6149 C 386.89608,1456.0249 387.36442,1456.4284 387.76878,1456.6358 C 388.40871,1456.964 388.94504,1457.8901 388.46428,1458.7228 C 388.14063,1459.2833 385.37309,1460.4041 384.92337,1461.183 C 384.5608,1461.811 385.96062,1464.2011 385.55603,1464.9018 C 385.18402,1465.5462 382.42407,1465.8778 382.04656,1466.5316 C 381.62885,1467.2551 382.3929,1470.1496 382.00467,1470.8221 C 381.58508,1471.5488 379.0342,1471.1777 378.69561,1471.7642 C 377.96596,1473.028 377.92581,1476.3058 377.92581,1476.3058 C 377.92581,1476.3058 377.92581,1476.3058 377.92581,1476.3058"
           id="path7717"
           style="fill:#00ff00;fill-opacity:1;stroke:#17a500;stroke-width:1.52670813;stroke-linejoin:round;stroke-miterlimit:4;stroke-opacity:1" />
      </g>
    </g>
  </g>
</svg>
