<?xml version="1.0" encoding="UTF-8" standalone="no"?>
<!-- Created with Inkscape (http://www.inkscape.org/) -->

<svg
   xmlns:dc="http://purl.org/dc/elements/1.1/"
   xmlns:cc="http://creativecommons.org/ns#"
   xmlns:rdf="http://www.w3.org/1999/02/22-rdf-syntax-ns#"
   xmlns:svg="http://www.w3.org/2000/svg"
   xmlns="http://www.w3.org/2000/svg"
   xmlns:sodipodi="http://sodipodi.sourceforge.net/DTD/sodipodi-0.dtd"
   xmlns:inkscape="http://www.inkscape.org/namespaces/inkscape"
   id="svg15699"
   version="1.1"
   inkscape:version="0.92.3 (2405546, 2018-03-11)"
   width="744.09448819"
   height="1052.3622047"
   sodipodi:docname="interpolate-f03.svg"
   sodipodi:version="0.32"
   inkscape:output_extension="org.inkscape.output.svg.inkscape">
  <defs
     id="defs15701" />
  <sodipodi:namedview
     id="base"
     pagecolor="#ffffff"
     bordercolor="#666666"
     borderopacity="1.0"
     gridtolerance="10000"
     guidetolerance="10"
     objecttolerance="10"
     inkscape:pageopacity="0.0"
     inkscape:pageshadow="2"
     inkscape:zoom="1.4"
     inkscape:cx="98.514766"
     inkscape:cy="925.01482"
     inkscape:document-units="px"
     inkscape:current-layer="layer1"
     inkscape:window-width="744"
     inkscape:window-height="664"
     inkscape:window-x="504"
     inkscape:window-y="184"
     showgrid="false" />
  <metadata
     id="metadata15704">
    <rdf:RDF>
      <cc:Work
         rdf:about="">
        <dc:format>image/svg+xml</dc:format>
        <dc:type
           rdf:resource="http://purl.org/dc/dcmitype/StillImage" />
      </cc:Work>
    </rdf:RDF>
  </metadata>
  <g
     inkscape:label="Layer 1"
     id="layer1"
     inkscape:groupmode="layer">
    <path
       id="path4455"
       style="fill:#00ccff;fill-opacity:1;stroke:#2e75ac;stroke-opacity:1;stroke-width:4.04815769;stroke-linejoin:round;stroke-miterlimit:4"
       d="m 20.289583,2.024079 c 10.11909,0 18.265505,8.1464 18.265505,18.2655 0,10.1191 -8.146415,18.265499 -18.265505,18.265499 -10.119084,0 -18.265504,-8.146399 -18.265504,-18.265499 0,-10.1191 8.14642,-18.2655 18.265504,-18.2655 z"
       inkscape:connector-curvature="0" />
    <path
       id="path4457"
       style="fill:#00ccff;fill-opacity:1;stroke:#2e75ac;stroke-opacity:1;stroke-width:4.04815769;stroke-linejoin:round;stroke-miterlimit:4"
       d="M 263.70539,9.330279 245.43989,38.555078 227.17438,9.330279 Z"
       inkscape:connector-curvature="0"
       sodipodi:nodetypes="cccc" />
  </g>
</svg>
