<?xml version="1.0" encoding="UTF-8" standalone="no"?>
<!-- Created with Inkscape (http://www.inkscape.org/) -->

<svg
   xmlns:dc="http://purl.org/dc/elements/1.1/"
   xmlns:cc="http://creativecommons.org/ns#"
   xmlns:rdf="http://www.w3.org/1999/02/22-rdf-syntax-ns#"
   xmlns:svg="http://www.w3.org/2000/svg"
   xmlns="http://www.w3.org/2000/svg"
   xmlns:sodipodi="http://sodipodi.sourceforge.net/DTD/sodipodi-0.dtd"
   xmlns:inkscape="http://www.inkscape.org/namespaces/inkscape"
   sodipodi:docname="elements-f09.svg"
   inkscape:version="0.48+devel r10003 custom"
   sodipodi:version="0.32"
   id="svg1831"
   height="1052.3622047"
   width="744.09448819"
   version="1.1">
  <defs
     id="defs3" />
  <sodipodi:namedview
     inkscape:window-y="25"
     inkscape:window-x="2"
     inkscape:window-height="511"
     inkscape:window-width="755"
     inkscape:current-layer="layer1"
     inkscape:document-units="px"
     inkscape:cy="796.28466"
     inkscape:cx="375"
     inkscape:zoom="0.35"
     inkscape:pageshadow="2"
     inkscape:pageopacity="0.0"
     borderopacity="1.0"
     bordercolor="#666666"
     pagecolor="#ffffff"
     id="base"
     showgrid="false"
     inkscape:window-maximized="0" />
  <metadata
     id="metadata4">
    <rdf:RDF>
      <cc:Work
         rdf:about="">
        <dc:format>image/svg+xml</dc:format>
        <dc:type
           rdf:resource="http://purl.org/dc/dcmitype/StillImage" />
      </cc:Work>
    </rdf:RDF>
  </metadata>
  <g
     id="layer1"
     inkscape:groupmode="layer"
     inkscape:label="Layer 1">
    <rect
       y="0.24921778"
       x="7.5752616"
       height="100.99377"
       width="305.15701"
       id="rect2170"
       style="fill:none;fill-rule:evenodd;stroke:#000000;stroke-width:0.49831799" />
    <path
       sodipodi:nodetypes="ccc"
       id="rect2562"
       d="M 160.07526,0.24920000 L 160.07526,101.24300 L 160.07526,0.24920000 z "
       style="fill:none;fill-rule:evenodd;stroke:#000000;stroke-width:0.49831799" />
    <path
       transform="matrix(0.823529,0.000000,0.000000,0.823529,65.31271,-1470.539)"
       style="fill:#000000;fill-opacity:1;fill-rule:evenodd;stroke:none"
       d="m 55.207453,1809.2882 c 0,11.4664 -9.295365,20.7618 -20.761778,20.7618 -11.466413,0 -20.761778,-9.2954 -20.761778,-20.7618 0,-11.4664 9.295365,-20.7618 20.761778,-20.7618 11.466413,0 20.761778,9.2954 20.761778,20.7618 z"
       id="path2564" />
    <path
       transform="matrix(1.681818,0.000000,0.000000,1.681818,-14.99221,-3007.499)"
       style="fill:#000000;fill-opacity:1;fill-rule:evenodd;stroke:none"
       d="m 55.207453,1809.2882 c 0,11.4664 -9.295365,20.7618 -20.761778,20.7618 -11.466413,0 -20.761778,-9.2954 -20.761778,-20.7618 0,-11.4664 9.295365,-20.7618 20.761778,-20.7618 11.466413,0 20.761778,9.2954 20.761778,20.7618 z"
       id="path2565" />
    <path
       transform="matrix(0.823529,0.000000,0.000000,0.823529,240.2315,-1414.138)"
       style="fill:#000000;fill-opacity:1;fill-rule:evenodd;stroke:none"
       d="m 55.207453,1809.2882 c 0,11.4664 -9.295365,20.7618 -20.761778,20.7618 -11.466413,0 -20.761778,-9.2954 -20.761778,-20.7618 0,-11.4664 9.295365,-20.7618 20.761778,-20.7618 11.466413,0 20.761778,9.2954 20.761778,20.7618 z"
       id="path2566" />
    <path
       transform="matrix(1.681818,0.000000,0.000000,1.681818,163.0391,-3001.225)"
       style="fill:#000000;fill-opacity:1;fill-rule:evenodd;stroke:none"
       d="m 55.207453,1809.2882 c 0,11.4664 -9.295365,20.7618 -20.761778,20.7618 -11.466413,0 -20.761778,-9.2954 -20.761778,-20.7618 0,-11.4664 9.295365,-20.7618 20.761778,-20.7618 11.466413,0 20.761778,9.2954 20.761778,20.7618 z"
       id="path2567" />
  </g>
</svg>
