<?xml version="1.0" encoding="UTF-8" standalone="no"?>
<!-- Created with Inkscape (http://www.inkscape.org/) -->
<svg
   xmlns:dc="http://purl.org/dc/elements/1.1/"
   xmlns:cc="http://web.resource.org/cc/"
   xmlns:rdf="http://www.w3.org/1999/02/22-rdf-syntax-ns#"
   xmlns:svg="http://www.w3.org/2000/svg"
   xmlns="http://www.w3.org/2000/svg"
   xmlns:xlink="http://www.w3.org/1999/xlink"
   xmlns:sodipodi="http://sodipodi.sourceforge.net/DTD/sodipodi-0.dtd"
   xmlns:inkscape="http://www.inkscape.org/namespaces/inkscape"
   sodipodi:docname="elements-f07.svg"
   sodipodi:docbase="/home/aaron/notes/inkdoc/elements"
   inkscape:version="0.41+cvs"
   sodipodi:version="0.32"
   id="svg2140"
   height="1052.3622047"
   width="744.09448819">
  <defs
     id="defs3">
    <pattern
       patternTransform="matrix(0.25,0,0,0.25,0,0)"
       id="pattern2172"
       xlink:href="#pattern2655"
       inkscape:collect="always" />
    <pattern
       patternTransform="matrix(0.193713,0.134586,-0.134586,0.193713,0,0)"
       id="pattern2169"
       xlink:href="#pattern2664"
       inkscape:collect="always" />
    <pattern
       patternTransform="matrix(3.602221e-2,-6.290160e-2,6.290160e-2,3.602221e-2,0,0)"
       id="pattern2166"
       xlink:href="#pattern2666"
       inkscape:collect="always" />
    <pattern
       id="pattern2650"
       patternTransform="matrix(0.25,0,0,0.25,0,0)"
       height="24"
       width="24"
       patternUnits="userSpaceOnUse">
      <path
         id="path2649"
         d="M -0.25,24.25 L 24.25,-0.25"
         style="fill:none;stroke:#000000;stroke-width:1.25;stroke-linecap:butt;stroke-opacity:1" />
    </pattern>
    <pattern
       patternTransform="matrix(0.234375,0.000000,0.000000,0.234375,0,0)"
       id="pattern2655"
       xlink:href="#pattern2650"
       inkscape:collect="always" />
    <pattern
       patternTransform="matrix(0.193713,0.134586,-0.134586,0.193713,0,0)"
       id="pattern2664"
       xlink:href="#pattern2655"
       inkscape:collect="always" />
    <pattern
       patternTransform="matrix(3.602221e-2,-6.290160e-2,6.290160e-2,3.602221e-2,0,0)"
       id="pattern2666"
       xlink:href="#pattern2664"
       inkscape:collect="always" />
  </defs>
  <sodipodi:namedview
     inkscape:window-y="21"
     inkscape:window-x="4"
     inkscape:window-height="513"
     inkscape:window-width="753"
     inkscape:current-layer="layer1"
     inkscape:document-units="px"
     inkscape:cy="520.00000"
     inkscape:cx="375.00000"
     inkscape:zoom="0.35000000"
     inkscape:pageshadow="2"
     inkscape:pageopacity="0.0"
     borderopacity="1.0"
     bordercolor="#666666"
     pagecolor="#ffffff"
     id="base" />
  <metadata
     id="metadata4">
    <rdf:RDF
       id="RDF5">
      <cc:Work
         id="Work6"
         rdf:about="">
        <dc:format
           id="format7">image/svg+xml</dc:format>
        <dc:type
           rdf:resource="http://purl.org/dc/dcmitype/StillImage"
           id="type9" />
      </cc:Work>
    </rdf:RDF>
  </metadata>
  <g
     id="layer1"
     inkscape:groupmode="layer"
     inkscape:label="Layer 1">
    <rect
       y="0.24921875"
       x="7.5752616"
       height="100.99377"
       width="305.15701"
       id="rect2067"
       style="fill:none;fill-rule:evenodd;stroke:#000000;stroke-width:0.49831799" />
    <rect
       id="rect2652"
       y="0.83906251"
       x="7.4039116"
       height="54.240501"
       width="304.83185"
       style="fill:url(#pattern2172);stroke:none" />
    <rect
       id="rect2663"
       y="23.339062"
       x="7.4039116"
       height="54.240501"
       width="304.83185"
       style="fill:url(#pattern2169);stroke:none" />
    <rect
       id="rect2665"
       y="46.636303"
       x="7.4039116"
       height="54.240501"
       width="304.83185"
       style="fill:url(#pattern2166);stroke:none" />
  </g>
</svg>
