<?xml version="1.0" encoding="UTF-8" standalone="no"?>
<!-- Created with Inkscape (http://www.inkscape.org/) -->

<svg
   xmlns:dc="http://purl.org/dc/elements/1.1/"
   xmlns:cc="http://creativecommons.org/ns#"
   xmlns:rdf="http://www.w3.org/1999/02/22-rdf-syntax-ns#"
   xmlns:svg="http://www.w3.org/2000/svg"
   xmlns="http://www.w3.org/2000/svg"
   xmlns:sodipodi="http://sodipodi.sourceforge.net/DTD/sodipodi-0.dtd"
   xmlns:inkscape="http://www.inkscape.org/namespaces/inkscape"
   sodipodi:docname="elements-f05.svg"
   inkscape:version="0.48+devel r10003 custom"
   sodipodi:version="0.32"
   id="svg2096"
   height="1052.3622047"
   width="744.09448819"
   version="1.1">
  <defs
     id="defs3" />
  <sodipodi:namedview
     inkscape:window-y="25"
     inkscape:window-x="4"
     inkscape:window-height="513"
     inkscape:window-width="753"
     inkscape:current-layer="layer1"
     inkscape:document-units="px"
     inkscape:cy="825.60323"
     inkscape:cx="375"
     inkscape:zoom="0.35"
     inkscape:pageshadow="2"
     inkscape:pageopacity="0.0"
     borderopacity="1.0"
     bordercolor="#666666"
     pagecolor="#ffffff"
     id="base"
     showgrid="false"
     inkscape:window-maximized="0" />
  <metadata
     id="metadata4">
    <rdf:RDF>
      <cc:Work
         rdf:about="">
        <dc:format>image/svg+xml</dc:format>
        <dc:type
           rdf:resource="http://purl.org/dc/dcmitype/StillImage" />
      </cc:Work>
    </rdf:RDF>
  </metadata>
  <g
     id="layer1"
     inkscape:groupmode="layer"
     inkscape:label="Layer 1">
    <rect
       y="0.24913555"
       x="7.5752616"
       height="100.99377"
       width="305.15701"
       id="rect1991"
       style="fill:none;fill-rule:evenodd;stroke:#000000;stroke-width:0.49831799" />
    <rect
       y="3.9332786"
       x="36.104122"
       height="90.928940"
       width="100.59898"
       id="rect2044"
       style="fill:#000000;fill-opacity:1.0000000;fill-rule:evenodd;stroke:none;stroke-width:0.80000001" />
    <path
       transform="matrix(1.543479,0.000000,0.000000,1.543479,6.849864,-1082.759)"
       style="fill:#000000;fill-opacity:1;fill-rule:evenodd;stroke:none"
       d="m 175.44627,733.14209 c 0,14.80807 -12.00432,26.81239 -26.81239,26.81239 -14.80807,0 -26.81238,-12.00432 -26.81238,-26.81239 0,-14.80807 12.00431,-26.81239 26.81238,-26.81239 14.80807,0 26.81239,12.00432 26.81239,26.81239 z"
       id="path2606" />
    <path
       transform="matrix(1.543479,0.000000,0.000000,1.543479,-142.8356,-1082.759)"
       style="fill:#ffffff;fill-opacity:1;fill-rule:evenodd;stroke:none"
       d="m 175.44627,733.14209 c 0,14.80807 -12.00432,26.81239 -26.81239,26.81239 -14.80807,0 -26.81238,-12.00432 -26.81238,-26.81239 0,-14.80807 12.00431,-26.81239 26.81238,-26.81239 14.80807,0 26.81239,12.00432 26.81239,26.81239 z"
       id="path2607" />
  </g>
</svg>
