<?xml version="1.0" encoding="UTF-8" standalone="no"?>
<!-- Created with Inkscape (http://www.inkscape.org/) -->
<svg
   xmlns:dc="http://purl.org/dc/elements/1.1/"
   xmlns:cc="http://web.resource.org/cc/"
   xmlns:rdf="http://www.w3.org/1999/02/22-rdf-syntax-ns#"
   xmlns:svg="http://www.w3.org/2000/svg"
   xmlns="http://www.w3.org/2000/svg"
   xmlns:xlink="http://www.w3.org/1999/xlink"
   xmlns:sodipodi="http://sodipodi.sourceforge.net/DTD/sodipodi-0.dtd"
   xmlns:inkscape="http://www.inkscape.org/namespaces/inkscape"
   sodipodi:docname="elements-f14.svg"
   sodipodi:docbase="/home/aaron/notes/inkdoc/elements"
   inkscape:version="0.41+cvs"
   sodipodi:version="0.32"
   id="svg2291"
   height="1052.3622047"
   width="744.09448819">
  <defs
     id="defs3">
    <linearGradient
       y2="0.46491230"
       x2="-0.19696970"
       y1="0.46491230"
       x1="0.98484850"
       id="linearGradient3169"
       xlink:href="#linearGradient3164"
       inkscape:collect="always" />
    <linearGradient
       y2="0.67543858"
       x2="1.2272727"
       y1="0.68181819"
       x1="-0.0064935065"
       id="linearGradient3170"
       xlink:href="#linearGradient3164"
       inkscape:collect="always" />
    <linearGradient
       y2="-0.38000000"
       x2="0.48979592"
       y1="1.0599999"
       x1="0.48979592"
       id="linearGradient3168"
       xlink:href="#linearGradient3164"
       inkscape:collect="always" />
    <linearGradient
       id="linearGradient3164">
      <stop
         id="stop3165"
         offset="0.0000000"
         style="stop-color:#000000;stop-opacity:1.0000000;" />
      <stop
         id="stop3167"
         offset="1.0000000"
         style="stop-color:#ffffff;stop-opacity:1.0000000;" />
    </linearGradient>
    <linearGradient
       y2="1.2200714"
       x2="0.48798475"
       y1="0.020000000"
       x1="0.48979592"
       id="linearGradient3163"
       xlink:href="#linearGradient3164"
       inkscape:collect="always" />
    <linearGradient
       gradientUnits="userSpaceOnUse"
       gradientTransform="scale(1.073093,0.931885)"
       y2="2874.8171"
       x2="-14.462526"
       y1="2874.8171"
       x1="114.02820"
       id="linearGradient2322"
       xlink:href="#linearGradient3164"
       inkscape:collect="always" />
    <linearGradient
       gradientUnits="userSpaceOnUse"
       gradientTransform="scale(1.073093,0.931885)"
       y2="2897.7062"
       x2="316.20588"
       y1="2898.3998"
       x1="182.06721"
       id="linearGradient2324"
       xlink:href="#linearGradient3164"
       inkscape:collect="always" />
    <linearGradient
       gradientUnits="userSpaceOnUse"
       gradientTransform="scale(2.804661,0.356549)"
       y2="7340.2078"
       x2="55.983919"
       y1="7496.9797"
       x1="55.983919"
       id="linearGradient2326"
       xlink:href="#linearGradient3164"
       inkscape:collect="always" />
    <linearGradient
       gradientUnits="userSpaceOnUse"
       gradientTransform="scale(2.804661,0.356549)"
       y2="7689.6980"
       x2="55.786737"
       y1="7559.0469"
       x1="55.983919"
       id="linearGradient2328"
       xlink:href="#linearGradient3164"
       inkscape:collect="always" />
    <linearGradient
       y2="7689.6980"
       x2="55.786737"
       y1="7559.0469"
       x1="55.983919"
       gradientTransform="matrix(2.804661,0.000000,0.000000,0.356549,0.000000,-2631.734)"
       gradientUnits="userSpaceOnUse"
       id="linearGradient2331"
       xlink:href="#linearGradient3164"
       inkscape:collect="always" />
    <linearGradient
       y2="7340.2078"
       x2="55.983919"
       y1="7496.9797"
       x1="55.983919"
       gradientTransform="matrix(2.804661,0.000000,0.000000,0.356549,0.000000,-2631.734)"
       gradientUnits="userSpaceOnUse"
       id="linearGradient2334"
       xlink:href="#linearGradient3164"
       inkscape:collect="always" />
    <linearGradient
       y2="2897.7062"
       x2="316.20588"
       y1="2898.3998"
       x1="182.06721"
       gradientTransform="matrix(1.073093,0.000000,0.000000,0.931885,0.000000,-2631.734)"
       gradientUnits="userSpaceOnUse"
       id="linearGradient2337"
       xlink:href="#linearGradient3164"
       inkscape:collect="always" />
    <linearGradient
       y2="2874.8171"
       x2="-14.462526"
       y1="2874.8171"
       x1="114.02820"
       gradientTransform="matrix(1.073093,0.000000,0.000000,0.931885,0.000000,-2631.734)"
       gradientUnits="userSpaceOnUse"
       id="linearGradient2340"
       xlink:href="#linearGradient3164"
       inkscape:collect="always" />
  </defs>
  <sodipodi:namedview
     inkscape:window-y="23"
     inkscape:window-x="2"
     inkscape:window-height="511"
     inkscape:window-width="755"
     inkscape:current-layer="layer1"
     inkscape:document-units="px"
     inkscape:cy="520.00000"
     inkscape:cx="375.00000"
     inkscape:zoom="0.35000000"
     inkscape:pageshadow="2"
     inkscape:pageopacity="0.0"
     borderopacity="1.0"
     bordercolor="#666666"
     pagecolor="#ffffff"
     id="base" />
  <metadata
     id="metadata4">
    <rdf:RDF
       id="RDF5">
      <cc:Work
         id="Work6"
         rdf:about="">
        <dc:format
           id="format7">image/svg+xml</dc:format>
        <dc:type
           rdf:resource="http://purl.org/dc/dcmitype/StillImage"
           id="type9" />
      </cc:Work>
    </rdf:RDF>
  </metadata>
  <g
     id="layer1"
     inkscape:groupmode="layer"
     inkscape:label="Layer 1">
    <rect
       y="0.24891016"
       x="7.5752616"
       height="100.99377"
       width="305.15701"
       id="rect3127"
       style="fill:none;fill-rule:evenodd;stroke:#000000;stroke-width:0.49831799" />
    <rect
       y="38.758919"
       x="123.93423"
       height="23.974203"
       width="72.439087"
       id="rect3129"
       style="fill:#000000;fill-opacity:1.0000000;fill-rule:evenodd;stroke:#000000;stroke-width:1.2500000;stroke-miterlimit:4.0000000" />
    <path
       sodipodi:nodetypes="cccc"
       d="M 7.7107840,0.41230000 L 123.88063,38.729600 L 123.88063,62.912300 L 7.7107840,101.22960"
       style="fill:url(#linearGradient2340);fill-opacity:1.0000000;fill-rule:evenodd;stroke:#000000;stroke-width:0.50000000;stroke-linecap:butt;stroke-linejoin:miter;stroke-miterlimit:4.0000000;stroke-opacity:1.0000000"
       id="path3130" />
    <path
       sodipodi:nodetypes="ccccc"
       d="M 196.38271,62.912300 L 196.38271,38.729600 L 312.55256,0.41230000 L 312.55256,101.22960 L 196.38271,62.912300 z "
       style="fill:url(#linearGradient2337);fill-opacity:1.0000000;fill-rule:evenodd;stroke:#000000;stroke-width:0.50000000;stroke-linecap:butt;stroke-linejoin:miter;stroke-miterlimit:4.0000000;stroke-opacity:1.0000000"
       id="path3133" />
    <path
       sodipodi:nodetypes="ccccc"
       d="M 312.55256,0.41230000 L 7.7107840,0.41230000 L 123.88063,38.729600 L 196.38271,38.729600 L 312.55256,0.41230000 z "
       style="fill:url(#linearGradient2334);fill-opacity:1.0000000;fill-rule:evenodd;stroke:#000000;stroke-width:0.50000000;stroke-linecap:butt;stroke-linejoin:miter;stroke-miterlimit:4.0000000;stroke-opacity:1.0000000"
       id="path3145" />
    <path
       sodipodi:nodetypes="ccccc"
       d="M 312.55256,101.22960 L 7.7107840,101.22960 L 123.88063,62.912300 L 196.38271,62.912300 L 312.55256,101.22960 z "
       style="fill:url(#linearGradient2331);fill-opacity:1.0000000;fill-rule:evenodd;stroke:#000000;stroke-width:0.50000000;stroke-linecap:butt;stroke-linejoin:miter;stroke-miterlimit:4.0000000;stroke-opacity:1.0000000"
       id="path3147" />
  </g>
</svg>
