<?xml version="1.0" encoding="UTF-8" standalone="no"?>
<!-- Created with Inkscape (http://www.inkscape.org/) -->

<svg
   xmlns:dc="http://purl.org/dc/elements/1.1/"
   xmlns:cc="http://creativecommons.org/ns#"
   xmlns:rdf="http://www.w3.org/1999/02/22-rdf-syntax-ns#"
   xmlns:svg="http://www.w3.org/2000/svg"
   xmlns="http://www.w3.org/2000/svg"
   xmlns:xlink="http://www.w3.org/1999/xlink"
   xmlns:sodipodi="http://sodipodi.sourceforge.net/DTD/sodipodi-0.dtd"
   xmlns:inkscape="http://www.inkscape.org/namespaces/inkscape"
   sodipodi:docname="elements-f12.svg"
   inkscape:version="0.48+devel r10003 custom"
   sodipodi:version="0.32"
   id="svg1978"
   height="1052.3622047"
   width="744.09448819"
   version="1.1">
  <defs
     id="defs3">
    <linearGradient
       y2="-1.3071896"
       x2="0.36496350"
       y1="0.41830066"
       x1="0.24087591"
       id="linearGradient1515"
       xlink:href="#linearGradient1516" />
    <linearGradient
       id="linearGradient2728">
      <stop
         id="stop2729"
         offset="0.0000000"
         style="stop-color:#f7f7f7;stop-opacity:0.0000000;" />
      <stop
         id="stop2731"
         offset="0.45062014"
         style="stop-color:#fbfbfb;stop-opacity:0.073446326;" />
      <stop
         id="stop2730"
         offset="1.0000000"
         style="stop-color:#ffffff;stop-opacity:0.78531075;" />
    </linearGradient>
    <radialGradient
       fy="0.18300654"
       fx="0.66423357"
       r="1.0277910"
       cy="0.18300654"
       cx="0.66423357"
       id="radialGradient1578"
       xlink:href="#linearGradient2728" />
    <linearGradient
       y2="-1.2222222"
       x2="0.92727274"
       y1="0.50326800"
       x1="0.40606061"
       id="linearGradient1734"
       xlink:href="#linearGradient1516" />
    <linearGradient
       y2="-1.6209151"
       x2="0.59183675"
       y1="0.44444445"
       x1="0.25850341"
       id="linearGradient1731"
       xlink:href="#linearGradient1516" />
    <linearGradient
       id="linearGradient1516">
      <stop
         id="stop1517"
         offset="0.0000000"
         style="stop-color:#f7f7f7;stop-opacity:0.0000000;" />
      <stop
         id="stop1518"
         offset="1"
         style="stop-color:#fff;stop-opacity:1;" />
    </linearGradient>
    <linearGradient
       y2="-0.11111111"
       x2="0.86524820"
       y1="0.40522876"
       x1="0.60992908"
       id="linearGradient1729"
       xlink:href="#linearGradient1516" />
    <radialGradient
       fy="0.19230770"
       fx="0.54355401"
       r="0.46014288"
       cy="0.50649351"
       cx="0.49032259"
       id="radialGradient1528"
       xlink:href="#linearGradient1806" />
    <linearGradient
       y2="0.19531250"
       x2="0.91304350"
       y1="0.91406250"
       x1="0.89855075"
       id="linearGradient1557"
       xlink:href="#linearGradient1806" />
    <linearGradient
       spreadMethod="pad"
       y2="0.33593750"
       x2="1.0724638"
       y1="0.83593750"
       x1="1.0144928"
       id="linearGradient1760"
       xlink:href="#linearGradient1806" />
    <linearGradient
       id="linearGradient1626">
      <stop
         id="stop1627"
         offset="0.0000000"
         style="stop-color:#ffffff;stop-opacity:0.0000000;" />
      <stop
         id="stop1628"
         offset="1"
         style="stop-color:#fff;stop-opacity:1;" />
    </linearGradient>
    <linearGradient
       y2="-0.14843750"
       x2="1.1724138"
       y1="0.64062500"
       x1="0.36781609"
       id="linearGradient1517"
       xlink:href="#linearGradient1626" />
    <linearGradient
       id="linearGradient1749"
       xlink:href="#linearGradient1752" />
    <linearGradient
       id="linearGradient1752">
      <stop
         id="stop1753"
         offset="0.0000000"
         style="stop-color:#556d4a;stop-opacity:1.0000000;" />
      <stop
         id="stop1754"
         offset="0.64777780"
         style="stop-color:#778670;stop-opacity:0.97175139;" />
      <stop
         id="stop1755"
         offset="1.0000000"
         style="stop-color:#8b9f82;stop-opacity:1.0000000;" />
    </linearGradient>
    <linearGradient
       y2="1.0074621"
       x2="1.3811841"
       y1="0.21323216"
       x1="-0.011526314"
       id="linearGradient1751"
       xlink:href="#linearGradient1752" />
    <linearGradient
       y2="2.2196410"
       x2="1.1766033"
       y1="-0.51972455"
       x1="0.83159232"
       id="linearGradient1630"
       xlink:href="#linearGradient1756" />
    <radialGradient
       fy="0.47656250"
       fx="0.26829270"
       r="0.78083962"
       cy="0.53906250"
       cx="0.29268292"
       id="radialGradient1527"
       xlink:href="#linearGradient1514" />
    <linearGradient
       id="linearGradient1514">
      <stop
         id="stop1515"
         offset="0.0000000"
         style="stop-color:#484848;stop-opacity:1.0000000;" />
      <stop
         id="stop1631"
         offset="0.68666667"
         style="stop-color:#929292;stop-opacity:1.0000000;" />
      <stop
         id="stop1516"
         offset="1.0000000"
         style="stop-color:#d8d8d8;stop-opacity:1.0000000;" />
    </linearGradient>
    <radialGradient
       fy="0.50781250"
       fx="0.37777779"
       r="0.77875805"
       cy="0.52343750"
       cx="0.33333334"
       id="radialGradient1522"
       xlink:href="#linearGradient1514" />
    <linearGradient
       id="linearGradient1756">
      <stop
         id="stop1757"
         offset="0.0000000"
         style="stop-color:#495942;stop-opacity:1.0000000;" />
      <stop
         id="stop1758"
         offset="0.32111111"
         style="stop-color:#778670;stop-opacity:0.97254902;" />
      <stop
         id="stop1759"
         offset="1.0000000"
         style="stop-color:#a9c19e;stop-opacity:1.0000000;" />
    </linearGradient>
    <linearGradient
       y2="0.14383650"
       x2="0.90200359"
       y1="1.0609801"
       x1="0.45133072"
       id="linearGradient1747"
       xlink:href="#linearGradient1756" />
    <radialGradient
       fy="0.21794872"
       fx="0.64111501"
       r="0.46014288"
       cy="0.50649351"
       cx="0.49032259"
       id="radialGradient1505"
       xlink:href="#linearGradient1806" />
    <linearGradient
       id="linearGradient1806">
      <stop
         id="stop1807"
         offset="0.0000000"
         style="stop-color:#000000;stop-opacity:0.40784314;" />
      <stop
         id="stop3276"
         offset="0.64777780"
         style="stop-color:#000000;stop-opacity:0.079096042;" />
      <stop
         id="stop1808"
         offset="1.0000000"
         style="stop-color:#000000;stop-opacity:0.0000000;" />
    </linearGradient>
    <radialGradient
       fy="0.095238097"
       fx="0.49027237"
       r="0.46014288"
       cy="0.50649351"
       cx="0.49032259"
       id="radialGradient1502"
       xlink:href="#linearGradient1806" />
    <radialGradient
       gradientUnits="userSpaceOnUse"
       r="51.667703"
       fy="130.38605"
       fx="24.819926"
       cy="176.56437"
       cx="24.825565"
       id="radialGradient2163"
       xlink:href="#linearGradient1806"
       inkscape:collect="always" />
    <radialGradient
       gradientUnits="userSpaceOnUse"
       r="51.667703"
       fy="144.16476"
       fx="41.757475"
       cy="176.56437"
       cx="24.825565"
       id="radialGradient2165"
       xlink:href="#linearGradient1806"
       inkscape:collect="always" />
    <linearGradient
       gradientUnits="userSpaceOnUse"
       gradientTransform="scale(1.883162,0.531022)"
       y2="565.30964"
       x2="181.27950"
       y1="705.07803"
       x1="112.59907"
       id="linearGradient2167"
       xlink:href="#linearGradient1756"
       inkscape:collect="always" />
    <radialGradient
       gradientUnits="userSpaceOnUse"
       gradientTransform="scale(0.579628,1.725246)"
       r="25.301256"
       fy="224.16281"
       fx="453.18573"
       cy="224.67046"
       cx="451.74176"
       id="radialGradient2169"
       xlink:href="#linearGradient1514"
       inkscape:collect="always" />
    <radialGradient
       gradientUnits="userSpaceOnUse"
       gradientTransform="scale(0.562112,1.779006)"
       r="14.902598"
       fy="224.52410"
       fx="629.09349"
       cy="225.71694"
       cx="629.55898"
       id="radialGradient2171"
       xlink:href="#linearGradient1514"
       inkscape:collect="always" />
    <linearGradient
       gradientUnits="userSpaceOnUse"
       gradientTransform="scale(1.205886,0.829266)"
       y2="605.24181"
       x2="326.30952"
       y1="297.56551"
       x1="287.55905"
       id="linearGradient2173"
       xlink:href="#linearGradient1756"
       inkscape:collect="always" />
    <linearGradient
       gradientUnits="userSpaceOnUse"
       gradientTransform="scale(0.998217,1.001787)"
       y2="74.427941"
       x2="131.60111"
       y1="49.942967"
       x1="88.665842"
       id="linearGradient2175"
       xlink:href="#linearGradient1752"
       inkscape:collect="always" />
    <linearGradient
       gradientUnits="userSpaceOnUse"
       y2="336.10696"
       x2="253.37864"
       y1="336.10696"
       x1="187.35052"
       gradientTransform="scale(1.179368,0.847912)"
       id="linearGradient2177"
       xlink:href="#linearGradient1752"
       inkscape:collect="always" />
    <linearGradient
       gradientUnits="userSpaceOnUse"
       gradientTransform="scale(0.856613,1.167389)"
       y2="45.005121"
       x2="131.12428"
       y1="53.278375"
       x1="122.68814"
       id="linearGradient2179"
       xlink:href="#linearGradient1626"
       inkscape:collect="always" />
    <linearGradient
       gradientUnits="userSpaceOnUse"
       gradientTransform="scale(0.731690,1.366700)"
       y2="64.208910"
       x2="130.81171"
       y1="77.592667"
       x1="129.25997"
       spreadMethod="pad"
       id="linearGradient2181"
       xlink:href="#linearGradient1806"
       inkscape:collect="always" />
    <linearGradient
       gradientUnits="userSpaceOnUse"
       gradientTransform="scale(0.726403,1.376647)"
       y2="65.690714"
       x2="172.70305"
       y1="77.259348"
       x1="172.46978"
       id="linearGradient2183"
       xlink:href="#linearGradient1806"
       inkscape:collect="always" />
    <radialGradient
       gradientUnits="userSpaceOnUse"
       r="51.667703"
       fy="141.28563"
       fx="30.802720"
       cy="176.56437"
       cx="24.825565"
       id="radialGradient2185"
       xlink:href="#linearGradient1806"
       inkscape:collect="always" />
    <linearGradient
       gradientUnits="userSpaceOnUse"
       gradientTransform="scale(0.958107,1.043724)"
       y2="84.428337"
       x2="162.72618"
       y1="97.763397"
       x1="156.13227"
       id="linearGradient2187"
       xlink:href="#linearGradient1516"
       inkscape:collect="always" />
    <linearGradient
       gradientUnits="userSpaceOnUse"
       gradientTransform="scale(0.978488,1.021985)"
       y2="103.88062"
       x2="115.20684"
       y1="135.07221"
       x1="110.17276"
       id="linearGradient2189"
       xlink:href="#linearGradient1516"
       inkscape:collect="always" />
    <linearGradient
       gradientUnits="userSpaceOnUse"
       gradientTransform="scale(1.035315,0.965890)"
       y2="91.335997"
       x2="130.71721"
       y1="123.45138"
       x1="121.01625"
       id="linearGradient2191"
       xlink:href="#linearGradient1516"
       inkscape:collect="always" />
    <radialGradient
       gradientUnits="userSpaceOnUse"
       gradientTransform="scale(0.945443,1.057705)"
       r="34.084785"
       fy="71.937082"
       fx="64.958764"
       cy="71.937082"
       cx="64.958764"
       id="radialGradient2193"
       xlink:href="#linearGradient2728"
       inkscape:collect="always" />
    <linearGradient
       gradientUnits="userSpaceOnUse"
       gradientTransform="scale(0.946100,1.056971)"
       y2="42.421088"
       x2="54.702099"
       y1="74.473277"
       x1="52.397085"
       id="linearGradient2195"
       xlink:href="#linearGradient1516"
       inkscape:collect="always" />
  </defs>
  <sodipodi:namedview
     inkscape:window-y="284"
     inkscape:window-x="377"
     inkscape:window-height="511"
     inkscape:window-width="755"
     inkscape:current-layer="layer1"
     inkscape:document-units="px"
     inkscape:cy="990.4841"
     inkscape:cx="183.09355"
     inkscape:zoom="1.4"
     inkscape:pageshadow="2"
     inkscape:pageopacity="0.0"
     borderopacity="1.0"
     bordercolor="#666666"
     pagecolor="#ffffff"
     id="base"
     showgrid="false"
     inkscape:window-maximized="0" />
  <metadata
     id="metadata4">
    <rdf:RDF>
      <cc:Work
         rdf:about="">
        <dc:format>image/svg+xml</dc:format>
        <dc:type
           rdf:resource="http://purl.org/dc/dcmitype/StillImage" />
      </cc:Work>
    </rdf:RDF>
  </metadata>
  <g
     id="layer1"
     inkscape:groupmode="layer"
     inkscape:label="Layer 1">
    <rect
       y="1.6580489"
       x="159.95064"
       height="100.99377"
       width="152.52419"
       id="rect2588"
       style="fill:#ffffff;fill-opacity:1.0000000;fill-rule:evenodd;stroke:#000000;stroke-width:0.49831817" />
    <rect
       y="1.6580489"
       x="7.4506402"
       height="100.99377"
       width="152.52419"
       id="rect2590"
       style="fill:#ffffff;fill-opacity:1.0000000;fill-rule:evenodd;stroke:#000000;stroke-width:0.49831817" />
    <g
       transform="matrix(0.519885,0.000000,0.000000,0.519885,27.07745,-1681.325)"
       id="g2952">
      <path
         transform="matrix(0.966739,0.000000,0.000000,0.233544,113.9646,3337.076)"
         style="fill:url(#radialGradient2163);fill-opacity:0.75;fill-rule:evenodd;stroke-width:1pt"
         d="m 82.055313,175.83524 c 0,31.00698 -25.136126,56.1431 -56.143108,56.1431 -31.0069828,0 -56.143109,-25.13612 -56.143109,-56.1431 0,-31.00699 25.1361262,-56.14311 56.143109,-56.14311 31.006982,0 56.143108,25.13612 56.143108,56.14311 z"
         id="path3277" />
      <path
         transform="matrix(1.080927,0.000000,0.000000,0.286993,162.8851,3326.394)"
         style="fill:url(#radialGradient2165);fill-opacity:0.75;fill-rule:evenodd;stroke-width:1pt"
         d="m 82.055313,175.83524 c 0,31.00698 -25.136126,56.1431 -56.143108,56.1431 -31.0069828,0 -56.143109,-25.13612 -56.143109,-56.1431 0,-31.00699 25.1361262,-56.14311 56.143109,-56.14311 31.006982,0 56.143108,25.13612 56.143108,56.14311 z"
         id="path1809" />
      <g
         transform="matrix(1.201983,0.000000,0.000000,1.201983,73.32285,3220.770)"
         id="g1682">
        <path
           transform="matrix(0.377833,-2.395712e-2,2.395712e-2,0.377833,-16.04194,-27.91078)"
           sodipodi:nodetypes="czzzzzzzz"
           d="M 298.95068,267.70153 C 299.05443,266.56625 300.99769,265.19277 301.95566,265.86600 L 317.25370,276.61700 C 318.70095,277.63408 319.35300,279.61723 319.43913,281.33696 L 320.80504,308.60780 C 320.88027,310.10987 318.39807,311.87031 316.98053,311.23000 L 298.40433,302.83897 C 296.62953,302.03728 296.04750,299.47017 296.21890,297.59458 L 298.95068,267.70153 z "
           style="fill:#586051;fill-rule:evenodd;stroke-width:1.0000000pt"
           id="path1623" />
        <path
           transform="matrix(0.377833,-2.395712e-2,2.395712e-2,0.377833,-16.04194,-27.91078)"
           sodipodi:nodetypes="cczzzczccccccc"
           id="path1531"
           d="M 368.78630,386.44876 L 370.08162,410.19409 L 299.84463,400.52378 C 297.63000,400.21886 298.48739,412.31477 289.15639,417.82855 C 281.99906,422.05787 274.00961,422.29801 268.28888,418.33751 L 235.20623,395.43414 L 154.16733,389.74953 C 150.58627,389.49833 152.63131,403.89529 142.06949,411.46654 C 101.27980,430.98135 86.760664,380.47454 97.912335,372.90420 L 78.713565,359.09699 L 217.63177,357.65742 L 258.65943,315.90999 L 367.34673,353.33872 L 368.78630,386.44876 z "
           style="fill:#393939;fill-rule:evenodd;stroke:#000000;stroke-width:1.9235025pt" />
        <path
           transform="matrix(0.377833,-2.395712e-2,2.395712e-2,0.377833,-16.04194,-27.91078)"
           sodipodi:nodetypes="czzzzzzzz"
           id="path1545"
           d="M 316.47195,281.55569 L 316.64043,298.51910 C 316.65245,299.72912 315.05090,300.80301 313.84113,300.83050 L 308.24253,300.95774 C 306.99790,300.98603 305.18501,300.14434 305.12513,298.90083 L 304.32044,282.19190 C 304.25676,280.86968 305.79847,279.45594 307.11974,279.37505 L 313.35454,278.99332 C 314.69714,278.91112 316.45859,280.21065 316.47195,281.55569 z "
           style="fill:#292e23;fill-rule:evenodd;stroke-width:1.0000000pt" />
        <path
           transform="matrix(0.377833,-2.395712e-2,2.395712e-2,0.377833,-16.04194,-27.91078)"
           id="path1624"
           d="M 322.29870,279.99063 L 321.28779,316.72026 L 355.32167,328.17721 L 351.95198,320.76389 L 352.28895,314.02451 L 355.99561,311.32876 L 364.41984,314.02451 L 363.07196,306.27422 L 348.58229,297.17606 L 348.58229,320.76389 L 345.88654,320.76389 L 329.03808,311.32876 L 327.01627,304.58938 L 326.67930,288.41486 L 331.05990,286.39305 L 322.29870,279.99063 z "
           style="fill:#a5ae9d;fill-rule:evenodd;stroke-width:1.0000000pt" />
        <path
           transform="matrix(0.377833,-2.395712e-2,2.395712e-2,0.377833,-16.04194,-27.91078)"
           sodipodi:nodetypes="cccccccccccccc"
           id="path2869"
           d="M 85.570879,349.62740 L 88.115698,309.92823 L 96.768081,301.27584 L 220.44628,288.55175 L 244.87654,292.11450 L 369.50214,344.11173 L 368.34573,350.03224 L 290.17431,369.47699 L 287.12053,334.86745 L 279.99504,325.19714 L 255.56478,319.59854 L 234.69726,357.77082 L 82.517096,357.26186 L 85.570879,349.62740 z "
           style="stroke-width:1.0000000pt;fill-rule:evenodd;fill:url(#linearGradient2167)" />
        <path
           transform="matrix(0.377833,-2.395712e-2,2.395712e-2,0.377833,-16.04194,-27.91078)"
           sodipodi:nodetypes="cczcczc"
           id="path2870"
           d="M 263.26099,431.93045 C 256.28457,433.10744 248.73244,433.17169 240.80483,432.07953 C 235.03657,424.86921 227.75319,410.75253 229.01134,383.63005 C 230.21950,357.58497 238.72781,344.58392 245.89447,338.43020 C 250.54189,334.79572 264.08368,336.95507 266.25302,338.43020 C 271.66138,343.14436 281.18262,367.38687 280.50400,388.30864 C 279.82538,408.87052 268.79784,429.67379 263.26099,431.93045 z "
           style="fill:#8b8b8b;fill-rule:evenodd;stroke-width:1.0000000pt" />
        <path
           transform="matrix(0.377833,-2.395712e-2,2.395712e-2,0.377833,-16.04194,-27.91078)"
           sodipodi:nodetypes="czzzz"
           id="path1495"
           d="M 263.19923,339.62278 C 255.58447,340.59310 249.47780,360.18655 248.94825,382.88470 C 248.41870,405.94274 256.01200,427.88182 263.26099,428.30596 C 270.15134,428.70911 280.03620,408.48755 280.20585,386.86907 C 280.37551,364.89071 271.16800,338.60734 263.19923,339.62278 z "
           style="fill:#5b5b5b;fill-rule:evenodd;stroke-width:1.0000000pt" />
        <path
           transform="matrix(0.377833,-2.395712e-2,2.395712e-2,0.377833,-16.04194,-27.91078)"
           sodipodi:nodetypes="czzzz"
           id="path1494"
           d="M 255.56478,386.27279 C 255.56478,376.94179 259.36466,358.72035 265.74405,358.27978 C 272.48158,357.81448 274.39644,378.46868 274.39644,387.79968 C 274.39644,397.13068 270.32223,413.08071 265.74405,414.26580 C 260.82781,415.53840 255.56478,395.60379 255.56478,386.27279 z "
           style="stroke-width:1.0000000pt;fill-rule:evenodd;fill-opacity:0.75000000;fill:url(#radialGradient2169)" />
        <path
           transform="matrix(0.377833,-2.395712e-2,2.395712e-2,0.377833,-16.04194,-27.91078)"
           sodipodi:nodetypes="czzzz"
           id="path2873"
           d="M 260.45889,366.29482 C 262.55826,366.65471 268.73640,372.53295 268.37651,388.24822 C 268.01662,403.60360 262.55826,404.80324 260.45889,404.44335 C 258.35952,404.08346 255.78030,392.44696 255.78030,386.08887 C 255.78030,379.73078 258.35952,365.93493 260.45889,366.29482 z "
           style="fill:#d9d9d9;fill-rule:evenodd;stroke-width:1.0000000pt" />
        <path
           transform="matrix(0.377833,-2.395712e-2,2.395712e-2,0.377833,-16.04194,-27.91078)"
           sodipodi:nodetypes="cczcczc"
           id="path1506"
           d="M 354.63983,427.86686 C 350.47584,428.57981 345.96823,428.61873 341.23650,427.95716 C 337.79362,423.58957 333.44641,415.03852 334.19736,398.60932 C 334.91847,382.83275 339.99680,374.95748 344.27434,371.22992 C 347.04823,369.02837 355.13087,370.33637 356.42567,371.22992 C 359.65374,374.08548 365.33665,388.77016 364.93161,401.44334 C 364.52656,413.89851 357.94459,426.49990 354.63983,427.86686 z "
           style="fill:#707070;fill-rule:evenodd;stroke-width:0.60128736pt" />
        <path
           transform="matrix(0.377833,-2.395712e-2,2.395712e-2,0.377833,-16.04194,-27.91078)"
           sodipodi:nodetypes="czzzz"
           id="path1505"
           d="M 355.09180,371.95232 C 350.75380,372.54008 347.27493,384.40864 346.97325,398.15784 C 346.67157,412.12504 350.99735,425.41444 355.12699,425.67136 C 359.05231,425.91556 364.68356,413.66653 364.78020,400.57133 C 364.87686,387.25814 359.63149,371.33722 355.09180,371.95232 z "
           style="fill:#545454;fill-rule:evenodd;stroke-width:1.0000000pt" />
        <path
           transform="matrix(0.377833,-2.395712e-2,2.395712e-2,0.377833,-16.04194,-27.91078)"
           sodipodi:nodetypes="czzzz"
           id="path1504"
           d="M 350.74258,400.21014 C 350.74258,394.55797 352.90731,383.52050 356.54155,383.25363 C 360.37981,382.97178 361.47068,395.48287 361.47068,401.13504 C 361.47068,406.78721 359.14966,416.44880 356.54155,417.16666 C 353.74084,417.93752 350.74258,405.86231 350.74258,400.21014 z "
           style="stroke-width:1.0000000pt;fill-rule:evenodd;fill-opacity:0.75000000;fill:url(#radialGradient2171)" />
        <path
           transform="matrix(0.377833,-2.395712e-2,2.395712e-2,0.377833,-16.04194,-27.91078)"
           sodipodi:nodetypes="czzzz"
           id="path1507"
           d="M 353.53068,388.10867 C 354.72665,388.32667 358.24624,391.88736 358.04122,401.40674 C 357.83619,410.70812 354.72665,411.43480 353.53068,411.21680 C 352.33470,410.99879 350.86536,403.95009 350.86536,400.09873 C 350.86536,396.24738 352.33470,387.89067 353.53068,388.10867 z "
           style="fill:#b6b6b6;fill-rule:evenodd;stroke-width:1.0000000pt" />
        <path
           transform="matrix(0.377833,-2.395712e-2,2.395712e-2,0.377833,-16.04194,-27.91078)"
           sodipodi:nodetypes="czzzzzzzz"
           id="path2878"
           d="M 88.430642,312.31107 C 88.560159,309.76389 91.649342,307.50814 94.188909,307.27258 L 218.35156,295.75605 C 221.60098,295.45465 226.31156,298.25122 226.26918,301.51432 L 225.90928,329.22598 C 225.85960,333.05136 222.17626,337.77571 218.35156,337.86338 L 92.749342,340.74251 C 89.751033,340.81124 87.198667,336.53991 87.350967,333.54468 L 88.430642,312.31107 z "
           style="fill:#5f7161;fill-rule:evenodd;stroke-width:1.0000000pt" />
        <path
           transform="matrix(0.377833,-2.395712e-2,2.395712e-2,0.377833,-16.04194,-27.91078)"
           sodipodi:nodetypes="czzzz"
           id="path2879"
           d="M 99.947177,322.38803 C 100.12712,318.00935 103.60608,312.61098 107.86479,312.67096 C 112.30346,312.73094 112.72333,318.54919 112.54339,321.66825 C 112.36344,324.78731 109.96416,331.44531 105.88539,331.38533 C 101.80529,331.32533 99.774613,326.58708 99.947177,322.38803 z "
           style="fill:#aeb89b;fill-rule:evenodd;stroke-width:1.0000000pt" />
        <path
           transform="matrix(0.377833,-2.395712e-2,2.395712e-2,0.377833,-16.04194,-27.91078)"
           sodipodi:nodetypes="czzzz"
           id="path2880"
           d="M 194.59870,316.26988 C 194.59870,310.66156 199.03622,305.12905 203.77594,304.75334 C 208.69446,304.36346 212.96685,309.40088 213.31307,313.93058 C 213.67296,318.63916 211.39365,327.03663 204.85562,327.60646 C 198.49616,328.16073 194.59870,322.05813 194.59870,316.26988 z "
           style="fill:#aeb89b;fill-rule:evenodd;stroke-width:1.0000000pt" />
        <path
           transform="matrix(0.377833,-2.395712e-2,2.395712e-2,0.377833,-16.04194,-27.91078)"
           sodipodi:nodetypes="ccccccczzccczz"
           id="path2881"
           d="M 234.18830,340.97501 L 238.26001,299.23999 L 247.42136,295.16828 L 369.57266,346.06465 L 369.57266,388.30864 L 365.11923,386.01831 L 365.24647,362.35149 L 355.19443,356.49841 C 351.58245,354.39523 347.96354,362.15877 347.36911,366.29596 L 344.98335,382.90091 L 288.64742,371.00388 L 286.10260,331.30470 L 255.56478,318.07165 C 245.98269,313.91941 233.17428,351.36872 234.18830,340.97501 z "
           style="stroke-width:1.0000000pt;fill-rule:evenodd;fill:url(#linearGradient2173)" />
        <path
           transform="matrix(0.377833,-2.395712e-2,2.395712e-2,0.377833,-16.04194,-27.91078)"
           sodipodi:nodetypes="cccccczzzzcccczzzzcc"
           id="path2882"
           d="M 230.11659,364.38735 L 222.99110,362.86046 L 74.373676,361.33357 L 75.391604,351.15429 L 219.93731,348.10051 L 232.66141,349.11844 L 243.34965,320.61646 C 245.68581,314.38669 256.11760,311.26149 262.18131,313.99994 L 277.95918,321.12543 C 285.33562,324.45673 290.66550,333.40735 291.19224,341.48398 L 292.71913,364.89631 L 318.67628,372.02180 L 316.64043,378.63833 L 288.13846,373.54870 L 286.10260,346.06465 C 285.64178,339.84357 284.89511,330.73255 278.97711,328.75988 L 265.23509,324.17921 C 260.40395,322.56883 253.54608,326.96093 252.00203,331.81367 L 241.31379,365.40528 L 230.11659,364.38735 z "
           style="fill:#4d4d4d;fill-rule:evenodd;stroke-width:1.0000000pt" />
        <path
           transform="matrix(0.377833,-2.395712e-2,2.395712e-2,0.377833,-16.04194,-27.91078)"
           sodipodi:nodetypes="ccczzzzzzzz"
           id="path1533"
           d="M 325.64837,309.56675 L 341.79442,309.79183 L 342.51420,319.14901 L 346.47301,320.94847 C 347.17230,321.26633 347.91125,319.91716 347.91258,319.14901 L 347.94279,301.66489 C 347.94682,299.33562 345.82609,297.33219 343.98399,295.90663 L 327.35523,283.03802 C 325.90395,281.91491 321.84779,282.28585 321.95685,284.11769 L 323.12913,303.80848 C 323.25364,305.89985 323.55350,309.53754 325.64837,309.56675 z "
           style="fill:#505947;fill-rule:evenodd;stroke-width:1.0000000pt" />
        <path
           transform="translate(11.66552,18.45222)"
           sodipodi:nodetypes="cccccccczzzzzzzzczcczzzzzczzzzzzzz"
           d="M 91.386906,44.457098 L 89.387766,60.126513 L 88.862421,64.021354 L 119.63601,74.330455 L 117.29143,60.191464 L 92.095155,43.446808 L 91.386906,44.457098 z M 91.792591,47.810214 C 91.802713,47.391610 92.454752,46.844606 92.807583,47.070091 L 98.442040,50.670893 C 98.975078,51.011542 99.250690,51.724179 99.320991,52.352852 L 100.43581,62.322142 C 100.49721,62.871246 99.664470,63.572166 99.150647,63.369012 L 92.417241,60.706732 C 91.773923,60.452372 91.509376,59.524043 91.526097,58.832471 L 91.792591,47.810214 z M 101.46821,54.244007 C 101.41191,53.667791 102.37737,52.855965 102.84951,53.191041 L 109.21800,57.710687 L 110.50594,59.752863 L 111.10063,66.086674 C 111.15059,66.618832 110.80632,67.710787 110.32062,67.487668 L 103.85737,64.518645 C 103.12780,64.183497 102.37124,63.486128 102.29317,62.687064 L 101.46821,54.244007 z M 111.89474,60.340570 C 111.87027,59.954629 112.38790,59.304500 112.71134,59.516489 L 115.93451,61.629034 C 116.46427,61.976249 116.91692,62.574666 116.99967,63.202645 L 117.74398,68.851206 C 117.80331,69.301486 117.25976,70.055172 116.84343,69.873685 L 113.16998,68.272382 C 112.50841,67.983998 112.31841,67.022218 112.27274,66.301970 L 111.89474,60.340570 z "
           style="stroke-width:1.0000000pt;fill-rule:evenodd;fill:url(#linearGradient2175)"
           id="path1535" />
        <path
           transform="matrix(0.377833,-2.395712e-2,2.395712e-2,0.377833,-16.04194,-27.91078)"
           sodipodi:nodetypes="ccccccccc"
           id="path1534"
           d="M 220.95524,288.70835 L 287.12053,286.06566 L 294.24602,256.99600 L 298.82670,257.52454 L 291.70121,300.82561 L 297.29981,305.05392 L 293.73707,312.98201 L 241.82276,291.87959 L 220.95524,288.70835 z "
           style="stroke-width:1.0000000pt;fill-rule:evenodd;fill:url(#linearGradient2177)" />
        <path
           transform="matrix(0.377833,-2.395712e-2,2.395712e-2,0.377833,-16.04194,-27.91078)"
           id="path1532"
           d="M 189.56022,286.03897 L 192.79925,278.12135 L 216.91199,289.63789 L 289.25023,288.19832 L 296.08817,257.60753 L 293.56893,254.36850 L 191.35968,269.12406 L 180.56293,287.47854 L 189.56022,286.03897 z "
           style="fill:#545b4d;fill-rule:evenodd;stroke-width:1.0000000pt" />
        <path
           transform="matrix(0.377833,-2.395712e-2,2.395712e-2,0.377833,-16.04194,-27.91078)"
           sodipodi:nodetypes="czzzzzc"
           id="path1529"
           d="M 117.12663,299.49447 L 119.41697,295.16828 C 121.00157,292.17513 125.46107,291.66941 128.83280,291.35105 L 188.12708,285.75245 C 195.42128,285.06373 203.79954,283.90519 210.01252,287.78830 C 216.22550,291.67142 215.67765,290.18256 214.08423,290.33312 L 117.12663,299.49447 z "
           style="fill:#415b42;fill-rule:evenodd;stroke-width:1.0000000pt" />
        <path
           transform="matrix(0.377833,-2.395712e-2,2.395712e-2,0.377833,-16.04194,-27.91078)"
           sodipodi:nodetypes="czzzzzzzzzzz"
           id="path1530"
           d="M 365.18738,306.19291 C 366.69242,307.28980 365.08213,299.66996 363.57331,298.57828 L 302.39172,254.31160 C 298.82596,251.73167 294.15150,249.72341 289.79551,250.35279 L 195.14399,264.02868 C 191.43472,264.56463 188.79207,269.63496 188.32949,272.28718 C 187.84312,275.07582 192.63294,269.57643 196.03827,269.12406 L 293.56893,256.16796 C 295.16440,255.95602 294.15712,260.13751 295.72828,260.48666 L 298.96730,261.20644 C 299.91145,261.41626 300.70493,259.19722 301.48655,259.76688 L 365.18738,306.19291 z "
           style="fill:#d6d6d6;fill-rule:evenodd;stroke-width:1.0000000pt" />
        <path
           transform="matrix(0.377833,-2.395712e-2,2.395712e-2,0.377833,-16.04194,-27.91078)"
           id="path1544"
           d="M 306.46115,282.18970 L 307.22460,298.47654 L 313.84113,298.73103 L 314.60457,281.93522 L 306.46115,282.18970 z "
           style="fill:#ffffff;fill-opacity:0.89528793;fill-rule:evenodd;stroke-width:1.0000000pt" />
        <path
           transform="matrix(0.377833,-2.395712e-2,2.395712e-2,0.377833,-16.04194,-27.91078)"
           sodipodi:nodetypes="ccccccccc"
           id="path1547"
           d="M 311.00230,300.26190 L 311.00230,302.51190 L 297.06480,302.23065 L 297.27182,305.52356 L 311.78355,304.13690 L 312.62730,304.13690 L 312.62730,303.32440 L 312.62730,300.26190 L 311.00230,300.26190 z "
           style="fill-rule:evenodd;stroke-width:1.6250000" />
        <path
           transform="translate(11.66552,18.45222)"
           sodipodi:nodetypes="czzccz"
           id="path1625"
           d="M 101.79977,54.873297 C 101.61798,52.582600 104.97296,58.549604 106.46764,59.946182 C 107.96232,61.342756 110.92916,61.451797 110.76786,63.252756 L 110.46848,66.595317 L 102.43568,62.886263 L 101.79977,54.873297 z "
           style="stroke-width:1.0000000pt;fill-rule:evenodd;fill-opacity:0.75000000;fill:url(#linearGradient2179)" />
        <path
           transform="matrix(0.377833,-2.395712e-2,2.395712e-2,0.377833,-16.04194,-27.91078)"
           sodipodi:nodetypes="czzzzzzzz"
           id="path1632"
           d="M 117.50520,314.97451 C 117.69616,312.36471 120.00363,309.19538 122.61412,309.01410 L 183.92118,304.75666 C 186.52398,304.57591 189.50802,307.68278 189.45585,310.29133 L 189.03010,331.57850 C 188.96539,334.81400 184.60254,337.49268 181.36672,337.53891 L 121.76263,338.39039 C 119.05163,338.42912 116.03011,335.13402 116.22797,332.42998 L 117.50520,314.97451 z "
           style="fill:#474747;fill-opacity:0.62303662;fill-rule:evenodd;stroke-width:1.0000000pt" />
        <path
           transform="translate(5.000000,17.50000)"
           sodipodi:nodetypes="cczcczc"
           id="path970"
           d="M 88.813516,111.36618 C 86.205792,111.97802 83.353887,112.18323 80.332409,111.96049 C 77.980232,109.37439 74.890135,104.21513 74.715729,93.937222 C 74.548247,84.067582 77.451500,78.951527 80.011875,76.454756 C 81.680752,74.970190 86.849019,75.461642 87.704007,75.967023 C 89.860401,77.618620 94.038621,86.550142 94.283441,94.471332 C 94.519640,102.25654 90.851457,110.38089 88.813516,111.36618 z "
           style="stroke-width:1.0000000pt;fill-rule:evenodd;fill:url(#linearGradient2181)" />
        <path
           transform="translate(5.000000,17.50000)"
           sodipodi:nodetypes="cczcczc"
           id="path1556"
           d="M 123.20621,107.85357 C 121.65000,108.22270 119.94781,108.34540 118.14416,108.20879 C 116.73869,106.64106 114.89131,103.51433 114.78145,97.288847 C 114.67595,91.310661 116.40604,88.213462 117.93293,86.702589 C 118.92826,85.804317 122.01348,86.104885 122.52411,86.411478 C 123.81219,87.413068 126.31118,92.825278 126.46176,97.623327 C 126.60711,102.33901 124.42211,107.25791 123.20621,107.85357 z "
           style="stroke-width:0.60128736pt;fill-rule:evenodd;fill:url(#linearGradient2183)" />
      </g>
      <path
         transform="matrix(1.080927,0.000000,0.000000,0.286993,146.7630,3332.854)"
         style="fill:url(#radialGradient2185);fill-opacity:0.75;fill-rule:evenodd;stroke-width:1pt"
         d="m 82.055313,175.83524 c 0,31.00698 -25.136126,56.1431 -56.143108,56.1431 -31.0069828,0 -56.143109,-25.13612 -56.143109,-56.1431 0,-31.00699 25.1361262,-56.14311 56.143109,-56.14311 31.006982,0 56.143108,25.13612 56.143108,56.14311 z"
         id="path1714" />
    </g>
    <text
       id="text1232"
       y="109.55157"
       x="7.0871472"
       style="font-size:5.1805081;stroke-width:1.0000000pt;font-family:sans-serif"
       xml:space="preserve"><tspan
         id="tspan1233">Random Ant &amp; 4WD</tspan></text>
    <text
       id="text1235"
       y="111.84713"
       x="7.7085347"
       style="font-size:1.2781800;stroke-width:1.0000000pt;font-family:sans-serif"
       xml:space="preserve"><tspan
         id="tspan1236">SVG  Image Created by Andrew Fitzsimon</tspan><tspan
         y="113.44485"
         x="7.7085347"
         id="tspan2442"
         sodipodi:role="line">Courtesy of Open Clip Art Library</tspan><tspan
         y="115.04258"
         x="7.7085347"
         sodipodi:role="line"
         id="tspan2444">http://www.openclipart.org/</tspan><tspan
         y="116.64030"
         x="7.7085347"
         id="tspan2950"
         sodipodi:role="line" /></text>
    <g
       transform="matrix(1.120145,0.000000,0.000000,1.120145,-199.5482,-2562.726)"
       id="g2864">
      <path
         transform="matrix(0.311908,0.000000,0.000000,0.311908,184.8265,2289.170)"
         id="path924"
         d="M 147.45065,91.907853 L 130.69435,84.209014 L 159.22535,80.133159 L 161.48971,83.303269"
         style="fill:none;fill-opacity:0.75000000;fill-rule:evenodd;stroke:#000000;stroke-width:4.5308385" />
      <path
         transform="matrix(0.311908,0.000000,0.000000,0.311908,184.8265,2289.170)"
         id="path923"
         d="M 155.46029,108.55426 L 160.44189,126.66918 L 174.93382,102.21404"
         style="fill:none;fill-opacity:0.75000000;fill-rule:evenodd;stroke:#000000;stroke-width:4.5308385" />
      <path
         transform="matrix(0.311908,0.000000,0.000000,0.311908,184.8265,2289.170)"
         id="path909"
         d="M 97.068918,145.26319 C 97.068918,145.26319 79.136073,137.57768 71.130330,150.06663 C 63.124598,162.55559 60.882992,178.88728 66.967350,185.29188 C 73.051716,191.69646 92.905937,187.21325 97.068918,178.88728 C 101.23191,170.56132 105.39489,153.58916 103.47351,149.42618 C 101.55214,145.26319 97.068918,145.26319 97.068918,145.26319 z "
         style="fill:#7c5a08;fill-opacity:1.0000000;fill-rule:evenodd;stroke-width:1.0000000pt" />
      <path
         transform="matrix(0.311908,0.000000,0.000000,0.311908,184.8265,2289.170)"
         sodipodi:nodetypes="ccccccccccccccccc"
         id="path1569"
         d="M 142.41549,138.79278 L 141.88717,138.90401 L 126.67726,142.21293 L 121.91445,136.30985 L 118.68086,139.26926 L 125.92649,144.68767 L 126.34358,144.91012 L 126.78848,144.79889 L 141.85936,141.51778 L 160.46162,153.91928 L 160.85090,154.16954 L 161.35141,154.11392 L 183.06795,151.16648 L 182.96071,150.22118 L 161.49044,151.52796 L 142.86038,139.09865 L 142.41549,138.79278 z "
         style="fill:#3e3e3e;fill-rule:evenodd;stroke-width:2.8750000" />
      <path
         transform="matrix(0.372559,0.000000,0.000000,0.372559,189.9867,2308.318)"
         sodipodi:nodetypes="cccccccccccccccccccccccccccccccc"
         id="path1568"
         d="M 85.379947,67.643027 L 83.427821,71.717188 L 83.800293,81.378112 L 83.823568,81.773858 L 84.079643,82.053216 L 92.716282,91.621026 C 92.713226,92.015919 92.669725,97.422666 92.669725,103.33054 C 92.669725,106.39017 92.680575,109.47663 92.716282,111.85077 C 92.734131,113.03785 92.754224,114.03460 92.786121,114.78397 C 92.802062,115.15867 92.810601,115.46762 92.832678,115.71515 C 92.843712,115.83891 92.862173,115.95681 92.879235,116.06434 C 92.896306,116.17187 92.878356,116.22554 93.018914,116.50665 C 93.100474,116.66976 93.155102,116.75058 93.274981,116.94895 C 93.394869,117.14732 93.542552,117.41997 93.740576,117.74045 C 94.136615,118.38141 94.683158,119.25502 95.323569,120.27790 C 96.604374,122.32364 98.273784,124.98005 99.932880,127.61089 C 103.25105,132.87257 106.52093,138.01676 106.52093,138.01676 L 107.95758,139.15095 C 107.95758,139.15095 105.06556,131.70657 101.74867,126.44692 C 100.09022,123.81710 98.417783,121.17914 97.139356,119.13721 C 96.500142,118.11624 95.971515,117.23398 95.579636,116.59976 C 95.383697,116.28265 95.204159,116.04245 95.090776,115.85483 C 95.022117,115.74121 95.027693,115.72066 94.997654,115.66859 C 94.993083,115.63228 94.980014,115.59211 94.974380,115.52891 C 94.957569,115.34046 94.942976,115.07034 94.927815,114.71414 C 94.897499,114.00172 94.875673,113.00416 94.857983,111.82750 C 94.822595,109.47416 94.811418,106.38464 94.811418,103.33054 C 94.811418,97.222323 94.857983,91.201997 94.857983,91.201997 L 94.857983,90.782968 L 94.578625,90.480336 L 85.918713,80.935808 L 85.379947,67.643027 z "
         style="fill:#3e3e3e;fill-rule:evenodd;stroke-width:2.8750000" />
      <path
         transform="matrix(0.311908,0.000000,0.000000,0.311908,184.8265,2289.170)"
         sodipodi:nodetypes="ccccccccccccccccccccc"
         id="path1567"
         d="M 109.23089,147.26942 L 108.10281,156.78331 L 108.04720,156.95014 L 108.04720,157.14478 L 108.04720,167.96134 L 97.508698,190.56767 L 97.425280,190.76231 L 97.397474,190.98476 L 94.894929,219.54158 L 94.894929,219.81964 L 95.006153,220.12551 L 100.65078,234.39002 L 102.58923,236.16185 L 97.480892,219.45816 L 99.927826,191.45746 L 110.46632,168.76772 L 110.60535,168.51746 L 110.60535,168.23940 L 110.60535,157.31162 L 113.94219,146.63376 L 109.23089,147.26942 z "
         style="fill:#3e3e3e;fill-rule:evenodd;stroke-width:2.8750000" />
      <path
         transform="matrix(0.311908,0.000000,0.000000,0.311908,184.8265,2289.170)"
         sodipodi:nodetypes="czzzzzzz"
         id="path919"
         d="M 129.57222,103.15301 C 129.66538,107.01137 129.95115,108.12973 131.49359,109.87783 L 141.10048,120.76563 C 142.62912,122.49809 145.18674,122.84403 147.98541,121.56621 C 150.97614,120.20069 157.45720,111.91175 158.71309,107.31600 C 159.99383,102.62934 161.04890,94.695782 158.87321,93.065784 C 156.79865,91.511550 149.34077,89.130790 143.66231,91.944981 C 137.92227,94.789691 129.47532,99.139884 129.57222,103.15301 z "
         style="fill-rule:evenodd;stroke-width:1.0000000pt" />
      <path
         transform="matrix(0.311908,0.000000,0.000000,0.311908,184.8265,2289.170)"
         sodipodi:nodetypes="cczz"
         id="path1143"
         d="M 134.56159,103.95723 C 133.17436,94.709009 155.37009,86.385615 158.60697,94.246602 C 161.84384,102.10760 151.90201,116.21113 147.50911,117.82957 C 143.11621,119.44801 135.87208,112.69384 134.56159,103.95723 z "
         style="stroke-width:1.0000000pt;fill-rule:evenodd;fill-opacity:0.75000000;fill:url(#linearGradient2187)" />
      <path
         transform="matrix(0.311908,0.000000,0.000000,0.311908,184.8265,2289.170)"
         sodipodi:nodetypes="ccccccccccccc"
         id="path1571"
         d="M 63.390663,136.26243 L 62.890154,136.76294 L 44.565960,155.08714 L 32.009585,160.20356 L 31.969815,161.09324 L 45.566978,157.47846 L 45.900651,157.39504 L 46.150905,157.14478 L 64.197038,139.07085 L 98.375222,144.33804 L 98.959150,141.86330 L 64.085814,136.42927 L 63.390663,136.26243 z "
         style="fill:#3e3e3e;fill-rule:evenodd;stroke-width:2.8750000" />
      <path
         transform="matrix(0.311908,0.000000,0.000000,0.311908,184.8265,2289.170)"
         sodipodi:nodetypes="ccccccccccccccccccccc"
         id="path1572"
         d="M 51.298905,101.68765 L 50.488651,102.11659 L 56.828433,112.51606 L 57.134299,113.01657 L 57.690420,113.12779 L 72.622275,115.82498 L 72.761305,115.85278 L 72.872529,115.85278 L 96.813547,115.43569 L 95.145183,131.20173 L 95.033959,132.28617 L 96.090589,132.56423 L 104.68266,134.84432 L 107.16150,131.69027 L 97.786759,130.36755 L 99.482929,114.26784 L 99.649765,112.82192 L 98.203850,112.84973 L 72.928141,113.29463 L 58.691439,110.70866 L 51.298905,101.68765 z "
         style="fill:#3e3e3e;fill-rule:evenodd;stroke-width:2.8750000" />
      <path
         transform="matrix(0.311908,0.000000,0.000000,0.311908,184.8265,2289.170)"
         sodipodi:nodetypes="ccccccccccccccccccccccc"
         id="path1570"
         d="M 123.72172,70.139622 L 123.20150,70.250846 L 123.67420,79.037561 L 123.67420,79.093174 L 121.44972,92.968398 L 121.42191,93.079622 L 117.86273,106.84362 L 108.43648,122.52624 L 108.15842,122.99894 L 108.32526,123.55506 L 109.46132,130.12538 L 113.71974,129.37462 L 110.93903,123.33262 L 120.14283,107.98367 L 120.25406,107.81683 L 120.28186,107.65000 L 123.92446,93.607937 L 123.92446,93.552325 L 123.92446,93.496713 L 126.20455,79.454652 L 126.23236,79.315622 L 126.20455,79.176592 L 123.72172,70.139622 z "
         style="fill:#3e3e3e;fill-rule:evenodd;stroke-width:2.8750000" />
      <path
         transform="matrix(0.311908,0.000000,0.000000,0.311908,184.8265,2289.170)"
         id="path925"
         d="M 159.23201,101.09795 C 159.23201,101.09795 164.66648,100.41864 165.11936,93.851988"
         style="fill:none;fill-opacity:0.75000000;fill-rule:evenodd;stroke:#000000;stroke-width:2.1321594pt" />
      <path
         transform="matrix(0.311908,0.000000,0.000000,0.311908,184.8265,2289.170)"
         id="path926"
         d="M 151.98605,91.134750 C 151.98605,91.134750 152.43892,87.511767 160.13776,88.417513"
         style="fill:none;fill-opacity:0.75000000;fill-rule:evenodd;stroke:#000000;stroke-width:2.1321594pt" />
      <path
         transform="matrix(0.311908,0.000000,0.000000,0.311908,184.8265,2289.170)"
         sodipodi:nodetypes="cccczccccccc"
         id="path911"
         d="M 89.282954,144.02400 C 90.590850,142.38913 99.310531,139.17883 101.23191,139.81929 C 103.15328,140.45975 102.02110,131.17310 110.66729,128.93149 C 117.04912,124.19908 114.01166,119.58046 117.18178,115.73105 C 118.08751,113.46668 125.38229,107.25919 131.34957,109.03841 C 137.45669,110.85933 141.26059,120.60552 137.41783,126.68988 C 133.57508,132.77425 130.69302,131.49332 130.69302,131.49332 C 130.69302,131.49332 131.97393,135.65631 124.60865,137.89791 C 117.24338,140.13952 117.88384,144.62273 117.88384,144.62273 C 117.88384,144.62273 113.08039,150.38686 107.95672,149.10594 C 102.83306,147.82503 104.44094,152.81893 103.29654,154.12683 L 89.282954,144.02400 z "
         style="fill:#3c2b00;fill-rule:evenodd;stroke-width:1.0000000pt" />
      <path
         transform="matrix(0.311908,0.000000,0.000000,0.311908,184.8265,2289.170)"
         sodipodi:nodetypes="cccz"
         id="path1730"
         d="M 104.63166,140.75881 C 101.68889,137.16210 109.37279,127.84334 115.25832,132.42097 C 121.14385,136.99861 118.85504,145.00947 113.95043,146.31737 C 109.04582,147.62527 107.64105,144.43695 104.63166,140.75881 z "
         style="stroke-width:1.0000000pt;fill-rule:evenodd;fill-opacity:0.75000000;fill:url(#linearGradient2189)" />
      <path
         transform="matrix(0.311908,0.000000,0.000000,0.311908,184.8265,2289.170)"
         sodipodi:nodetypes="czzzzz"
         id="path1733"
         d="M 117.87411,120.81339 C 116.59346,118.36108 118.52805,115.17309 120.81687,113.45648 C 123.10569,111.73987 128.96397,109.31480 131.60701,110.51371 C 134.25005,111.71262 137.19282,117.70714 136.67511,120.64991 C 136.15740,123.59268 131.63426,128.14306 128.50076,128.17031 C 125.36726,128.19756 119.15476,123.26570 117.87411,120.81339 z "
         style="stroke-width:1.0000000pt;fill-rule:evenodd;fill-opacity:0.75000000;fill:url(#linearGradient2191)" />
      <path
         transform="matrix(0.372559,0.000000,0.000000,0.372559,189.9867,2308.318)"
         sodipodi:nodetypes="czzc"
         id="path2381"
         d="M 43.043287,81.709895 C 43.043287,81.709895 37.481249,96.742273 43.101808,101.61656 C 48.547426,106.33912 62.511493,107.77993 70.462669,90.758905 C 78.413846,73.737884 52.160018,58.024741 43.043287,81.709895 z "
         style="stroke-width:1.0000000pt;fill-rule:evenodd;fill-opacity:0.75000000;fill:url(#radialGradient2193)" />
      <path
         transform="matrix(0.372559,0.000000,0.000000,0.372559,189.9867,2308.318)"
         sodipodi:nodetypes="ccczzz"
         id="path910"
         d="M 58.620022,74.099282 C 52.599836,74.675844 48.439316,83.330000 46.259620,90.111002 C 45.050197,90.629325 45.212055,83.284588 45.730379,82.075158 C 46.248701,80.865738 48.052607,74.095278 50.935452,72.113322 C 53.699848,70.212797 57.589713,70.113113 60.612240,71.196950 C 63.605727,72.270375 64.378052,73.547829 58.620022,74.099282 z "
         style="stroke-width:1.0000000pt;fill-rule:evenodd;fill-opacity:0.75000000;fill:url(#linearGradient2195)" />
    </g>
    <use
       height="3146.2500"
       width="320.00000"
       transform="matrix(1.758560,0.000000,0.000000,1.758560,137.3274,-45.69108)"
       id="use1"
       xlink:href="#g2864"
       y="0.0000000"
       x="0.0000000" />
    <use
       height="3146.2500"
       width="320.00000"
       transform="matrix(0.250000,0.000000,0.000000,0.250000,251.8760,41.63700)"
       id="use7"
       xlink:href="#g2952"
       y="0.0000000"
       x="0.0000000" />
  </g>
</svg>
