<?xml version="1.0" encoding="UTF-8" standalone="no"?>
<!-- Created with Inkscape (http://www.inkscape.org/) -->

<svg
   xmlns:dc="http://purl.org/dc/elements/1.1/"
   xmlns:cc="http://creativecommons.org/ns#"
   xmlns:rdf="http://www.w3.org/1999/02/22-rdf-syntax-ns#"
   xmlns:svg="http://www.w3.org/2000/svg"
   xmlns="http://www.w3.org/2000/svg"
   xmlns:xlink="http://www.w3.org/1999/xlink"
   xmlns:sodipodi="http://sodipodi.sourceforge.net/DTD/sodipodi-0.dtd"
   xmlns:inkscape="http://www.inkscape.org/namespaces/inkscape"
   sodipodi:docname="basic-f13.svg"
   inkscape:version="0.48+devel r10003 custom"
   sodipodi:version="0.32"
   id="svg2928"
   height="1052.3622047"
   width="744.09448819"
   version="1.1">
  <defs
     id="defs3">
    <radialGradient
       gradientUnits="userSpaceOnUse"
       gradientTransform="scale(1.069487,0.935027)"
       fy="2278.0270"
       fx="188.94781"
       r="19.567672"
       cy="2278.0270"
       cx="188.94781"
       id="radialGradient1670"
       xlink:href="#linearGradient841" />
    <radialGradient
       gradientUnits="userSpaceOnUse"
       gradientTransform="scale(1.070251,0.934360)"
       fy="2274.3148"
       fx="212.60383"
       r="18.493775"
       cy="2274.3148"
       cx="212.60383"
       id="radialGradient1669"
       xlink:href="#linearGradient841" />
    <radialGradient
       gradientUnits="userSpaceOnUse"
       gradientTransform="scale(1.045701,0.956296)"
       fy="2233.2885"
       fx="221.81415"
       r="12.484145"
       cy="2233.2885"
       cx="221.81415"
       id="radialGradient1668"
       xlink:href="#linearGradient841" />
    <radialGradient
       gradientUnits="userSpaceOnUse"
       gradientTransform="scale(1.040873,0.960732)"
       fy="2236.0139"
       fx="225.28719"
       r="12.167087"
       cy="2236.0139"
       cx="225.28719"
       id="radialGradient1667"
       xlink:href="#linearGradient841" />
    <radialGradient
       gradientUnits="userSpaceOnUse"
       gradientTransform="scale(1.065969,0.938114)"
       fy="2298.9152"
       fx="225.83769"
       r="7.2748404"
       cy="2298.9152"
       cx="225.83769"
       id="radialGradient1666"
       xlink:href="#linearGradient841" />
    <radialGradient
       gradientUnits="userSpaceOnUse"
       gradientTransform="scale(1.048503,0.953741)"
       fy="2266.8649"
       fx="238.59247"
       r="7.9932243"
       cy="2266.8649"
       cx="238.59247"
       id="radialGradient1665"
       xlink:href="#linearGradient841" />
    <radialGradient
       gradientUnits="userSpaceOnUse"
       gradientTransform="scale(1.034074,0.967049)"
       fy="2238.9173"
       fx="251.28576"
       r="5.5509335"
       cy="2238.9173"
       cx="251.28576"
       id="radialGradient1664"
       xlink:href="#linearGradient841" />
    <radialGradient
       gradientUnits="userSpaceOnUse"
       gradientTransform="scale(1.069487,0.935027)"
       r="19.567672"
       fy="2278.0270"
       fx="188.94781"
       cy="2278.0270"
       cx="188.94781"
       id="radialGradient2463"
       xlink:href="#linearGradient841"
       inkscape:collect="always" />
    <radialGradient
       gradientUnits="userSpaceOnUse"
       gradientTransform="scale(1.070251,0.934360)"
       r="18.493775"
       fy="2274.3148"
       fx="212.60383"
       cy="2274.3148"
       cx="212.60383"
       id="radialGradient2462"
       xlink:href="#linearGradient841"
       inkscape:collect="always" />
    <radialGradient
       gradientUnits="userSpaceOnUse"
       gradientTransform="scale(1.045701,0.956296)"
       r="12.484145"
       fy="2233.2885"
       fx="221.81415"
       cy="2233.2885"
       cx="221.81415"
       id="radialGradient2461"
       xlink:href="#linearGradient841"
       inkscape:collect="always" />
    <radialGradient
       gradientUnits="userSpaceOnUse"
       gradientTransform="scale(1.040873,0.960732)"
       r="12.167087"
       fy="2236.0139"
       fx="225.28719"
       cy="2236.0139"
       cx="225.28719"
       id="radialGradient2460"
       xlink:href="#linearGradient841"
       inkscape:collect="always" />
    <radialGradient
       gradientUnits="userSpaceOnUse"
       gradientTransform="scale(1.065969,0.938114)"
       r="7.2748404"
       fy="2298.9152"
       fx="225.83769"
       cy="2298.9152"
       cx="225.83769"
       id="radialGradient2459"
       xlink:href="#linearGradient841"
       inkscape:collect="always" />
    <radialGradient
       gradientUnits="userSpaceOnUse"
       gradientTransform="scale(1.048503,0.953741)"
       r="7.9932243"
       fy="2266.8649"
       fx="238.59247"
       cy="2266.8649"
       cx="238.59247"
       id="radialGradient2458"
       xlink:href="#linearGradient841"
       inkscape:collect="always" />
    <radialGradient
       gradientUnits="userSpaceOnUse"
       gradientTransform="scale(1.034074,0.967049)"
       r="5.5509335"
       fy="2238.9173"
       fx="251.28576"
       cy="2238.9173"
       cx="251.28576"
       id="radialGradient2457"
       xlink:href="#linearGradient841"
       inkscape:collect="always" />
    <linearGradient
       id="linearGradient841">
      <stop
         id="stop842"
         offset="0.00000000"
         style="stop-color:#0082ab;stop-opacity:1;" />
      <stop
         id="stop1842"
         offset="0.34999999"
         style="stop-color:#0082ab;stop-opacity:0.5;" />
      <stop
         id="stop1843"
         offset="0.63000000"
         style="stop-color:#0082ab;stop-opacity:0.22;" />
      <stop
         id="stop843"
         offset="1.00000000"
         style="stop-color:#0082ab;stop-opacity:0;" />
    </linearGradient>
  </defs>
  <sodipodi:namedview
     inkscape:window-y="25"
     inkscape:window-x="491"
     inkscape:window-height="513"
     inkscape:window-width="751"
     inkscape:current-layer="layer1"
     inkscape:document-units="px"
     inkscape:cy="1005.5018"
     inkscape:cx="170.57958"
     inkscape:zoom="1.979899"
     inkscape:pageshadow="2"
     inkscape:pageopacity="0.0"
     borderopacity="1.0"
     bordercolor="#666666"
     pagecolor="#ffffff"
     id="base"
     showgrid="false"
     inkscape:window-maximized="0" />
  <metadata
     id="metadata4">
    <rdf:RDF>
      <cc:Work
         rdf:about="">
        <dc:format>image/svg+xml</dc:format>
        <dc:type
           rdf:resource="http://purl.org/dc/dcmitype/StillImage" />
      </cc:Work>
    </rdf:RDF>
  </metadata>
  <g
     id="layer1"
     inkscape:groupmode="layer"
     inkscape:label="Layer 1">
    <path
       transform="matrix(-1.000000,0.000000,0.000000,1.000000,413.5562,-2103.409)"
       style="font-size:12px;fill:url(#radialGradient1670);fill-opacity:0.75;fill-rule:evenodd;stroke:none"
       d="m 223.00467,2147.6233 -20.92737,0.3454 -20.92738,0.3453 10.16462,-18.2963 10.16461,-18.2963 10.76276,17.9509 z"
       id="polygon1671" />
    <path
       transform="matrix(-1.000000,0.000000,0.000000,1.000000,413.4438,-2098.420)"
       style="font-size:12px;fill:url(#radialGradient1669);fill-opacity:0.75;fill-rule:evenodd;stroke:none"
       d="m 207.74647,2141.7547 10.1366,-17.0026 10.13659,-17.0026 9.65639,17.2799 9.65639,17.2798 -19.79299,-0.2772 z"
       id="polygon1672" />
    <path
       transform="matrix(-1.000000,0.000000,0.000000,1.000000,433.4970,-2109.076)"
       style="font-size:12px;fill:url(#radialGradient1668);fill-opacity:0.75;fill-rule:evenodd;stroke:none"
       d="m 218.8967,2147.6231 5.43123,-11.9385 5.43122,-11.9385 7.62346,10.6728 7.62347,10.6729 -13.05469,1.2656 z"
       id="polygon1673" />
    <path
       transform="matrix(-1.000000,0.000000,0.000000,1.000000,445.3343,-2121.601)"
       style="font-size:12px;fill:url(#radialGradient1667);fill-opacity:0.75;fill-rule:evenodd;stroke:none"
       d="m 221.83098,2157.0128 7.58208,-10.246 7.58209,-10.2461 5.0823,11.6893 5.08231,11.6893 -12.66439,-1.4432 z"
       id="polygon1674" />
    <path
       transform="matrix(-1.000000,0.000000,0.000000,1.000000,411.9695,-2130.035)"
       style="font-size:12px;fill:url(#radialGradient1666);fill-opacity:0.75;fill-rule:evenodd;stroke:none"
       d="m 232.98121,2163.4683 3.68891,-6.8247 3.68891,-6.8246 4.06584,6.607 4.06585,6.607 -7.75475,0.2176 z"
       id="polygon1675" />
    <path
       transform="matrix(-1.000000,0.000000,0.000000,1.000000,429.6753,-2135.392)"
       style="font-size:12px;fill:url(#radialGradient1665);fill-opacity:0.75;fill-rule:evenodd;stroke:none"
       d="m 241.78402,2168.1632 4.82331,-6.8928 4.8233,-6.8927 3.55762,7.6235 3.55761,7.6234 -8.38092,-0.7307 z"
       id="polygon1676" />
    <path
       transform="matrix(-1.000000,0.000000,0.000000,1.000000,450.9023,-2138.534)"
       style="font-size:12px;fill:url(#radialGradient1664);fill-opacity:0.75;fill-rule:evenodd;stroke:none"
       d="m 254.10796,2170.5106 2.18246,-5.3681 2.18246,-5.368 3.55761,4.5741 3.55762,4.5741 -5.74008,0.7939 z"
       id="polygon1677" />
    <path
       id="path1622"
       d="M 30.105301,4.9278845 L 83.706928,19.290384"
       style="fill:none;fill-opacity:0.75000000;fill-rule:evenodd;stroke:#000000;stroke-width:1.0000000pt;stroke-linecap:butt;stroke-linejoin:miter;stroke-opacity:1.0000000" />
    <path
       id="path1623"
       d="M 27.562262,9.2560845 L 81.163888,23.618584"
       style="fill:none;fill-opacity:0.75000000;fill-rule:evenodd;stroke:#000000;stroke-width:1.0000000pt;stroke-linecap:butt;stroke-linejoin:miter;stroke-opacity:1.0000000" />
    <path
       id="path1624"
       d="M 25.019222,13.584384 L 78.620848,27.946884"
       style="fill:none;fill-opacity:0.75000000;fill-rule:evenodd;stroke:#000000;stroke-width:1.0000000pt;stroke-linecap:butt;stroke-linejoin:miter;stroke-opacity:1.0000000" />
    <path
       id="path1625"
       d="M 22.476183,17.912584 L 76.077804,32.275084"
       style="fill:none;fill-opacity:0.75000000;fill-rule:evenodd;stroke:#000000;stroke-width:1.0000000pt;stroke-linecap:butt;stroke-linejoin:miter;stroke-opacity:1.0000000" />
    <path
       id="path1626"
       d="M 19.933144,22.240784 L 73.534765,36.603284"
       style="fill:none;fill-opacity:0.75000000;fill-rule:evenodd;stroke:#000000;stroke-width:1.0000000pt;stroke-linecap:butt;stroke-linejoin:miter;stroke-opacity:1.0000000" />
    <path
       id="path1627"
       d="M 17.390104,26.569084 L 70.991725,40.931587"
       style="fill:none;fill-opacity:0.75000000;fill-rule:evenodd;stroke:#000000;stroke-width:1.0000000pt;stroke-linecap:butt;stroke-linejoin:miter;stroke-opacity:1.0000000" />
    <path
       id="path1628"
       d="M 14.847065,30.897284 L 68.448686,45.259787"
       style="fill:none;fill-opacity:0.75000000;fill-rule:evenodd;stroke:#000000;stroke-width:1.0000000pt;stroke-linecap:butt;stroke-linejoin:miter;stroke-opacity:1.0000000" />
    <path
       id="path1629"
       d="M 12.304026,35.225484 L 65.905647,49.587987"
       style="fill:none;fill-opacity:0.75000000;fill-rule:evenodd;stroke:#000000;stroke-width:1.0000000pt;stroke-linecap:butt;stroke-linejoin:miter;stroke-opacity:1.0000000" />
    <path
       id="path1630"
       d="M 9.7609840,39.553787 L 63.362605,53.916287"
       style="fill:none;fill-opacity:0.75000000;fill-rule:evenodd;stroke:#000000;stroke-width:1.0000000pt;stroke-linecap:butt;stroke-linejoin:miter;stroke-opacity:1.0000000" />
    <path
       transform="matrix(1.901202e-16,0.614095,-0.614095,1.901202e-16,1424.349,-31.31421)"
       d="M 131.45540,2120.6279 C 131.86733,2120.8339 131.38099,2121.2848 131.11307,2121.3126 C 130.38700,2121.3878 129.98969,2120.5582 130.08607,2119.9433 C 130.25847,2118.8434 131.48161,2118.3135 132.48239,2118.5739 C 133.95109,2118.9561 134.62956,2120.6179 134.19405,2121.9973 C 133.61359,2123.8358 131.49936,2124.6664 129.74374,2124.0512 C 127.53447,2123.2772 126.55041,2120.7047 127.34742,2118.5739 C 128.31270,2115.9933 131.34648,2114.8551 133.85172,2115.8353 C 136.80406,2116.9904 138.09693,2120.4872 136.93271,2123.3666 C 135.58856,2126.6909 131.62765,2128.1387 128.37441,2126.7899 C 124.67788,2125.2573 123.07502,2120.8315 124.60876,2117.2046 C 126.32940,2113.1357 131.22055,2111.3777 135.22105,2113.0966 C 139.66236,2115.0050 141.57578,2120.3620 139.67136,2124.7359"
       sodipodi:t0="0.0000000"
       sodipodi:argument="-18.385908"
       sodipodi:radius="9.1857243"
       sodipodi:revolution="3.0000000"
       sodipodi:expansion="1.0000000"
       sodipodi:cy="2120.6279"
       sodipodi:cx="131.45540"
       id="path1641"
       style="font-size:12.000000;fill:none;fill-opacity:0.75000000;fill-rule:evenodd;stroke:#000000;stroke-width:1.0000000pt"
       sodipodi:type="spiral" />
    <path
       transform="matrix(1.901202e-16,0.614095,-0.614095,1.901202e-16,1440.566,-40.55521)"
       d="M 143.19247,2128.8440 C 143.75153,2129.1382 143.07166,2129.7428 142.70343,2129.7732 C 141.70554,2129.8556 141.18436,2128.7064 141.33410,2127.8659 C 141.60196,2126.3624 143.29454,2125.6707 144.65961,2126.0564 C 146.66291,2126.6225 147.54590,2128.9209 146.90922,2130.8002 C 146.06063,2133.3050 143.13738,2134.3837 140.74725,2133.4899 C 137.73951,2132.3652 136.46344,2128.8091 137.61736,2125.9097 C 139.01490,2122.3982 143.20804,2120.9238 146.61579,2122.3397 C 150.63171,2124.0082 152.30488,2128.8408 150.62596,2132.7564 C 148.68758,2137.2770 143.21411,2139.1494 138.79107,2137.2067 C 133.76532,2134.9992 131.69356,2128.8838 133.90061,2123.9535 C 136.37659,2118.4225 143.13469,2116.1512 148.57197,2118.6229 C 154.60838,2121.3671 157.07945,2128.7684 154.34271,2134.7125"
       sodipodi:t0="0.0000000"
       sodipodi:argument="-18.365078"
       sodipodi:radius="12.600299"
       sodipodi:revolution="3.0000000"
       sodipodi:expansion="1.0000000"
       sodipodi:cy="2128.8440"
       sodipodi:cx="143.19247"
       id="path1642"
       style="font-size:12.000000;fill:none;fill-opacity:0.75000000;fill-rule:evenodd;stroke:#000000;stroke-width:1.0000000pt"
       sodipodi:type="spiral" />
    <path
       transform="matrix(1.901202e-16,0.614095,-0.614095,1.901202e-16,1424.349,-54.93121)"
       d="M 154.34271,2141.7546 C 155.46082,2142.3431 154.10109,2143.5522 153.36462,2143.6130 C 151.36884,2143.7779 150.32648,2141.4795 150.62597,2139.7985 C 151.16169,2136.7915 154.54685,2135.4081 157.27698,2136.1795 C 161.28357,2137.3116 163.04956,2141.9084 161.77620,2145.6670 C 160.07902,2150.6767 154.23252,2152.8340 149.45226,2151.0465 C 143.43679,2148.7971 140.88465,2141.6848 143.19248,2135.8861 C 145.98757,2128.8630 154.37385,2125.9143 161.18935,2128.7460 C 169.22117,2132.0831 172.56753,2141.7482 169.20969,2149.5794 C 165.33293,2158.6207 154.38598,2162.3654 145.53990,2158.4800 C 135.48841,2154.0651 131.34489,2141.8342 135.75899,2131.9737 C 140.71094,2120.9117 154.22715,2116.3690 165.10171,2121.3125 C 177.17453,2126.8008 182.11667,2141.6034 176.64318,2153.4917"
       sodipodi:t0="0.0000000"
       sodipodi:argument="-18.365078"
       sodipodi:radius="25.200598"
       sodipodi:revolution="3.0000000"
       sodipodi:expansion="1.0000000"
       sodipodi:cy="2141.7546"
       sodipodi:cx="154.34271"
       id="path1643"
       style="font-size:12.000000;fill:none;fill-opacity:0.75000000;fill-rule:evenodd;stroke:#000000;stroke-width:1.0000000pt"
       sodipodi:type="spiral" />
    <path
       transform="matrix(1.901202e-16,0.614095,-0.614095,1.901202e-16,1424.349,-65.81921)"
       d="M 177.23004,2161.1208 C 178.17161,2161.4151 177.29795,2162.5352 176.74100,2162.6858 C 175.23169,2163.0938 174.10720,2161.4758 174.10015,2160.1428 C 174.08755,2157.7582 176.49195,2156.2186 178.69718,2156.4260 C 181.93344,2156.7304 183.93767,2160.0113 183.48982,2163.0770 C 182.89291,2167.1632 178.70759,2169.6442 174.78481,2168.9456 C 169.84840,2168.0664 166.88581,2162.9648 167.84037,2158.1866 C 168.99647,2152.3995 175.02050,2148.9527 180.65336,2150.1662 C 187.29149,2151.5963 191.22390,2158.5463 189.74960,2165.0332 C 188.04747,2172.5227 180.16935,2176.9417 172.82863,2175.2054 C 164.48765,2173.2324 159.58133,2164.4246 161.58059,2156.2304 C 163.82346,2147.0377 173.56199,2141.6436 182.60954,2143.9065 C 192.65404,2146.4186 198.53622,2157.0887 196.00938,2166.9894"
       sodipodi:t0="0.0000000"
       sodipodi:argument="-18.546671"
       sodipodi:radius="19.674946"
       sodipodi:revolution="3.0000000"
       sodipodi:expansion="1.0000000"
       sodipodi:cy="2161.1208"
       sodipodi:cx="177.23004"
       id="path1644"
       style="font-size:12.000000;fill:none;fill-opacity:0.75000000;fill-rule:evenodd;stroke:#000000;stroke-width:1.0000000pt"
       sodipodi:type="spiral" />
    <path
       transform="matrix(4.753003e-17,0.153524,-0.153524,4.753003e-17,473.6190,31.04279)"
       d="M 143.19247,2128.8440 C 143.75153,2129.1382 143.07166,2129.7428 142.70343,2129.7732 C 141.70554,2129.8556 141.18436,2128.7064 141.33410,2127.8659 C 141.60196,2126.3624 143.29454,2125.6707 144.65961,2126.0564 C 146.66291,2126.6225 147.54590,2128.9209 146.90922,2130.8002 C 146.06063,2133.3050 143.13738,2134.3837 140.74725,2133.4899 C 137.73951,2132.3652 136.46344,2128.8091 137.61736,2125.9097 C 139.01490,2122.3982 143.20804,2120.9238 146.61579,2122.3397 C 150.63171,2124.0082 152.30488,2128.8408 150.62596,2132.7564 C 148.68758,2137.2770 143.21411,2139.1494 138.79107,2137.2067 C 133.76532,2134.9992 131.69356,2128.8838 133.90061,2123.9535 C 136.37659,2118.4225 143.13469,2116.1512 148.57197,2118.6229 C 154.60838,2121.3671 157.07945,2128.7684 154.34271,2134.7125"
       sodipodi:t0="0.0000000"
       sodipodi:argument="-18.365078"
       sodipodi:radius="12.600299"
       sodipodi:revolution="3.0000000"
       sodipodi:expansion="1.0000000"
       sodipodi:cy="2128.8440"
       sodipodi:cx="143.19247"
       id="path1645"
       style="font-size:12.000000;fill:none;fill-opacity:0.75000000;fill-rule:evenodd;stroke:#000000;stroke-width:1.0000000pt"
       sodipodi:type="spiral" />
    <path
       transform="matrix(9.506006e-17,0.307048,-0.307048,9.506006e-17,806.8147,7.176787)"
       d="M 143.19247,2128.8440 C 143.75153,2129.1382 143.07166,2129.7428 142.70343,2129.7732 C 141.70554,2129.8556 141.18436,2128.7064 141.33410,2127.8659 C 141.60196,2126.3624 143.29454,2125.6707 144.65961,2126.0564 C 146.66291,2126.6225 147.54590,2128.9209 146.90922,2130.8002 C 146.06063,2133.3050 143.13738,2134.3837 140.74725,2133.4899 C 137.73951,2132.3652 136.46344,2128.8091 137.61736,2125.9097 C 139.01490,2122.3982 143.20804,2120.9238 146.61579,2122.3397 C 150.63171,2124.0082 152.30488,2128.8408 150.62596,2132.7564 C 148.68758,2137.2770 143.21411,2139.1494 138.79107,2137.2067 C 133.76532,2134.9992 131.69356,2128.8838 133.90061,2123.9535 C 136.37659,2118.4225 143.13469,2116.1512 148.57197,2118.6229 C 154.60838,2121.3671 157.07945,2128.7684 154.34271,2134.7125"
       sodipodi:t0="0.0000000"
       sodipodi:argument="-18.365078"
       sodipodi:radius="12.600299"
       sodipodi:revolution="3.0000000"
       sodipodi:expansion="1.0000000"
       sodipodi:cy="2128.8440"
       sodipodi:cx="143.19247"
       id="path1646"
       style="font-size:12.000000;fill:none;fill-opacity:0.75000000;fill-rule:evenodd;stroke:#000000;stroke-width:1.0000000pt"
       sodipodi:type="spiral" />
    <path
       transform="matrix(3.802402e-16,1.228191,-1.228191,3.802402e-16,2753.765,-136.0183)"
       d="M 143.19247,2128.8440 C 143.75153,2129.1382 143.07166,2129.7428 142.70343,2129.7732 C 141.70554,2129.8556 141.18436,2128.7064 141.33410,2127.8659 C 141.60196,2126.3624 143.29454,2125.6707 144.65961,2126.0564 C 146.66291,2126.6225 147.54590,2128.9209 146.90922,2130.8002 C 146.06063,2133.3050 143.13738,2134.3837 140.74725,2133.4899 C 137.73951,2132.3652 136.46344,2128.8091 137.61736,2125.9097 C 139.01490,2122.3982 143.20804,2120.9238 146.61579,2122.3397 C 150.63171,2124.0082 152.30488,2128.8408 150.62596,2132.7564 C 148.68758,2137.2770 143.21411,2139.1494 138.79107,2137.2067 C 133.76532,2134.9992 131.69356,2128.8838 133.90061,2123.9535 C 136.37659,2118.4225 143.13469,2116.1512 148.57197,2118.6229 C 154.60838,2121.3671 157.07945,2128.7684 154.34271,2134.7125"
       sodipodi:t0="0.0000000"
       sodipodi:argument="-18.365078"
       sodipodi:radius="12.600299"
       sodipodi:revolution="3.0000000"
       sodipodi:expansion="1.0000000"
       sodipodi:cy="2128.8440"
       sodipodi:cx="143.19247"
       id="path1647"
       style="font-size:12.000000;fill:none;fill-opacity:0.75000000;fill-rule:evenodd;stroke:#000000;stroke-width:1.0000000pt"
       sodipodi:type="spiral" />
    <path
       transform="matrix(7.604803e-16,2.456381,-2.456381,7.604803e-16,5347.526,-326.9433)"
       d="M 143.19247,2128.8440 C 143.75153,2129.1382 143.07166,2129.7428 142.70343,2129.7732 C 141.70554,2129.8556 141.18436,2128.7064 141.33410,2127.8659 C 141.60196,2126.3624 143.29454,2125.6707 144.65961,2126.0564 C 146.66291,2126.6225 147.54590,2128.9209 146.90922,2130.8002 C 146.06063,2133.3050 143.13738,2134.3837 140.74725,2133.4899 C 137.73951,2132.3652 136.46344,2128.8091 137.61736,2125.9097 C 139.01490,2122.3982 143.20804,2120.9238 146.61579,2122.3397 C 150.63171,2124.0082 152.30488,2128.8408 150.62596,2132.7564 C 148.68758,2137.2770 143.21411,2139.1494 138.79107,2137.2067 C 133.76532,2134.9992 131.69356,2128.8838 133.90061,2123.9535 C 136.37659,2118.4225 143.13469,2116.1512 148.57197,2118.6229 C 154.60838,2121.3671 157.07945,2128.7684 154.34271,2134.7125"
       sodipodi:t0="0.0000000"
       sodipodi:argument="-18.365078"
       sodipodi:radius="12.600299"
       sodipodi:revolution="3.0000000"
       sodipodi:expansion="1.0000000"
       sodipodi:cy="2128.8440"
       sodipodi:cx="143.19247"
       id="path1648"
       style="font-size:12.000000;fill:none;fill-opacity:0.75000000;fill-rule:evenodd;stroke:#000000;stroke-width:0.12500000"
       sodipodi:type="spiral" />
    <path
       transform="translate(3.588790,-2103.409)"
       style="font-size:12px;fill:url(#radialGradient2463);fill-opacity:0.75;fill-rule:evenodd;stroke:none"
       d="m 223.00467,2147.6233 -20.92737,0.3454 -20.92738,0.3453 10.16462,-18.2963 10.16461,-18.2963 10.76276,17.9509 z"
       id="polygon1649" />
    <path
       transform="translate(3.701180,-2098.420)"
       style="font-size:12px;fill:url(#radialGradient2462);fill-opacity:0.75;fill-rule:evenodd;stroke:none"
       d="m 207.74647,2141.7547 10.1366,-17.0026 10.13659,-17.0026 9.65639,17.2799 9.65639,17.2798 -19.79299,-0.2772 z"
       id="polygon1650" />
    <path
       transform="translate(-16.35203,-2109.076)"
       style="font-size:12px;fill:url(#radialGradient2461);fill-opacity:0.75;fill-rule:evenodd;stroke:none"
       d="m 218.8967,2147.6231 5.43123,-11.9385 5.43122,-11.9385 7.62346,10.6728 7.62347,10.6729 -13.05469,1.2656 z"
       id="polygon1651" />
    <path
       transform="translate(-28.18930,-2121.601)"
       style="font-size:12px;fill:url(#radialGradient2460);fill-opacity:0.75;fill-rule:evenodd;stroke:none"
       d="m 221.83098,2157.0128 7.58208,-10.246 7.58209,-10.2461 5.0823,11.6893 5.08231,11.6893 -12.66439,-1.4432 z"
       id="polygon1652" />
    <path
       transform="translate(5.175400,-2130.035)"
       style="font-size:12px;fill:url(#radialGradient2459);fill-opacity:0.75;fill-rule:evenodd;stroke:none"
       d="m 232.98121,2163.4683 3.68891,-6.8247 3.68891,-6.8246 4.06584,6.607 4.06585,6.607 -7.75475,0.2176 z"
       id="polygon1653" />
    <path
       transform="translate(-12.53040,-2135.392)"
       style="font-size:12px;fill:url(#radialGradient2458);fill-opacity:0.75;fill-rule:evenodd;stroke:none"
       d="m 241.78402,2168.1632 4.82331,-6.8928 4.8233,-6.8927 3.55762,7.6235 3.55761,7.6234 -8.38092,-0.7307 z"
       id="polygon1654" />
    <path
       transform="translate(-33.75731,-2138.534)"
       style="font-size:12px;fill:url(#radialGradient2457);fill-opacity:0.75;fill-rule:evenodd;stroke:none"
       d="m 254.10796,2170.5106 2.18246,-5.3681 2.18246,-5.368 3.55761,4.5741 3.55762,4.5741 -5.74008,0.7939 z"
       id="polygon1655" />
    <path
       transform="matrix(1.082533e-16,0.349663,-0.349663,1.082533e-16,853.9819,0.692787)"
       d="M 143.19247,2128.8440 C 143.75153,2129.1382 143.07166,2129.7428 142.70343,2129.7732 C 141.70554,2129.8556 141.18436,2128.7064 141.33410,2127.8659 C 141.60196,2126.3624 143.29454,2125.6707 144.65961,2126.0564 C 146.66291,2126.6225 147.54590,2128.9209 146.90922,2130.8002 C 146.06063,2133.3050 143.13738,2134.3837 140.74725,2133.4899 C 137.73951,2132.3652 136.46344,2128.8091 137.61736,2125.9097 C 139.01490,2122.3982 143.20804,2120.9238 146.61579,2122.3397 C 150.63171,2124.0082 152.30488,2128.8408 150.62596,2132.7564 C 148.68758,2137.2770 143.21411,2139.1494 138.79107,2137.2067 C 133.76532,2134.9992 131.69356,2128.8838 133.90061,2123.9535 C 136.37659,2118.4225 143.13469,2116.1512 148.57197,2118.6229 C 154.60838,2121.3671 157.07945,2128.7684 154.34271,2134.7125"
       sodipodi:t0="0.0000000"
       sodipodi:argument="-18.365078"
       sodipodi:radius="12.600299"
       sodipodi:revolution="3.0000000"
       sodipodi:expansion="1.0000000"
       sodipodi:cy="2128.8440"
       sodipodi:cx="143.19247"
       id="path1678"
       style="font-size:12.000000;fill:none;fill-opacity:0.75000000;fill-rule:evenodd;stroke:#000000;stroke-width:1.0000000pt"
       sodipodi:type="spiral" />
    <path
       id="path1679"
       d="M 175.20459,51.727787 C 175.16086,52.688387 175.12047,53.782187 174.09943,54.524787"
       style="font-size:12.000000;fill:none;fill-opacity:0.75000000;fill-rule:evenodd;stroke:#000000;stroke-width:0.36291499pt" />
    <path
       id="path1680"
       d="M 182.30186,51.839687 C 182.30186,52.582887 181.84217,53.954587 181.93348,54.860387"
       style="font-size:12.000000;fill:none;fill-opacity:0.75000000;fill-rule:evenodd;stroke:#000000;stroke-width:0.36291499pt" />
    <path
       id="path1681"
       d="M 188.65035,51.951487 C 188.85033,52.646587 188.73246,53.739487 190.49230,54.524787"
       style="font-size:12.000000;fill:none;fill-opacity:0.75000000;fill-rule:evenodd;stroke:#000000;stroke-width:0.36291499pt" />
    <path
       id="path1682"
       d="M 197.68216,51.503987 C 197.46637,52.170887 195.82128,54.066087 196.57699,54.748587"
       style="font-size:12.000000;fill:none;fill-opacity:0.75000000;fill-rule:evenodd;stroke:#000000;stroke-width:0.36291499pt" />
    <path
       id="path1683"
       d="M 204.82471,52.287187 C 204.54422,52.686187 203.47294,54.089287 204.82471,54.636687"
       style="font-size:12.000000;fill:none;fill-opacity:0.75000000;fill-rule:evenodd;stroke:#000000;stroke-width:0.36291499pt" />
    <path
       id="path1684"
       d="M 211.02991,51.503987 C 211.12145,52.430587 210.54887,53.384887 212.87186,54.412887"
       style="font-size:12.000000;fill:none;fill-opacity:0.75000000;fill-rule:evenodd;stroke:#000000;stroke-width:0.36291499pt" />
    <path
       id="path1685"
       d="M 220.14463,51.951487 C 220.22447,52.521287 219.15359,53.514087 218.67108,54.412887"
       style="font-size:12.000000;fill:none;fill-opacity:0.75000000;fill-rule:evenodd;stroke:#000000;stroke-width:0.36291499pt" />
    <path
       id="path1686"
       d="M 225.39606,51.839687 C 225.42319,52.276287 225.59145,53.562387 228.34317,54.189187"
       style="font-size:12.000000;fill:none;fill-opacity:0.75000000;fill-rule:evenodd;stroke:#000000;stroke-width:0.36291499pt" />
    <path
       id="path1687"
       d="M 233.97104,52.063387 C 233.97104,52.221287 233.75877,53.676487 234.70782,54.300987"
       style="font-size:12.000000;fill:none;fill-opacity:0.75000000;fill-rule:evenodd;stroke:#000000;stroke-width:0.36291499pt" />
    <path
       id="path1688"
       d="M 238.47345,51.839687 C 239.52830,53.072987 239.60390,54.525187 245.10445,55.419787"
       style="font-size:12.000000;fill:none;fill-opacity:0.75000000;fill-rule:evenodd;stroke:#000000;stroke-width:0.36291499pt" />
    <path
       id="path1689"
       d="M 248.88235,52.510887 C 248.88235,53.351187 248.77656,54.181387 249.61913,54.972287"
       style="font-size:12.000000;fill:none;fill-opacity:0.75000000;fill-rule:evenodd;stroke:#000000;stroke-width:0.36291499pt" />
  </g>
</svg>
