<?xml version="1.0" encoding="UTF-8" standalone="no"?>
<!-- Created with Inkscape (http://www.inkscape.org/) -->

<svg
   xmlns:dc="http://purl.org/dc/elements/1.1/"
   xmlns:cc="http://creativecommons.org/ns#"
   xmlns:rdf="http://www.w3.org/1999/02/22-rdf-syntax-ns#"
   xmlns:svg="http://www.w3.org/2000/svg"
   xmlns="http://www.w3.org/2000/svg"
   xmlns:sodipodi="http://sodipodi.sourceforge.net/DTD/sodipodi-0.dtd"
   xmlns:inkscape="http://www.inkscape.org/namespaces/inkscape"
   sodipodi:docname="basic-f08.svg"
   inkscape:version="0.48+devel r10003 custom"
   sodipodi:version="0.32"
   id="svg2928"
   height="1052.3622047"
   width="744.09448819"
   version="1.1">
  <defs
     id="defs3" />
  <sodipodi:namedview
     inkscape:window-y="25"
     inkscape:window-x="491"
     inkscape:window-height="513"
     inkscape:window-width="751"
     inkscape:current-layer="layer1"
     inkscape:document-units="px"
     inkscape:cy="1062.6922"
     inkscape:cx="225.50775"
     inkscape:zoom="0.98994949"
     inkscape:pageshadow="2"
     inkscape:pageopacity="0.0"
     borderopacity="1.0"
     bordercolor="#666666"
     pagecolor="#ffffff"
     id="base"
     showgrid="false"
     inkscape:window-maximized="0" />
  <metadata
     id="metadata4">
    <rdf:RDF>
      <cc:Work
         rdf:about="">
        <dc:format>image/svg+xml</dc:format>
        <dc:type
           rdf:resource="http://purl.org/dc/dcmitype/StillImage" />
      </cc:Work>
    </rdf:RDF>
  </metadata>
  <g
     id="layer1"
     inkscape:groupmode="layer"
     inkscape:label="Layer 1">
    <path
       transform="matrix(0.997770,0.000000,0.000000,0.935740,0.128430,-1529.560)"
       style="font-size:12px;fill:#80765b;fill-opacity:0.74999599;fill-rule:evenodd;stroke:#000000;stroke-width:1pt"
       d="m 67.136333,1653.0359 c 0,9.8338 -12.415244,17.8057 -27.730224,17.8057 -15.31498,0 -27.730225,-7.9719 -27.730225,-17.8057 0,-9.8338 12.415245,-17.8057 27.730225,-17.8057 15.31498,0 27.730224,7.9719 27.730224,17.8057 z"
       id="path969" />
    <path
       transform="matrix(0.997770,0.000000,0.000000,0.935740,35.03744,-1529.014)"
       style="font-size:12px;fill:#d0765b;fill-opacity:0.267692;fill-rule:evenodd;stroke:#000000;stroke-width:1pt"
       d="m 67.136333,1653.0359 c 0,9.8338 -12.415244,17.8057 -27.730224,17.8057 -15.31498,0 -27.730225,-7.9719 -27.730225,-17.8057 0,-9.8338 12.415245,-17.8057 27.730225,-17.8057 15.31498,0 27.730224,7.9719 27.730224,17.8057 z"
       id="path970" />
    <path
       transform="matrix(0.997770,0.000000,0.000000,0.935740,70.39144,-1529.014)"
       style="font-size:12px;fill:#12c097;fill-opacity:1;fill-rule:evenodd;stroke:#000000;stroke-width:1pt"
       d="m 67.136333,1653.0359 c 0,9.8338 -12.415244,17.8057 -27.730224,17.8057 -15.31498,0 -27.730225,-7.9719 -27.730225,-17.8057 0,-9.8338 12.415245,-17.8057 27.730225,-17.8057 15.31498,0 27.730224,7.9719 27.730224,17.8057 z"
       id="path971" />
    <path
       transform="matrix(0.997770,0.000000,0.000000,0.935740,104.1760,-1529.014)"
       style="font-size:12px;fill:#e7da05;fill-opacity:1;fill-rule:evenodd;stroke:#000000;stroke-width:1pt"
       d="m 67.136333,1653.0359 c 0,9.8338 -12.415244,17.8057 -27.730224,17.8057 -15.31498,0 -27.730225,-7.9719 -27.730225,-17.8057 0,-9.8338 12.415245,-17.8057 27.730225,-17.8057 15.31498,0 27.730224,7.9719 27.730224,17.8057 z"
       id="path972" />
    <path
       transform="matrix(0.997770,0.000000,0.000000,0.935740,135.9942,-1529.014)"
       style="font-size:12px;fill:#3d0fa1;fill-opacity:1;fill-rule:evenodd;stroke:#000000;stroke-width:1pt"
       d="m 67.136333,1653.0359 c 0,9.8338 -12.415244,17.8057 -27.730224,17.8057 -15.31498,0 -27.730225,-7.9719 -27.730225,-17.8057 0,-9.8338 12.415245,-17.8057 27.730225,-17.8057 15.31498,0 27.730224,7.9719 27.730224,17.8057 z"
       id="path973" />
    <path
       transform="matrix(0.997770,0.000000,0.000000,0.935740,167.8130,-1529.014)"
       style="font-size:12px;fill:#6fe225;fill-opacity:0.74901997;fill-rule:evenodd;stroke:#000000;stroke-width:1pt"
       d="m 67.136333,1653.0359 c 0,9.8338 -12.415244,17.8057 -27.730224,17.8057 -15.31498,0 -27.730225,-7.9719 -27.730225,-17.8057 0,-9.8338 12.415245,-17.8057 27.730225,-17.8057 15.31498,0 27.730224,7.9719 27.730224,17.8057 z"
       id="path974" />
    <path
       transform="matrix(0.997770,0.000000,0.000000,0.935740,199.6311,-1529.014)"
       style="font-size:12px;fill:#ff3077;fill-opacity:1;fill-rule:evenodd;stroke:#000000;stroke-width:1pt"
       d="m 67.136333,1653.0359 c 0,9.8338 -12.415244,17.8057 -27.730224,17.8057 -15.31498,0 -27.730225,-7.9719 -27.730225,-17.8057 0,-9.8338 12.415245,-17.8057 27.730225,-17.8057 15.31498,0 27.730224,7.9719 27.730224,17.8057 z"
       id="path975" />
  </g>
</svg>
