<?xml version="1.0" encoding="UTF-8" standalone="no"?>
<!-- Created with Inkscape (http://www.inkscape.org/) -->
<svg
   xmlns:dc="http://purl.org/dc/elements/1.1/"
   xmlns:cc="http://web.resource.org/cc/"
   xmlns:rdf="http://www.w3.org/1999/02/22-rdf-syntax-ns#"
   xmlns:svg="http://www.w3.org/2000/svg"
   xmlns="http://www.w3.org/2000/svg"
   xmlns:sodipodi="http://sodipodi.sourceforge.net/DTD/sodipodi-0.dtd"
   xmlns:inkscape="http://www.inkscape.org/namespaces/inkscape"
   width="744.09448819"
   height="1052.3622047"
   id="svg2901"
   sodipodi:version="0.32"
   inkscape:version="0.41+cvs"
   sodipodi:docbase="/home/d/ink/tutu"
   sodipodi:docname="basic-f02.svg">
  <defs
     id="defs3" />
  <sodipodi:namedview
     id="base"
     pagecolor="#ffffff"
     bordercolor="#666666"
     borderopacity="1.0"
     inkscape:pageopacity="0.0"
     inkscape:pageshadow="2"
     inkscape:zoom="2.8000000"
     inkscape:cx="141.74057"
     inkscape:cy="994.73894"
     inkscape:document-units="px"
     inkscape:current-layer="layer1"
     inkscape:window-width="751"
     inkscape:window-height="513"
     inkscape:window-x="129"
     inkscape:window-y="430" />
  <metadata
     id="metadata4">
    <rdf:RDF
       id="RDF5">
      <cc:Work
         rdf:about=""
         id="Work6">
        <dc:format
           id="format7">image/svg+xml</dc:format>
        <dc:type
           id="type9"
           rdf:resource="http://purl.org/dc/dcmitype/StillImage" />
      </cc:Work>
    </rdf:RDF>
  </metadata>
  <g
     inkscape:label="Layer 1"
     inkscape:groupmode="layer"
     id="layer1">
    <path
       sodipodi:type="arc"
       style="font-size:12.000000;fill:#ff0000;fill-opacity:0.75000000;fill-rule:evenodd;stroke:#000000;stroke-width:1.0000000pt"
       id="path750"
       sodipodi:cx="17.934933"
       sodipodi:cy="659.92175"
       sodipodi:rx="9.7025042"
       sodipodi:ry="3.8221989"
       d="M 27.637437 659.92175 A 9.7025042 3.8221989 0 1 1  8.2324286,659.92175 A 9.7025042 3.8221989 0 1 1  27.637437 659.92175 z"
       transform="translate(2.775740,-646.0745)" />
    <path
       sodipodi:type="arc"
       style="font-size:12.000000;fill:#ff0000;fill-opacity:0.75000000;fill-rule:evenodd;stroke:#000000;stroke-width:1.0000000pt"
       id="path751"
       sodipodi:cx="25.873346"
       sodipodi:cy="681.67889"
       sodipodi:rx="5.2922754"
       sodipodi:ry="14.406750"
       d="M 31.165622 681.67889 A 5.2922754 14.406750 0 1 1  20.581071,681.67889 A 5.2922754 14.406750 0 1 1  31.165622 681.67889 z"
       transform="translate(2.775740,-646.0745)" />
    <path
       sodipodi:type="arc"
       style="font-size:12.000000;fill:#ff0000;fill-opacity:0.75000000;fill-rule:evenodd;stroke:#000000;stroke-width:1.0000000pt"
       id="path752"
       sodipodi:cx="41.162140"
       sodipodi:cy="663.44995"
       sodipodi:rx="9.9965200"
       sodipodi:ry="9.1144743"
       d="M 51.158660 663.44995 A 9.9965200 9.1144743 0 1 1  31.165620,663.44995 A 9.9965200 9.1144743 0 1 1  51.158660 663.44995 z"
       transform="translate(2.775740,-646.0745)" />
    <path
       sodipodi:type="arc"
       style="font-size:12.000000;fill:#ff0000;fill-opacity:0.75000000;fill-rule:evenodd;stroke:#000000;stroke-width:1.0000000pt"
       id="path753"
       sodipodi:cx="54.098812"
       sodipodi:cy="694.61554"
       sodipodi:rx="15.288795"
       sodipodi:ry="6.1743212"
       d="M 69.387608 694.61554 A 15.288795 6.1743212 0 1 1  38.810017,694.61554 A 15.288795 6.1743212 0 1 1  69.387608 694.61554 z"
       transform="translate(2.775740,-646.0745)" />
    <path
       sodipodi:type="arc"
       style="font-size:12.000000;fill:#ff0000;fill-opacity:0.75000000;fill-rule:evenodd;stroke:#000000;stroke-width:1.0000000pt"
       id="path754"
       sodipodi:cx="57.038967"
       sodipodi:cy="671.09436"
       sodipodi:rx="16.464857"
       sodipodi:ry="15.582810"
       d="M 73.503824 671.09436 A 16.464857 15.582810 0 1 1  40.574110,671.09436 A 16.464857 15.582810 0 1 1  73.503824 671.09436 z"
       transform="translate(2.775740,-646.0745)" />
    <path
       sodipodi:type="arc"
       style="font-size:12.000000;fill:#ff0000;fill-opacity:0.75000000;fill-rule:evenodd;stroke:#000000;stroke-width:1.0000000pt"
       id="path755"
       sodipodi:cx="80.560188"
       sodipodi:cy="672.85840"
       sodipodi:rx="9.9965200"
       sodipodi:ry="4.4102292"
       d="M 90.556708 672.85840 A 9.9965200 4.4102292 0 1 1  70.563668,672.85840 A 9.9965200 4.4102292 0 1 1  90.556708 672.85840 z"
       transform="translate(2.775740,-646.0745)" />
    <path
       sodipodi:type="spiral"
       style="font-size:12.000000;fill:none;fill-opacity:0.75000000;fill-rule:evenodd;stroke:#000000;stroke-width:1.0000000pt"
       id="path762"
       sodipodi:cx="178.76129"
       sodipodi:cy="683.14899"
       sodipodi:expansion="1.0000000"
       sodipodi:revolution="3.0000000"
       sodipodi:radius="15.535585"
       sodipodi:argument="-18.335104"
       sodipodi:t0="0.0000000"
       d="M 178.76129,683.14899 C 179.43940,683.53227 178.57919,684.25216 178.12426,684.27605 C 176.89141,684.34078 176.29157,682.90524 176.50718,681.87492 C 176.89284,680.03191 179.00433,679.24203 180.67239,679.76781 C 183.12034,680.53942 184.12361,683.40459 183.26952,685.69712 C 182.13117,688.75271 178.48869,689.97405 175.57612,688.78428 C 171.91095,687.28707 170.46972,682.85734 171.99894,679.32678 C 173.85103,675.05081 179.07314,673.38875 183.22053,675.25958 C 188.10809,677.46428 189.99154,683.48174 187.77776,688.24526 C 185.22185,693.74493 178.40716,695.85016 173.02799,693.29251 C 166.91583,690.38635 164.58856,682.77314 167.49071,676.77865 C 170.74648,670.05373 179.15910,667.50424 185.76866,670.75135 C 193.10654,674.35625 195.87840,683.56893 192.28599,690.79339"
       transform="translate(2.775740,-646.0745)" />
    <path
       sodipodi:type="spiral"
       style="font-size:12.000000;fill:none;fill-opacity:0.75000000;fill-rule:evenodd;stroke:#000000;stroke-width:1.0000000pt"
       id="path763"
       sodipodi:cx="205.81070"
       sodipodi:cy="671.38837"
       sodipodi:expansion="1.0000000"
       sodipodi:revolution="3.0000000"
       sodipodi:radius="16.818087"
       sodipodi:argument="-21.354641"
       sodipodi:t0="0.0000000"
       d="M 205.81070,671.38837 C 205.13259,670.88716 206.15177,670.22701 206.64374,670.26131 C 207.97697,670.35425 208.43229,671.97579 208.06482,673.05445 C 207.40750,674.98393 205.03460,675.55435 203.31157,674.76954 C 200.78296,673.61781 200.08259,670.40695 201.30246,668.05620 C 202.92837,664.92301 207.00318,664.09077 209.97591,665.75307 C 213.71680,667.84491 214.68154,672.79461 212.57305,676.38662 C 210.01940,680.73704 204.18919,681.83462 199.97940,679.27778 C 195.01831,676.26463 193.78767,669.55064 196.79423,664.72403 C 200.26542,659.15151 207.86528,657.78765 213.30808,661.24483 C 219.49255,665.17311 220.98974,673.66023 217.08129,679.71879 C 212.69660,686.51558 203.32122,688.14619 196.64723,683.78602 C 189.23783,678.94540 187.47374,668.68104 192.28599,661.39185"
       transform="translate(2.775740,-646.0745)" />
    <path
       sodipodi:type="spiral"
       style="font-size:12.000000;fill:none;fill-opacity:0.75000000;fill-rule:evenodd;stroke:#000000;stroke-width:1.0000000pt"
       id="path764"
       sodipodi:cx="245.20876"
       sodipodi:cy="663.15594"
       sodipodi:expansion="1.0000000"
       sodipodi:revolution="3.0000000"
       sodipodi:radius="35.095131"
       sodipodi:argument="-15.859339"
       sodipodi:t0="0.0000000"
       d="M 245.20876,663.15594 C 243.46926,663.42129 243.99287,660.94206 244.76773,660.26479 C 246.86756,658.42946 249.93635,660.14267 250.99106,662.27390 C 252.87768,666.08617 250.22882,670.43581 246.53182,671.82940 C 241.10633,673.87454 235.32592,670.18454 233.64415,664.92004 C 231.40263,657.90328 236.16922,650.65080 243.00364,648.70019 C 251.60406,646.24555 260.34573,652.10387 262.55566,660.50981 C 265.23218,670.69052 258.27435,680.93019 248.29592,683.39400 C 236.53668,686.29751 224.79385,678.23569 222.07955,666.68413 C 218.94579,653.34739 228.11444,640.09810 241.23955,637.13559 C 256.15313,633.76940 270.91112,644.04677 274.12026,658.74571 C 277.72043,675.23570 266.33299,691.50399 250.06001,694.95860 C 231.99391,698.79387 214.21416,686.29540 210.51495,668.44822"
       transform="translate(2.775740,-631.9013)" />
    <path
       sodipodi:type="spiral"
       style="font-size:12.000000;fill:none;fill-opacity:0.75000000;fill-rule:evenodd;stroke:#000000;stroke-width:1.0000000pt"
       id="path776"
       sodipodi:cx="216.98329"
       sodipodi:cy="669.62427"
       sodipodi:expansion="1.0000000"
       sodipodi:revolution="3.0000000"
       sodipodi:radius="13.422048"
       sodipodi:argument="-18.346712"
       sodipodi:t0="0.0000000"
       d="M 216.98329,669.62427 C 217.57295,669.94858 216.83704,670.57912 216.44426,670.60432 C 215.37986,670.67261 214.84726,669.43847 215.02319,668.54621 C 215.33788,666.95018 217.15407,666.24662 218.60038,666.68412 C 220.72289,667.32615 221.61834,669.79130 220.90349,671.78038 C 219.95071,674.43151 216.81624,675.52315 214.28815,674.52452 C 211.10680,673.26784 209.81731,669.45547 211.10299,666.39010 C 212.66012,662.67752 217.15481,661.18931 220.75649,662.76391 C 225.00095,664.61953 226.68841,669.79911 224.82370,673.93650 C 222.67081,678.71328 216.80473,680.60032 212.13203,678.44472 C 206.82262,675.99539 204.73575,669.44171 207.18279,664.23398 C 209.92799,658.39170 217.17006,656.10483 222.91261,658.84371 C 229.28792,661.88438 231.77492,669.81540 228.74390,676.09261"
       transform="translate(2.775740,-653.1611)" />
    <path
       transform="translate(16.42857,-45.00000)"
       d="M 103.57143,87.362183 L 89.167288,83.363007 L 77.706936,92.961601 L 77.059255,78.026636 L 64.389006,70.093323 L 78.392857,64.862183 L 82.022564,50.360532 L 91.325101,62.062474 L 106.23863,61.033274 L 97.984066,73.496612 L 103.57143,87.362183 z "
       inkscape:randomized="0.0000000"
       inkscape:rounded="0.0000000"
       inkscape:flatsided="false"
       sodipodi:arg2="1.3575959"
       sodipodi:arg1="0.72927738"
       sodipodi:r2="11.255667"
       sodipodi:r1="22.511335"
       sodipodi:cy="72.362183"
       sodipodi:cx="86.785713"
       sodipodi:sides="5"
       id="path1306"
       style="opacity:1.0000000;color:#000000;fill:#ffff00;fill-opacity:0.75000000;fill-rule:evenodd;stroke:#000000;stroke-width:1.0000000pt;stroke-linecap:butt;stroke-linejoin:miter;marker:none;marker-start:none;marker-mid:none;marker-end:none;stroke-miterlimit:4.0000000;stroke-dasharray:none;stroke-dashoffset:0.0000000;stroke-opacity:1.0000000;visibility:visible;display:inline;overflow:visible;font-family:sans-serif"
       sodipodi:type="star" />
    <path
       transform="translate(16.42857,-45.00000)"
       d="M 109.28572,85.933610 L 99.673657,78.247016 L 87.892402,81.807554 L 92.232497,70.290653 L 85.205616,60.186281 L 97.500003,60.755039 L 104.93841,50.949655 L 108.19666,62.818067 L 119.82073,66.862379 L 109.54005,73.628704 L 109.28572,85.933610 z "
       inkscape:randomized="0.0000000"
       inkscape:rounded="0.0000000"
       inkscape:flatsided="false"
       sodipodi:arg2="1.7613236"
       sodipodi:arg1="1.1330050"
       sodipodi:r2="9.2668076"
       sodipodi:r1="18.533615"
       sodipodi:cy="69.147896"
       sodipodi:cx="101.42857"
       sodipodi:sides="5"
       id="path1308"
       style="opacity:1.0000000;color:#000000;fill:#ffff00;fill-opacity:0.75000000;fill-rule:evenodd;stroke:#000000;stroke-width:1.0000000pt;stroke-linecap:butt;stroke-linejoin:miter;marker:none;marker-start:none;marker-mid:none;marker-end:none;stroke-miterlimit:4.0000000;stroke-dasharray:none;stroke-dashoffset:0.0000000;stroke-opacity:1.0000000;visibility:visible;display:inline;overflow:visible;font-family:sans-serif"
       sodipodi:type="star" />
    <path
       transform="translate(16.42857,-45.00000)"
       d="M 127.14286,79.862180 L 116.86250,78.323912 L 109.76721,85.920559 L 108.05339,75.668004 L 98.635983,71.267482 L 107.85714,66.469323 L 109.13215,56.153004 L 116.54496,63.440134 L 126.75036,61.464820 L 122.11058,70.766673 L 127.14286,79.862180 z "
       inkscape:randomized="0.0000000"
       inkscape:rounded="0.0000000"
       inkscape:flatsided="false"
       sodipodi:arg2="1.2353062"
       sodipodi:arg1="0.60698766"
       sodipodi:r2="7.8266454"
       sodipodi:r1="15.653291"
       sodipodi:cy="70.933609"
       sodipodi:cx="114.28571"
       sodipodi:sides="5"
       id="path1310"
       style="opacity:1.0000000;color:#000000;fill:#ffff00;fill-opacity:0.75000000;fill-rule:evenodd;stroke:#000000;stroke-width:1.0000000pt;stroke-linecap:butt;stroke-linejoin:miter;marker:none;marker-start:none;marker-mid:none;marker-end:none;stroke-miterlimit:4.0000000;stroke-dasharray:none;stroke-dashoffset:0.0000000;stroke-opacity:1.0000000;visibility:visible;display:inline;overflow:visible;font-family:sans-serif"
       sodipodi:type="star" />
    <path
       transform="translate(16.42857,-45.00000)"
       d="M 144.64285,71.290753 L 134.13330,73.039322 L 129.61570,82.688128 L 124.70509,73.233290 L 114.13251,71.918448 L 121.60713,64.326467 L 119.59052,53.865043 L 129.12071,58.627780 L 138.44694,53.477107 L 136.86230,64.012620 L 144.64285,71.290753 z "
       inkscape:randomized="0.0000000"
       inkscape:rounded="0.0000000"
       inkscape:flatsided="false"
       sodipodi:arg2="0.92190752"
       sodipodi:arg1="0.29358899"
       sodipodi:r2="8.0218134"
       sodipodi:r1="16.043627"
       sodipodi:cy="66.647896"
       sodipodi:cx="129.28571"
       sodipodi:sides="5"
       id="path1312"
       style="opacity:1.0000000;color:#000000;fill:#ffff00;fill-opacity:0.75000000;fill-rule:evenodd;stroke:#000000;stroke-width:1.0000000pt;stroke-linecap:butt;stroke-linejoin:miter;marker:none;marker-start:none;marker-mid:none;marker-end:none;stroke-miterlimit:4.0000000;stroke-dasharray:none;stroke-dashoffset:0.0000000;stroke-opacity:1.0000000;visibility:visible;display:inline;overflow:visible;font-family:sans-serif"
       sodipodi:type="star" />
    <path
       transform="translate(16.42857,-45.00000)"
       d="M 162.50000,66.647894 L 157.19688,66.620372 L 154.16778,70.973359 L 152.55520,65.921280 L 147.47922,64.385585 L 151.78572,61.290752 L 151.67769,55.988653 L 155.95183,59.128019 L 160.96104,57.386837 L 159.29611,62.421906 L 162.50000,66.647894 z "
       inkscape:randomized="0.0000000"
       inkscape:rounded="0.0000000"
       inkscape:flatsided="false"
       sodipodi:arg2="1.0919661"
       sodipodi:arg1="0.46364761"
       sodipodi:r2="3.9929783"
       sodipodi:r1="7.9859571"
       sodipodi:cy="63.076466"
       sodipodi:cx="155.35715"
       sodipodi:sides="5"
       id="path1314"
       style="opacity:1.0000000;color:#000000;fill:#ffff00;fill-opacity:0.75000000;fill-rule:evenodd;stroke:#000000;stroke-width:1.0000000pt;stroke-linecap:butt;stroke-linejoin:miter;marker:none;marker-start:none;marker-mid:none;marker-end:none;stroke-miterlimit:4.0000000;stroke-dasharray:none;stroke-dashoffset:0.0000000;stroke-opacity:1.0000000;visibility:visible;display:inline;overflow:visible;font-family:sans-serif"
       sodipodi:type="star" />
    <path
       transform="translate(16.42857,-45.00000)"
       d="M 180.00001,69.505041 L 176.29332,68.425150 L 173.30236,70.866421 L 173.18397,67.007450 L 169.93792,64.917268 L 173.57144,63.612184 L 174.55624,59.879109 L 176.92026,62.931494 L 180.77495,62.714508 L 178.60248,65.906070 L 180.00001,69.505041 z "
       inkscape:randomized="0.0000000"
       inkscape:rounded="0.0000000"
       inkscape:flatsided="false"
       sodipodi:arg2="1.3702658"
       sodipodi:arg1="0.74194727"
       sodipodi:r2="2.9069321"
       sodipodi:r1="5.8138647"
       sodipodi:cy="65.576469"
       sodipodi:cx="175.71429"
       sodipodi:sides="5"
       id="path1316"
       style="opacity:1.0000000;color:#000000;fill:#ffff00;fill-opacity:0.75000000;fill-rule:evenodd;stroke:#000000;stroke-width:1.0000000pt;stroke-linecap:butt;stroke-linejoin:miter;marker:none;marker-start:none;marker-mid:none;marker-end:none;stroke-miterlimit:4.0000000;stroke-dasharray:none;stroke-dashoffset:0.0000000;stroke-opacity:1.0000000;visibility:visible;display:inline;overflow:visible;font-family:sans-serif"
       sodipodi:type="star" />
  </g>
</svg>
