<?xml version="1.0" encoding="UTF-8" standalone="no"?>
<!-- Created with Inkscape (http://www.inkscape.org/) -->
<svg
   xmlns:dc="http://purl.org/dc/elements/1.1/"
   xmlns:cc="http://web.resource.org/cc/"
   xmlns:rdf="http://www.w3.org/1999/02/22-rdf-syntax-ns#"
   xmlns:svg="http://www.w3.org/2000/svg"
   xmlns="http://www.w3.org/2000/svg"
   xmlns:sodipodi="http://sodipodi.sourceforge.net/DTD/sodipodi-0.dtd"
   xmlns:inkscape="http://www.inkscape.org/namespaces/inkscape"
   sodipodi:docname="basic-f01.svg"
   sodipodi:docbase="/home/rejon/Documents/projects/inkscape-project/doc-docbook/ocal"
   inkscape:version="0.42+devel"
   sodipodi:version="0.32"
   id="svg2869"
   height="1052.3622047"
   width="744.09448819">
  <defs
     id="defs3" />
  <sodipodi:namedview
     inkscape:window-y="483"
     inkscape:window-x="0"
     inkscape:window-height="513"
     inkscape:window-width="751"
     inkscape:current-layer="layer1"
     inkscape:document-units="px"
     inkscape:cy="952.73650"
     inkscape:cx="185.15461"
     inkscape:zoom="0.98994949"
     inkscape:pageshadow="2"
     inkscape:pageopacity="0.0"
     borderopacity="1.0"
     bordercolor="#666666"
     pagecolor="#ffffff"
     id="base"
     showguides="true"
     inkscape:guide-bbox="true">
    <sodipodi:guide
       orientation="vertical"
       position="300.01531"
       id="guide1364" />
  </sodipodi:namedview>
  <metadata
     id="metadata4">
    <rdf:RDF>
      <cc:Work
         rdf:about="">
        <dc:format>image/svg+xml</dc:format>
        <dc:type
           rdf:resource="http://purl.org/dc/dcmitype/StillImage" />
      </cc:Work>
    </rdf:RDF>
  </metadata>
  <g
     id="layer1"
     inkscape:groupmode="layer"
     inkscape:label="Layer 1">
    <rect
       y="11.835085"
       x="8.2425785"
       height="21.105692"
       width="19.394419"
       id="rect824"
       style="font-size:12.000000;fill:#0000ff;fill-opacity:0.75000000;fill-rule:evenodd;stroke:#000000;stroke-width:1.2500000" />
    <rect
       y="7.2717309"
       x="37.904560"
       height="15.971874"
       width="23.387388"
       id="rect825"
       style="font-size:12.000000;fill:#0000ff;fill-opacity:0.75000000;fill-rule:evenodd;stroke:#000000;stroke-width:1.2500000" />
    <rect
       y="0.99707252"
       x="69.848328"
       height="48.486046"
       width="71.303009"
       id="rect826"
       style="font-size:12.000000;fill:#0000ff;fill-opacity:0.75000000;fill-rule:evenodd;stroke:#000000;stroke-width:1.2500000" />
    <rect
       y="2.7083151"
       x="108.63728"
       height="22.246540"
       width="55.331135"
       id="rect827"
       style="font-size:12.000000;fill:#0000ff;fill-opacity:0.75000000;fill-rule:evenodd;stroke:#000000;stroke-width:1.2500000" />
    <rect
       y="15.828066"
       x="122.32764"
       height="25.098660"
       width="39.929688"
       id="rect828"
       style="font-size:12.000000;fill:#0000ff;fill-opacity:0.75000000;fill-rule:evenodd;stroke:#000000;stroke-width:1.2500000" />
    <rect
       y="23.814028"
       x="152.56003"
       height="24.528236"
       width="35.366295"
       id="rect829"
       style="font-size:12.000000;fill:#0000ff;fill-opacity:0.75000000;fill-rule:evenodd;stroke:#000000;stroke-width:1.2500000" />
    <rect
       y="4.4196191"
       x="176.51784"
       height="28.521204"
       width="31.943748"
       id="rect830"
       style="font-size:12.000000;fill:#0000ff;fill-opacity:0.75000000;fill-rule:evenodd;stroke:#000000;stroke-width:1.2500000" />
    <rect
       y="41.052860"
       x="213.38797"
       height="3.5281835"
       width="8.8204584"
       id="rect742"
       style="font-size:12.000000;fill:#0000ff;fill-opacity:0.75000000;fill-rule:evenodd;stroke:#000000;stroke-width:1.0000000pt" />
    <rect
       y="28.116152"
       x="232.79292"
       height="4.1162143"
       width="7.0563669"
       id="rect743"
       style="font-size:12.000000;fill:#0000ff;fill-opacity:0.75000000;fill-rule:evenodd;stroke:#000000;stroke-width:1.0000000pt" />
    <rect
       y="20.471804"
       x="247.49321"
       height="1.7640917"
       width="4.1162143"
       id="rect744"
       style="font-size:12.000000;fill:#0000ff;fill-opacity:0.75000000;fill-rule:evenodd;stroke:#000000;stroke-width:1.0000000pt" />
    <rect
       y="17.531618"
       x="259.25388"
       height="1.1760612"
       width="2.9401529"
       id="rect745"
       style="font-size:12.000000;fill:#0000ff;fill-opacity:0.75000000;fill-rule:evenodd;stroke:#000000;stroke-width:1.0000000pt" />
  </g>
</svg>
