<?xml version="1.0" encoding="UTF-8" standalone="no"?>
<!-- Created with Inkscape (http://www.inkscape.org/) -->
<svg
   xmlns:xml="http://www.w3.org/XML/1998/namespace"
   xmlns:dc="http://purl.org/dc/elements/1.1/"
   xmlns:cc="http://web.resource.org/cc/"
   xmlns:rdf="http://www.w3.org/1999/02/22-rdf-syntax-ns#"
   xmlns:svg="http://www.w3.org/2000/svg"
   xmlns="http://www.w3.org/2000/svg"
   xmlns:sodipodi="http://sodipodi.sourceforge.net/DTD/sodipodi-0.dtd"
   xmlns:inkscape="http://www.inkscape.org/namespaces/inkscape"
   sodipodi:docname="advanced-f13.svg"
   sodipodi:docbase="/home/aaron/notes/inkdoc/advanced"
   inkscape:version="0.41+cvs"
   sodipodi:version="0.32"
   id="svg2148"
   height="1052.3622047"
   width="744.09448819">
  <defs
     id="defs3" />
  <sodipodi:namedview
     inkscape:window-y="21"
     inkscape:window-x="0"
     inkscape:window-height="513"
     inkscape:window-width="753"
     inkscape:current-layer="layer1"
     inkscape:document-units="px"
     inkscape:cy="860.09896"
     inkscape:cx="273.30137"
     inkscape:zoom="0.70000000"
     inkscape:pageshadow="2"
     inkscape:pageopacity="0.0"
     borderopacity="1.0"
     bordercolor="#666666"
     pagecolor="#ffffff"
     id="base" />
  <metadata
     id="metadata4">
    <rdf:RDF
       id="RDF5">
      <cc:Work
         id="Work6"
         rdf:about="">
        <dc:format
           id="format7">image/svg+xml</dc:format>
        <dc:type
           rdf:resource="http://purl.org/dc/dcmitype/StillImage"
           id="type9" />
      </cc:Work>
    </rdf:RDF>
  </metadata>
  <g
     id="layer1"
     inkscape:groupmode="layer"
     inkscape:label="Layer 1">
    <text
       sodipodi:insensitive="true"
       sodipodi:linespacing="110.00000%"
       id="text2796"
       y="4.2366295"
       x="43.765549"
       style="font-size:5.5761971;font-style:normal;font-weight:normal;line-height:110.00000%;writing-mode:lr-tb;text-anchor:start;fill:#000000;fill-opacity:1.0000000;stroke:none;stroke-width:3.0000000pt;stroke-linecap:butt;stroke-linejoin:miter;stroke-opacity:1.0000000;font-family:serif"
       xml:space="preserve"><tspan
         id="tspan2797"
         sodipodi:role="line"
         y="4.2366295"
         x="43.765549">Original</tspan></text>
    <text
       sodipodi:insensitive="true"
       sodipodi:linespacing="110.00000%"
       id="text2799"
       y="4.2366295"
       x="125.61612"
       style="font-size:5.5761971;font-style:normal;font-weight:normal;line-height:110.00000%;writing-mode:lr-tb;text-anchor:start;fill:#000000;fill-opacity:1.0000000;stroke:none;stroke-width:3.0000000pt;stroke-linecap:butt;stroke-linejoin:miter;stroke-opacity:1.0000000;font-family:serif"
       xml:space="preserve"><tspan
         id="tspan2800"
         sodipodi:role="line"
         y="4.2366295"
         x="125.61612">Slight simplification</tspan></text>
    <text
       sodipodi:insensitive="true"
       sodipodi:linespacing="110.00000%"
       id="text2802"
       y="4.2366295"
       x="213.13528"
       style="font-size:5.5761971;font-style:normal;font-weight:normal;line-height:110.00000%;writing-mode:lr-tb;text-anchor:start;fill:#000000;fill-opacity:1.0000000;stroke:none;stroke-width:3.0000000pt;stroke-linecap:butt;stroke-linejoin:miter;stroke-opacity:1.0000000;font-family:serif"
       xml:space="preserve"><tspan
         id="tspan2803"
         sodipodi:role="line"
         y="4.2366295"
         x="213.13528">Aggressive simplification</tspan></text>
    <path
       id="path2786"
       d="M 97.048300,92.194400 L 97.369804,101.83920 L 96.083791,105.91160 L 94.476274,106.55470 L 94.476274,110.41280 L 93.511766,110.30560 L 93.726104,115.12820 L 92.011421,115.34260 L 91.154079,125.95210 L 97.691309,130.13160 L 95.976625,132.81070 L 85.259853,130.88190 L 74.864590,132.81070 L 73.149906,130.13160 L 78.401124,126.80950 L 72.614069,125.63050 L 61.361460,127.98800 L 61.361460,126.59520 L 68.434527,121.23660 L 66.505510,102.37510 C 65.290940,102.16080 64.112099,101.83920 62.968977,101.41050 L 61.468626,85.335300 L 58.896606,84.906600 L 57.717760,81.584400 L 56.753251,81.798800 L 54.288392,114.80670 L 52.252208,115.34260 L 61.361460,121.23660 L 60.182616,124.23720 L 45.393475,121.02220 L 39.392083,122.41560 L 38.963412,127.13110 L 44.428967,132.06040 C 44.143186,132.34660 43.964572,132.73940 43.893130,133.23940 C 43.821682,133.73940 43.607349,133.98970 43.250121,133.98970 C 43.035788,133.98970 42.892898,133.95380 42.821450,133.88250 L 33.605028,132.27480 L 23.745603,133.98970 L 22.888261,132.06040 L 28.353811,127.34540 L 27.174970,115.12820 L 25.781786,115.12820 C 25.638896,113.91340 25.531729,112.69900 25.460286,111.48460 C 25.388839,110.34150 25.317396,109.16250 25.245949,107.94810 L 24.067107,107.09060 L 21.816581,103.01820 L 22.459590,91.229800 L 21.173577,91.229800 L 22.459590,83.513700 C 22.745371,82.656300 23.174042,82.013200 23.745603,81.584400 C 24.388607,81.155700 25.067337,80.834600 25.781786,80.620300 C 26.567685,80.405900 27.353579,80.227000 28.139478,80.084400 C 28.996820,79.941300 29.782714,79.727000 30.497166,79.441300 L 31.033003,81.798800 L 25.245949,83.192200 C 24.817278,83.549200 24.602945,83.977800 24.602945,84.478300 L 23.745603,88.871800 L 26.317628,88.871800 L 26.317628,87.264600 L 28.460983,87.264600 L 28.460983,93.587300 L 38.749079,93.587300 L 38.749079,87.264600 L 40.892433,87.264600 L 40.892433,88.871800 L 43.464459,88.871800 L 42.499945,84.156800 C 42.428503,83.799400 42.285613,83.549200 42.071275,83.406500 C 41.928384,83.263500 41.785494,83.120900 41.642604,82.977800 L 35.748383,81.584400 L 36.391392,79.441300 L 42.607117,81.155700 C 43.178678,81.441900 43.714516,81.941900 44.214629,82.656300 L 44.214629,75.690500 C 43.857406,76.261800 43.357287,76.762300 42.714283,77.190500 C 42.071275,77.547900 41.392547,77.833600 40.678095,78.048000 C 40.392315,76.904900 40.249425,75.797600 40.249425,74.725800 L 40.249425,73.439600 C 40.249425,72.939600 40.320872,72.368300 40.463763,71.725200 C 40.463763,71.010900 40.285148,70.582100 39.927925,70.439100 C 39.642145,70.296500 39.284916,70.224700 38.856245,70.224700 C 38.999136,70.582100 39.106302,70.975000 39.177750,71.403700 C 39.249193,71.761100 39.284916,72.189400 39.284916,72.689900 C 39.284916,74.475600 38.713355,76.012000 37.570233,77.297700 C 36.427110,78.512600 35.033931,79.119800 33.390695,79.119800 C 31.818902,79.119800 30.461442,78.512600 29.318319,77.297700 C 28.175202,76.012000 27.603641,74.475600 27.603641,72.689900 C 27.603641,71.689400 27.782250,70.867800 28.139478,70.224700 C 27.710807,70.224700 27.317860,70.296500 26.960632,70.439100 C 26.603409,70.582100 26.424795,70.939100 26.424795,71.510900 L 26.424795,71.725200 C 26.639128,72.939600 26.746299,73.904300 26.746299,74.618600 C 26.746299,75.619200 26.531961,76.762300 26.103290,78.048000 C 25.317396,77.833600 24.495778,77.440800 23.638436,76.869500 C 22.852537,76.297700 22.388143,75.583300 22.245252,74.725800 C 22.102362,74.154500 22.030919,73.725800 22.030919,73.439600 C 22.030919,72.082200 22.602481,70.939100 23.745603,70.010300 C 24.602945,69.510300 25.496005,69.260200 26.424795,69.260200 L 27.496469,69.367300 L 26.103290,36.788600 L 41.749775,32.501800 C 40.535205,31.787500 39.570697,30.751500 38.856245,29.394100 C 38.141794,28.036600 37.784571,26.536100 37.784571,24.892900 C 37.784571,22.392400 38.499022,20.320500 39.927925,18.677200 C 41.428271,16.962500 43.214397,16.105100 45.286309,16.105100 C 47.358216,16.105100 49.144342,16.962500 50.644692,18.677200 C 52.145038,20.320500 52.895213,22.392400 52.895213,24.892900 C 52.895213,26.536100 52.502266,28.036600 51.716367,29.394100 C 51.001916,30.751500 50.037407,31.787500 48.822842,32.501800 L 64.897993,36.788600 L 64.683660,42.253800 L 69.506206,41.075300 L 70.149210,43.432800 C 69.649097,43.647200 69.327592,44.004600 69.184702,44.504700 C 69.041812,44.933400 68.970364,45.433400 68.970364,46.004700 C 68.970364,46.790900 69.041812,47.576500 69.184702,48.362700 C 69.399035,49.148300 69.577649,49.684300 69.720539,49.969900 L 75.829098,49.969900 C 76.400659,48.326800 76.686440,46.969300 76.686440,45.897800 C 76.686440,44.968800 76.472102,44.290300 76.043432,43.861600 C 75.829098,43.647200 75.650484,43.504100 75.507594,43.432800 L 76.043432,41.075300 L 87.296041,43.432800 L 89.439395,65.295200 L 90.189571,65.295200 L 89.975233,67.974400 C 90.975465,69.331900 91.475580,70.760600 91.475580,72.261200 C 91.475580,72.975500 91.368412,73.582700 91.154079,74.082700 C 90.796851,75.011500 90.261013,75.833000 89.546562,76.547900 C 88.832110,77.190500 88.046216,77.691000 87.188874,78.048000 L 94.261941,79.977200 C 94.619165,80.191600 95.012116,80.441300 95.440784,80.727500 C 95.869454,81.013100 96.119515,81.477300 96.190958,82.120300 L 98.441479,92.194400 L 97.048300,92.194400 z M 44.214629,47.612400 L 38.320408,36.038300 C 36.748615,36.538300 35.141098,37.002900 33.497862,37.431700 C 31.926069,37.860400 30.318552,38.288600 28.675316,38.717400 L 29.854162,67.652900 C 30.211385,67.509800 30.532889,67.331300 30.818670,67.116900 C 31.175893,66.831300 31.533122,66.616900 31.890345,66.473900 L 31.890345,42.253800 L 34.355204,42.253800 L 34.355204,66.473900 C 35.283988,66.616900 36.069887,66.938500 36.712891,67.438500 C 37.427342,67.938500 37.963180,68.581600 38.320408,69.367300 C 38.606189,69.296000 39.106302,69.260200 39.820754,69.260200 C 40.535205,69.260200 41.035324,69.296000 41.321104,69.367300 L 44.214629,68.188800 L 44.214629,47.612400 z M 94.369108,83.835300 C 94.297665,83.406500 94.119051,83.013700 93.833271,82.656300 C 93.618933,82.227500 93.190262,81.941900 92.547258,81.798800 L 85.259853,79.977200 L 77.865286,81.798800 C 77.222277,81.941900 76.793607,82.191900 76.579274,82.549100 C 76.436383,82.834700 76.257769,83.263500 76.043432,83.835300 L 74.757424,89.836400 L 77.650948,89.836400 L 77.972453,85.871200 L 80.222974,86.085600 L 78.401124,106.87630 L 92.118587,107.94810 L 90.296737,86.085600 L 92.547258,85.871200 L 93.083095,89.836400 L 95.869454,89.836400 L 94.369108,83.835300 z M 57.396255,37.431700 C 55.753019,37.002900 54.109778,36.538300 52.466542,36.038300 L 46.572321,47.612400 L 46.572321,68.188800 L 55.788743,71.189300 L 58.253597,43.432800 L 62.004468,42.682600 L 62.325968,38.717400 L 57.396255,37.431700 z M 46.572321,70.975000 L 46.572321,114.80670 L 51.930705,112.98460 L 54.824230,73.868400 L 46.572321,70.975000 z M 71.328056,58.757800 C 70.327824,56.757200 69.256145,54.721300 68.113024,52.649400 C 67.041348,50.577600 66.505510,48.255500 66.505510,45.683600 C 66.505510,44.968800 66.541234,44.433400 66.612677,44.075900 C 66.469786,44.147200 66.076839,44.254400 65.433831,44.397500 C 64.862269,44.540500 64.219265,44.719000 63.504814,44.933400 C 62.861810,45.076000 62.254525,45.219000 61.682964,45.362100 C 61.111403,45.433400 60.754175,45.469300 60.611284,45.469300 L 57.824926,76.226400 L 61.147127,76.440700 L 62.540306,51.148900 L 65.005160,51.363300 L 63.611980,76.762300 C 64.826550,76.762300 66.076839,76.655100 67.362852,76.440700 C 68.648865,76.226400 69.827706,75.761700 70.899386,75.047400 C 69.613373,73.332500 68.970364,71.260600 68.970364,68.831800 C 68.970364,67.116900 69.220426,65.366600 69.720539,63.580500 C 70.220658,61.794300 70.756495,60.186700 71.328056,58.757800 z M 84.938353,45.469300 L 78.936961,44.290300 C 79.008409,44.575900 79.044127,44.861600 79.044127,45.147700 L 79.044127,45.790800 C 79.044127,47.005200 78.865518,48.184200 78.508290,49.327300 C 78.222509,50.398600 77.829562,51.470400 77.329444,52.542300 C 76.829330,53.542300 76.293493,54.578200 75.721932,55.650000 C 75.221813,56.650100 74.721700,57.686000 74.221581,58.757800 C 73.507130,60.329600 72.864126,61.972700 72.292565,63.687600 C 71.721004,65.330800 71.435223,67.009800 71.435223,68.724700 C 71.435223,69.724700 71.613837,70.867800 71.971060,72.154000 C 72.756959,73.868400 73.971524,75.047400 75.614764,75.690500 C 77.258001,76.261800 78.972685,76.619200 80.758811,76.762300 C 80.401588,76.333500 80.044360,75.833000 79.687136,75.261700 C 79.329908,74.689900 79.079851,74.118600 78.936961,73.546800 C 78.865518,73.261200 78.794071,73.011400 78.722628,72.797100 C 78.722628,72.582700 78.722628,72.332400 78.722628,72.046800 C 78.722628,71.403700 78.794071,70.796500 78.936961,70.224700 C 79.151299,69.653400 79.401356,69.117500 79.687136,68.617500 L 79.579968,65.830800 L 81.294648,65.616400 L 80.544478,51.363300 L 83.009332,51.363300 L 83.759507,65.295200 L 84.831182,65.081000 L 86.760203,65.081000 L 84.938353,45.469300 z M 79.687136,79.119800 C 78.472566,78.976700 77.258001,78.762300 76.043432,78.476700 C 74.900314,78.119700 73.864358,77.583800 72.935569,76.869500 C 71.506670,77.869500 69.970596,78.512600 68.327360,78.798200 C 66.755567,79.083900 65.148050,79.226900 63.504814,79.226900 L 65.219498,99.481700 L 72.614069,101.83920 L 73.149906,101.83920 L 73.149906,101.41050 L 73.578577,92.194400 C 73.364239,92.051300 73.114183,91.980000 72.828402,91.980000 L 72.078228,91.980000 L 74.221581,82.120300 C 74.364472,81.477300 74.614533,81.013100 74.971757,80.727500 C 75.400427,80.441300 75.793374,80.191600 76.150603,79.977200 L 79.687136,79.119800 z M 39.392083,111.91330 L 39.606421,108.05510 C 39.677863,106.76910 39.713587,105.51880 39.713587,104.30390 C 39.713587,102.87520 39.642145,101.44640 39.499254,100.01770 C 39.427807,98.588400 39.213474,97.230900 38.856245,95.945300 L 28.353811,95.945300 C 27.996588,97.302700 27.746531,98.695600 27.603641,100.12480 C 27.532193,101.48230 27.496469,102.87520 27.496469,104.30390 C 27.496469,105.73320 27.532193,107.16190 27.603641,108.59070 C 27.675084,110.01990 27.782250,111.41280 27.925140,112.77020 L 39.392083,112.77020 L 39.392083,111.91330 z M 78.936961,35.180900 C 78.722628,36.395800 78.151067,37.574300 77.222277,38.717400 C 76.364936,39.860500 75.328985,40.575300 74.114415,40.861000 C 73.828634,40.932300 73.399963,40.968200 72.828402,40.968200 C 70.899386,40.968200 69.256145,40.110700 67.898689,38.395800 C 67.541466,37.824500 67.255686,37.288600 67.041348,36.788600 C 66.827015,36.288600 66.684124,35.752700 66.612677,35.180900 L 65.219498,35.180900 L 65.219498,34.430600 C 65.219498,32.644900 65.576721,31.001300 66.291172,29.501200 C 67.005624,28.000700 68.148746,26.750400 69.720539,25.750400 C 70.292101,25.464200 70.935109,25.321700 71.649560,25.321700 C 72.364007,25.249900 73.078459,25.214500 73.792910,25.214500 C 75.436151,25.571400 76.686440,26.214500 77.543782,27.143300 C 78.472566,28.072000 79.115575,29.072500 79.472798,30.144300 C 79.901469,31.144400 80.151526,32.144400 80.222974,33.144900 C 80.294416,34.073700 80.330140,34.752100 80.330140,35.180900 L 78.936961,35.180900 z M 49.251513,22.749300 C 48.679952,22.392400 48.108391,22.106700 47.536830,21.892400 C 47.322492,21.820600 47.036711,21.785200 46.679488,21.785200 C 45.965036,21.785200 45.214861,21.963600 44.428967,22.321100 C 43.714516,22.678000 43.035788,23.035500 42.392779,23.392400 C 41.606885,23.821100 40.892433,24.321100 40.249425,24.892900 L 40.249425,25.214500 C 40.392315,26.428900 40.749543,27.607900 41.321104,28.751000 C 41.964108,29.822800 42.892898,30.608500 44.107463,31.108500 C 44.393243,31.180300 44.786190,31.215600 45.286309,31.215600 C 46.500874,31.215600 47.536830,30.786900 48.394171,29.930000 C 49.680184,28.572500 50.323188,26.928900 50.323188,25.000100 C 50.323188,24.642700 50.251745,24.106800 50.108855,23.392400 L 49.251513,22.749300 z M 89.117891,72.046800 C 89.117891,70.475000 88.617777,69.403100 87.617545,68.831800 L 85.045520,67.867200 L 82.044824,69.153300 C 81.687600,69.581600 81.401820,70.046200 81.187482,70.546200 C 80.973149,70.975000 80.865977,71.475000 80.865977,72.046800 C 80.865977,73.261200 81.294648,74.261700 82.151990,75.047400 C 83.009332,75.761700 83.973840,76.119200 85.045520,76.119200 C 86.188642,76.119200 87.153150,75.761700 87.939045,75.047400 C 88.724944,74.261700 89.117891,73.261200 89.117891,72.046800 z M 45.286309,34.002400 L 40.892433,35.502400 L 45.393475,44.290300 L 50.001684,35.502400 L 45.286309,34.002400 z M 37.034395,72.904200 C 37.034395,72.618100 36.998672,72.296500 36.927229,71.939600 C 36.855781,71.582200 36.748615,71.332400 36.605725,71.189300 L 35.534050,70.760600 C 35.176822,70.617500 34.819598,70.510600 34.462370,70.439100 C 34.105147,70.367800 33.747919,70.331900 33.390695,70.331900 C 33.033467,70.331900 32.676244,70.367800 32.319016,70.439100 C 31.961792,70.510600 31.604564,70.617500 31.247341,70.760600 C 30.890113,70.903700 30.497166,71.046300 30.068495,71.189300 C 29.925604,71.903700 29.854162,72.475500 29.854162,72.904200 C 29.854162,73.975600 30.175661,74.904300 30.818670,75.690500 C 31.533122,76.476100 32.390463,76.869500 33.390695,76.869500 C 34.390927,76.869500 35.248269,76.476100 35.962721,75.690500 C 36.677170,74.904300 37.034395,73.975600 37.034395,72.904200 z M 76.043432,31.108500 C 74.900314,31.965900 73.721468,32.752100 72.506898,33.466500 C 71.363780,34.109500 70.184934,34.609600 68.970364,34.966500 C 69.184702,35.680900 69.470483,36.288600 69.827706,36.788600 C 70.184934,37.217300 70.577881,37.610100 71.006552,37.967600 C 71.506670,38.324500 72.113951,38.503000 72.828402,38.503000 L 73.042740,38.503000 C 74.328753,38.360400 75.257537,37.646000 75.829098,36.359900 C 76.257769,35.645500 76.472102,34.752100 76.472102,33.680800 C 76.472102,33.252100 76.436383,32.823400 76.364936,32.394600 C 76.293493,31.894600 76.186322,31.465900 76.043432,31.108500 z M 71.756727,104.19700 L 68.970364,103.33980 L 70.899386,121.45090 L 71.756727,121.66530 L 71.756727,104.19700 z M 34.676708,115.12820 L 34.676708,127.34540 L 36.712891,127.34540 L 36.712891,127.13110 L 37.784571,115.12820 L 34.676708,115.12820 z M 32.426187,115.12820 L 29.425491,115.12820 L 30.604332,127.34540 L 32.426187,127.34540 L 32.426187,115.12820 z M 84.081012,115.34260 L 80.758811,115.34260 L 81.723319,125.41620 L 84.188178,125.41620 L 84.081012,115.34260 z M 86.438699,115.34260 L 86.438699,125.41620 L 88.903558,125.41620 L 89.760900,115.34260 L 86.438699,115.34260 z M 76.150603,106.55470 L 74.435919,105.91160 L 74.221581,104.51830 L 74.221581,121.66530 L 74.757424,121.45090 L 76.150603,108.91220 L 76.150603,106.55470 z M 44.107463,105.37570 L 43.035788,107.09060 L 41.856942,107.73370 L 41.428271,113.94920 C 41.642604,114.02050 41.892665,114.09230 42.178446,114.16360 C 42.392779,114.23490 42.678560,114.30670 43.035788,114.37800 C 43.393011,114.52100 43.785958,114.66360 44.214629,114.80670 L 44.107463,105.37570 z M 24.710111,91.229800 L 24.067107,102.37510 L 25.245949,104.73260 L 25.245949,103.33980 C 25.245949,101.48230 25.388839,99.731500 25.674619,98.088400 C 26.031848,96.445300 26.210457,94.695000 26.210457,92.837000 L 26.103290,91.229800 L 24.710111,91.229800 z M 84.188178,111.16300 C 84.188178,110.59120 84.152454,110.01990 84.081012,109.44810 L 79.579968,109.23380 L 79.365632,112.98460 L 84.188178,112.98460 L 84.188178,111.16300 z M 42.392779,91.229800 L 41.106766,91.229800 C 41.035324,91.586700 40.999600,91.908300 40.999600,92.194400 L 40.999600,92.944200 L 41.964108,103.12540 L 41.856942,104.73260 L 43.035788,102.58950 L 42.392779,91.229800 z M 94.797779,92.194400 L 93.190262,92.194400 L 94.154775,104.19700 L 94.261941,104.30390 L 94.369108,104.19700 L 95.333616,101.41050 L 94.797779,92.194400 z M 75.829098,92.194400 L 75.400427,101.41050 L 76.150603,104.19700 C 76.293493,104.19700 76.364936,104.23260 76.364936,104.30390 L 76.472102,104.30390 L 76.579274,104.19700 L 77.329444,92.194400 L 75.829098,92.194400 z M 91.154079,110.09120 C 90.368180,110.09120 89.582286,110.05530 88.796386,109.98400 C 88.010492,109.91270 87.224597,109.80560 86.438699,109.66250 L 86.438699,112.98460 L 91.368412,112.98460 L 91.154079,110.09120 z M 78.508290,115.34260 L 77.972453,115.34260 L 77.329444,121.02220 L 79.151299,122.20120 L 78.508290,115.34260 z M 60.825622,79.119800 L 59.110939,78.798200 L 60.611284,82.763400 L 61.254293,82.977800 L 60.825622,79.119800 z "
       style="stroke-width:1.0000000pt" />
    <path
       id="path2789"
       d="M 191.82675,92.194600 C 193.27873,99.240900 191.06057,105.28820 188.35759,111.16630 C 189.14106,115.32880 185.04548,117.77900 186.20293,122.60560 C 182.89647,127.89360 197.88695,129.64750 189.35767,132.70080 C 184.65301,131.68480 179.70985,130.14090 174.94497,131.82670 C 172.29321,133.54820 165.76746,132.31410 169.62203,128.87070 C 177.03209,126.17720 165.88335,124.89600 163.26931,126.46300 C 160.93572,127.50760 152.88408,128.81270 158.20367,125.03170 C 166.22559,122.02360 161.67185,113.54640 161.76620,107.09040 C 161.85638,103.75950 161.39897,102.15130 158.23917,101.44400 C 156.67946,96.785900 157.13644,91.592600 156.37567,86.713300 C 156.25959,84.644500 152.08802,84.930200 152.49619,81.584200 C 149.98059,85.613200 151.43367,91.812100 150.41990,96.687300 C 149.96888,102.72700 149.51787,108.76680 149.06685,114.80660 C 144.29609,117.02840 159.15210,119.24420 155.28285,123.42920 C 150.97579,124.72020 145.99321,121.53290 141.35975,121.32710 C 135.67965,119.43360 130.38692,126.26660 136.55520,129.71710 C 141.28405,132.13040 137.45876,135.20640 133.78607,133.23640 C 128.67675,130.52790 121.41140,135.54820 117.83898,132.56690 C 120.95801,129.25260 124.97471,126.24720 122.50743,120.86950 C 122.40652,115.70480 119.69043,112.86410 119.65305,107.54990 C 113.99418,103.77520 118.64067,95.232100 116.49089,91.189400 C 115.73375,86.976200 117.10840,80.282600 122.77549,79.914500 C 129.17818,80.264900 122.72641,83.146000 119.95476,83.452300 C 117.72812,86.577900 118.88432,91.302200 122.44916,87.264500 C 123.61028,90.654400 122.64044,95.620200 128.65193,93.587100 C 134.34997,95.486900 133.23748,90.653800 134.09949,87.273600 C 135.80415,88.554800 139.15908,90.218900 137.72219,86.170400 C 139.11604,81.076700 127.80594,83.212300 131.81558,79.687000 C 134.99823,79.272700 140.50206,85.098800 138.96131,78.843000 C 140.86617,72.954800 133.72384,80.892100 135.05467,75.536200 C 135.98111,72.509200 133.46563,68.056000 134.06199,73.606600 C 133.88025,82.832300 118.28548,78.009700 122.91792,70.224700 C 119.28740,71.132100 123.42063,81.547700 117.63721,76.122200 C 113.49389,69.957200 125.55093,69.996400 122.03283,63.706500 C 121.64912,54.733900 121.26542,45.761100 120.88172,36.788600 C 125.46577,35.169200 133.48494,34.060900 135.92846,32.123500 C 129.64936,27.869600 132.62058,15.405100 140.76970,16.148700 C 150.02640,17.172800 147.48002,29.301300 144.99442,32.952300 C 149.56041,34.802900 157.51573,34.417700 159.68799,38.235900 C 157.55241,43.755600 162.59052,40.493200 164.72853,42.071700 C 162.10761,46.389100 164.73114,52.282800 170.16607,49.824900 C 173.27228,46.657100 167.60088,38.534200 175.12606,41.976800 C 180.86786,41.868100 183.43087,44.609300 182.74427,50.264800 C 183.44922,55.532900 183.41387,60.997500 184.59603,66.138700 C 187.08982,70.315900 186.21204,75.306100 182.88924,78.231800 C 189.14193,78.483800 192.50124,82.817600 192.48659,88.912000 C 192.21513,90.238100 194.74593,92.936400 191.82675,92.194600 z M 138.99309,47.612200 C 136.05195,44.442300 135.63083,35.184500 130.73357,36.851800 C 125.26054,36.586100 121.77499,40.249300 123.73366,45.587800 C 124.03328,52.942600 124.33295,60.297600 124.63257,67.652700 C 129.17427,63.132300 125.45182,54.260800 126.66877,48.025400 C 125.35124,45.065200 128.16539,38.902800 129.21252,44.349500 C 129.74492,51.791900 127.73348,60.764700 130.24660,67.232700 C 134.18398,70.910600 141.43330,69.236900 138.99309,62.790900 C 138.99309,57.731100 138.99309,52.671900 138.99309,47.612200 z M 189.14755,83.835100 C 184.96966,78.978900 175.31586,79.195400 170.91634,83.577700 C 169.48661,85.947500 169.23217,92.891800 172.81942,88.629800 C 170.98414,84.602200 177.08778,85.823600 174.72144,89.280600 C 174.80532,94.903600 172.39842,102.63670 174.03688,106.94340 C 177.86865,106.40810 185.39183,109.54450 186.78316,106.58110 C 186.21385,99.749700 185.64448,92.917600 185.07517,86.085600 C 188.56831,84.145200 187.41962,93.477700 190.43538,88.835700 C 190.19224,87.137500 189.44396,85.538200 189.14755,83.835100 z M 152.17471,37.431900 C 145.26687,33.293700 142.87096,44.915800 141.35072,49.532300 C 142.09942,55.611800 139.84060,63.873900 142.50281,68.563900 C 146.33075,69.524600 152.20306,73.580400 150.95229,66.852500 C 151.64556,59.045500 152.33879,51.239400 153.03201,43.432700 C 158.94607,43.453000 158.64660,37.435500 152.17471,37.431900 z M 141.35072,70.975200 C 141.35072,85.585700 141.35072,100.19610 141.35072,114.80660 C 149.76154,114.46750 146.40697,104.71710 147.73652,99.096000 C 148.35856,90.687200 148.98060,82.277500 149.60264,73.868500 C 146.85202,72.904400 144.10140,71.939800 141.35072,70.975200 z M 166.10650,58.757700 C 163.11194,54.564000 161.31297,47.856300 160.66164,44.187200 C 153.12463,44.039100 155.22935,52.315800 154.32085,57.267600 C 153.74835,63.586800 153.17587,69.906600 152.60338,76.226300 C 158.57294,77.635500 155.33343,69.135900 156.51435,65.751800 C 156.78248,60.884100 157.05059,56.016600 157.31872,51.148800 C 162.26609,51.435100 158.30968,59.094200 159.17092,62.532600 C 158.91078,67.275400 158.65058,72.018700 158.39043,76.762300 C 163.24238,77.746600 166.92671,74.157400 163.78996,69.795800 C 163.49860,65.978600 164.79033,62.277200 166.10650,58.757700 z M 179.71679,45.469500 C 176.38849,44.840000 172.53560,42.946900 173.55866,47.939000 C 172.04092,55.717400 165.18392,62.062300 166.24351,70.384300 C 166.00773,75.192500 178.46782,80.169900 173.69530,73.597300 C 173.32048,69.371300 174.96086,66.391100 176.01607,63.563900 C 176.55014,59.821300 173.45275,52.401000 176.98963,51.236600 C 180.08800,54.788100 175.82540,63.951300 180.16912,65.211800 C 183.27317,61.253100 179.40652,53.818500 180.00559,48.578200 C 179.90933,47.542200 179.81306,46.505700 179.71679,45.469500 z M 174.46555,79.119600 C 169.45812,76.847400 164.26374,78.139000 159.34611,78.887200 C 157.28270,84.164600 159.96169,90.860100 159.76203,96.694700 C 158.49123,100.57860 167.30824,102.52700 167.97063,100.63350 C 168.99164,93.867400 165.97000,90.218000 168.64545,83.550700 C 168.94043,80.191100 171.69537,79.592600 174.46555,79.119600 z M 134.17052,111.91320 C 133.52682,106.78250 137.57797,94.929000 129.69624,95.945300 C 125.90500,95.745100 121.62189,95.042700 122.51517,100.23740 C 121.76189,105.37130 120.78235,115.33530 128.94447,112.77020 C 129.92751,112.19100 134.83419,113.89690 134.17052,111.91320 z M 173.71537,35.181000 C 172.89610,43.009700 162.09444,41.841700 160.42253,35.182700 C 158.47632,29.577900 165.24114,22.293700 170.79600,26.092100 C 173.30349,27.163100 177.33423,34.294500 173.71537,35.181000 z M 144.02998,22.749300 C 137.10388,17.586900 131.14383,31.388000 140.47315,31.266800 C 143.97006,30.776100 146.81129,25.521800 144.02998,22.749300 z M 183.89632,72.046800 C 183.27105,63.390100 170.32402,71.328900 178.06550,75.769500 C 180.60960,77.373300 184.10354,74.935000 183.89632,72.046800 z M 140.06475,34.002600 C 132.53520,34.342900 138.79450,40.556300 140.17191,44.290100 C 141.39279,39.720500 148.83645,34.666600 140.06475,34.002600 z M 131.81283,72.904300 C 130.01890,65.793800 119.42629,75.053900 127.69910,76.857900 C 129.90244,77.168900 131.92109,75.057900 131.81283,72.904300 z M 170.82187,31.108300 C 167.40830,32.483700 160.37108,37.442000 167.99801,38.482500 C 171.15854,37.880000 171.83060,33.647400 170.82187,31.108300 z M 166.53516,104.19700 C 160.95110,102.16640 165.78420,111.99220 164.99062,114.99910 C 164.76135,117.48700 166.48445,124.80550 166.54812,118.63040 C 166.47056,113.83830 166.57668,109.00630 166.53516,104.19700 z M 129.45514,115.12800 C 130.31909,118.85890 127.62377,126.15100 131.00157,127.40790 C 132.02569,123.91170 132.96551,117.63270 131.78604,115.12800 C 131.00907,115.12800 130.23211,115.12800 129.45514,115.12800 z M 127.20463,115.12800 C 121.13272,114.65300 126.31808,123.77630 125.38279,127.34550 C 129.46465,126.83510 126.08458,118.36680 127.20463,115.12800 z M 178.85944,115.34260 C 173.08247,113.92800 176.24992,123.94720 177.48163,125.62050 C 180.70606,124.76580 178.07630,117.90030 178.85944,115.34260 z M 181.21715,115.34260 C 181.44584,117.93020 179.93289,129.03240 183.85369,124.07710 C 183.15138,120.83690 187.16745,113.55360 181.21715,115.34260 z M 170.92901,106.55490 C 166.87157,103.02750 169.95614,112.86650 169.00000,115.34760 C 168.64847,118.59060 169.32210,124.44640 169.91328,118.09740 C 170.16524,114.25070 171.05300,110.43110 170.92901,106.55490 z M 138.88590,105.37550 C 135.95468,107.11030 134.54009,115.72680 138.98464,113.93180 C 138.94891,111.07960 138.91917,108.22740 138.88590,105.37550 z M 119.48856,91.229900 C 119.76752,95.444100 117.80937,100.25910 119.82075,104.07110 C 119.27204,100.67270 123.03682,92.430300 119.48856,91.229900 z M 178.96663,111.16310 C 178.25259,105.27330 169.82393,113.11960 176.65586,113.08450 C 178.36108,112.94140 179.42119,113.48970 178.96663,111.16310 z M 137.17120,91.229900 C 133.76987,93.865300 137.78420,100.54440 136.63539,104.73260 C 139.07433,100.77440 136.79131,95.615000 137.17120,91.229900 z M 189.57618,92.194600 C 186.26237,93.034700 189.26844,103.07650 189.36996,103.62440 C 190.86147,99.952300 189.43789,95.993500 189.57618,92.194600 z M 170.60752,92.194600 C 170.73469,95.266700 169.21381,103.64250 171.44286,103.25990 C 170.70517,100.17860 173.91310,92.685300 170.60752,92.194600 z M 185.93252,110.09100 C 179.80041,107.33040 180.34229,115.59750 185.98586,112.72350 C 186.61117,111.90860 185.58391,110.97140 185.93252,110.09100 z M 173.28671,115.34260 C 170.27455,117.70170 174.38180,125.65800 173.61616,118.92290 C 173.51699,117.72790 173.39567,116.53590 173.28671,115.34260 z M 155.60406,79.119600 C 151.71010,77.339800 157.28608,86.648100 155.79473,80.765600 C 155.74802,80.526500 155.62089,79.429200 155.60406,79.119600 L 155.60406,79.119600 z "
       style="stroke-width:1.0000000pt" />
    <path
       id="path2795"
       d="M 286.60515,92.194600 C 288.33969,102.43690 282.83765,112.42730 279.81469,121.57450 C 282.57748,125.99710 289.09559,134.20990 278.74932,131.21450 C 273.09723,130.90460 262.38338,135.03060 264.69719,126.61030 C 261.85864,123.42880 250.34632,131.06860 253.91623,123.77000 C 261.62125,117.22830 256.25680,105.92750 252.55927,98.541400 C 251.93542,94.312400 251.34948,80.956500 246.41477,84.824000 C 244.70765,93.819100 245.44497,103.09270 243.94178,112.13900 C 242.65332,116.38570 254.92391,124.72850 244.65438,123.14850 C 237.67371,118.71410 223.54259,121.92520 232.07256,131.49350 C 229.92520,134.88990 221.46131,131.85640 216.77246,133.16160 C 212.09284,130.13840 221.66149,121.67100 216.52117,115.99970 C 212.81103,106.28370 209.84207,95.669200 211.73363,85.309100 C 211.80400,78.762400 223.51330,80.462400 214.95992,83.638600 C 212.22650,89.684000 224.84253,98.646700 229.35394,90.479500 C 228.74257,86.728100 235.49273,87.906500 230.47334,83.784300 C 222.78464,78.695000 235.73225,83.634900 233.21449,77.581800 C 228.46129,78.670400 229.62395,68.419600 228.20200,76.561700 C 224.03835,84.510400 215.54191,68.889600 216.06000,75.244400 C 206.41070,78.185000 220.75652,64.403500 217.36646,58.765300 C 217.57353,51.189400 211.35855,39.967300 220.09306,35.222300 C 227.69667,36.475800 230.88101,29.925900 227.05606,24.142600 C 226.90688,15.523300 241.70891,13.008900 241.73507,22.771400 C 239.33995,30.333300 243.24987,36.301100 251.31406,36.139200 C 258.07381,37.946600 257.53302,54.526100 265.53648,48.174200 C 264.90688,36.131700 279.50668,42.814700 278.27399,51.109700 C 276.31833,59.044700 281.66594,66.512200 280.01006,74.406600 C 278.11160,80.420700 292.29233,84.137200 287.27514,92.238400 C 287.05182,92.224100 286.60515,92.194600 286.60515,92.194600 z M 233.77147,47.612200 C 233.68884,40.461900 221.88699,31.411300 218.77340,41.399000 C 217.59121,49.434400 219.69601,57.577400 219.35741,65.680000 C 223.37193,65.627700 221.02297,52.761400 220.99006,47.723800 C 223.69193,37.472900 225.48498,55.855400 223.29080,59.992300 C 220.26724,70.583900 238.13280,70.941200 234.26784,60.196900 C 233.65229,56.036200 233.43098,51.808300 233.77147,47.612200 z M 283.92594,83.835100 C 279.60028,75.466500 260.21635,82.476800 266.99369,88.563600 C 272.77020,85.520800 266.08722,98.889800 268.52629,102.46240 C 270.75064,112.85840 285.52943,107.79300 281.38009,97.977000 C 279.12408,93.573600 279.51203,84.387000 284.83402,88.951600 C 285.09922,87.181300 284.43066,85.487200 283.92594,83.835100 z M 246.95310,37.431900 C 238.09672,35.595200 236.16204,46.952600 236.25611,53.440100 C 233.39085,59.439300 237.41187,75.379300 245.27844,67.778900 C 247.21801,59.929700 246.58096,51.502400 247.81045,43.432700 C 253.78331,44.861100 251.88684,35.492200 246.95310,37.431900 z M 236.12918,70.975200 C 236.12917,85.585700 236.12917,100.19610 236.12917,114.80660 C 244.67586,112.69430 241.90837,102.13740 242.48589,95.688600 C 241.50307,87.939500 249.09239,75.654600 239.25483,71.796200 C 238.74162,71.648200 236.65788,71.100800 236.12918,70.975200 L 236.12918,70.975200 z M 260.88495,58.757700 C 258.52954,54.856300 254.69946,39.578900 249.98156,49.419900 C 248.91449,57.404100 248.41539,65.534000 247.87968,73.571900 C 253.81118,74.640100 250.26531,61.524400 251.38405,56.700400 C 253.91945,47.064800 255.90914,61.180300 253.67220,64.648700 C 250.44689,69.690300 256.49304,82.410900 259.31100,71.651200 C 260.35065,67.285700 257.22634,62.454900 260.88495,58.757700 z M 274.49524,45.469500 C 264.98154,43.403900 267.31930,56.750000 262.60971,61.419900 C 256.58261,66.136800 264.90334,81.964000 269.09242,72.540500 C 270.32508,66.278900 269.33701,58.529700 271.98687,53.307600 C 273.34427,56.045400 274.03445,67.895700 275.92420,59.276800 C 276.07677,54.615000 273.98122,50.145400 274.49524,45.469500 z M 269.24400,79.119600 C 262.80151,75.516900 251.35986,77.864200 253.40712,87.217200 C 250.66104,93.616300 259.91340,107.41240 263.07578,96.179700 C 262.28598,90.109600 260.52480,80.108900 269.24400,79.119600 z M 228.94897,111.91320 C 231.26141,105.36080 228.67132,90.611400 219.13068,97.034100 C 212.14496,103.60950 219.01085,118.93050 228.94897,111.91320 z M 268.49382,35.181000 C 267.77067,43.663800 253.68521,40.645700 254.51848,32.875000 C 254.20444,23.172900 269.77914,23.046200 269.70846,32.600200 C 269.58462,33.040400 268.77491,34.761000 268.49382,35.181000 L 268.49382,35.181000 z M 238.80838,22.749300 C 230.30256,15.420000 229.17577,38.074700 238.36292,29.442600 C 239.97499,27.683300 240.67378,24.603000 238.80838,22.749300 z M 278.67475,72.046800 C 276.93261,61.460900 264.85212,78.988800 276.23078,75.907700 C 277.69304,75.242500 278.78698,73.692500 278.67475,72.046800 z M 234.84318,34.002600 C 225.95022,34.856800 237.94280,48.817000 238.63112,38.096000 C 239.81463,35.834700 237.17834,33.056600 234.84318,34.002600 z M 226.59126,72.904300 C 223.57162,64.399700 216.48628,81.208600 225.24737,75.945100 C 226.14400,75.213800 226.60715,74.043800 226.59126,72.904300 z M 265.60028,31.108300 C 256.93600,29.582600 263.82938,44.344600 266.01340,34.190600 C 265.99906,33.669600 265.72367,31.614900 265.60028,31.108300 L 265.60028,31.108300 z M 261.31359,104.19700 C 254.40895,105.99720 262.68641,124.77320 261.33765,112.69300 C 261.32436,109.86120 261.26632,107.02900 261.31359,104.19700 z M 224.23358,115.12800 C 222.52079,119.57530 225.65572,129.94800 227.22799,120.27110 C 227.70931,118.09490 227.06667,115.03440 224.23358,115.12800 z M 221.98307,115.12800 C 214.25187,115.07680 222.72238,131.84840 222.04339,120.66380 C 221.78498,118.83960 221.47024,116.94680 221.98307,115.12800 z M 273.63788,115.34260 C 265.20617,113.90280 274.69451,130.58080 273.67633,119.29760 C 273.52221,117.98840 273.39090,116.65130 273.63788,115.34260 z M 275.99560,115.34260 C 272.74371,120.01090 279.49910,127.63980 279.26393,118.78670 C 279.68005,116.82750 278.51865,113.66070 275.99560,115.34260 z M 265.70746,106.55490 C 260.24058,108.17390 265.20482,124.70270 265.14145,114.14760 C 265.45041,111.62830 265.71178,109.09620 265.70746,106.55490 z M 233.66436,105.37550 C 227.40554,105.66060 234.44001,118.08940 233.70479,108.88900 C 233.68177,107.71830 233.68518,106.54690 233.66436,105.37550 z M 214.26700,91.229900 C 212.97373,95.905600 214.44536,106.25410 215.79141,96.112200 C 216.09919,94.375100 215.75681,92.363500 214.26700,91.229900 z M 273.74506,111.16310 C 270.65228,104.80830 268.34084,117.91140 273.58882,112.45110 C 273.64088,112.02170 273.74506,111.16310 273.74506,111.16310 z M 231.94963,91.229900 C 227.41862,95.312900 233.90730,106.95460 232.24256,96.307500 C 232.03325,94.625000 231.82029,92.928200 231.94963,91.229900 z M 284.35462,92.194600 C 279.00642,94.357300 286.42845,106.18730 284.60195,96.350700 C 284.45053,94.971100 284.31529,93.584500 284.35462,92.194600 z M 265.38596,92.194600 C 264.07091,95.020800 265.61274,105.81710 266.81194,97.250400 C 267.17376,95.523500 267.08742,93.214200 265.38596,92.194600 z M 280.71097,110.09100 C 274.15001,106.06010 279.79739,119.14380 280.71097,110.09100 z M 268.06514,115.34260 C 264.68513,118.59550 270.66418,122.84230 268.06514,115.34260 z M 250.38250,79.119600 C 246.75668,81.285900 254.21880,82.993800 250.38250,79.119600 z "
       style="stroke-width:1.0000000pt" />
  </g>
</svg>
