<?xml version="1.0" encoding="UTF-8" standalone="no"?>
<!-- Created with Inkscape (http://www.inkscape.org/) -->
<svg
   xmlns:dc="http://purl.org/dc/elements/1.1/"
   xmlns:cc="http://web.resource.org/cc/"
   xmlns:rdf="http://www.w3.org/1999/02/22-rdf-syntax-ns#"
   xmlns:svg="http://www.w3.org/2000/svg"
   xmlns="http://www.w3.org/2000/svg"
   xmlns:sodipodi="http://sodipodi.sourceforge.net/DTD/sodipodi-0.dtd"
   xmlns:inkscape="http://www.inkscape.org/namespaces/inkscape"
   sodipodi:docname="advanced-f03.svg"
   sodipodi:docbase="/home/aaron/notes/inkdoc/advanced"
   inkscape:version="0.41+cvs"
   sodipodi:version="0.32"
   id="svg1910"
   height="1052.3622047"
   width="744.09448819">
  <defs
     id="defs3" />
  <sodipodi:namedview
     inkscape:window-y="21"
     inkscape:window-x="4"
     inkscape:window-height="513"
     inkscape:window-width="753"
     inkscape:current-layer="layer1"
     inkscape:document-units="px"
     inkscape:cy="520.00000"
     inkscape:cx="375.00000"
     inkscape:zoom="0.35000000"
     inkscape:pageshadow="2"
     inkscape:pageopacity="0.0"
     borderopacity="1.0"
     bordercolor="#666666"
     pagecolor="#ffffff"
     id="base" />
  <metadata
     id="metadata4">
    <rdf:RDF
       id="RDF5">
      <cc:Work
         id="Work6"
         rdf:about="">
        <dc:format
           id="format7">image/svg+xml</dc:format>
        <dc:type
           rdf:resource="http://purl.org/dc/dcmitype/StillImage"
           id="type9" />
      </cc:Work>
    </rdf:RDF>
  </metadata>
  <g
     id="layer1"
     inkscape:groupmode="layer"
     inkscape:label="Layer 1">
    <path
       sodipodi:nodetypes="cscsscsss"
       id="path1235"
       d="M 49.142651,24.796951 C 62.273554,17.294681 79.120898,4.7414808 93.420605,9.5549808 C 104.56551,13.306681 120.51953,39.842551 94.456604,47.964451 C 104.41358,54.417721 118.49160,49.257851 129.72149,44.151951 C 152.99183,33.772451 162.96700,16.713381 196.01682,15.267481 C 208.59979,14.558281 228.59619,20.435651 226.27670,32.627851 C 224.55770,41.663751 206.29019,39.606751 197.42531,35.977951 C 172.20942,25.033151 184.76639,5.5678808 164.15367,1.3737808 C 154.62978,-0.76821921 142.89747,2.7328808 136.79298,14.870181"
       style="font-size:12.000000;fill:none;fill-opacity:0.75000000;fill-rule:evenodd;stroke:#000000;stroke-width:1.2528700pt" />
  </g>
</svg>
