<?xml version="1.0" encoding="UTF-8" standalone="no"?>
<!-- Created with Inkscape (http://www.inkscape.org/) -->
<svg
   xmlns:dc="http://purl.org/dc/elements/1.1/"
   xmlns:cc="http://web.resource.org/cc/"
   xmlns:rdf="http://www.w3.org/1999/02/22-rdf-syntax-ns#"
   xmlns:svg="http://www.w3.org/2000/svg"
   xmlns="http://www.w3.org/2000/svg"
   xmlns:sodipodi="http://sodipodi.sourceforge.net/DTD/sodipodi-0.dtd"
   xmlns:inkscape="http://www.inkscape.org/namespaces/inkscape"
   sodipodi:docname="advanced-f08.svg"
   sodipodi:docbase="/home/aaron/notes/inkdoc/advanced"
   inkscape:version="0.45+devel"
   sodipodi:version="0.32"
   id="svg1992"
   height="1052.3622047"
   width="744.09448819"
   inkscape:output_extension="org.inkscape.output.svg.inkscape">
  <defs
     id="defs3" />
  <sodipodi:namedview
     inkscape:window-y="25"
     inkscape:window-x="4"
     inkscape:window-height="845"
     inkscape:window-width="1114"
     inkscape:current-layer="layer1"
     inkscape:document-units="px"
     inkscape:cy="939.45355"
     inkscape:cx="171.53768"
     inkscape:zoom="3.959798"
     inkscape:pageshadow="2"
     inkscape:pageopacity="0.0"
     borderopacity="1.0"
     bordercolor="#666666"
     pagecolor="#ffffff"
     id="base" />
  <metadata
     id="metadata4">
    <rdf:RDF>
      <cc:Work
         rdf:about="">
        <dc:format>image/svg+xml</dc:format>
        <dc:type
           rdf:resource="http://purl.org/dc/dcmitype/StillImage" />
      </cc:Work>
    </rdf:RDF>
  </metadata>
  <g
     id="layer1"
     inkscape:groupmode="layer"
     inkscape:label="Layer 1">
    <text
       sodipodi:insensitive="true"
       sodipodi:linespacing="110.00000%"
       id="text1463"
       y="4.2369075"
       x="132.69385"
       style="font-size:5.5761971;font-style:normal;font-weight:normal;line-height:110.00000%;writing-mode:lr-tb;text-anchor:start;fill:#000000;fill-opacity:1.0000000;stroke:none;stroke-width:3.0000000pt;stroke-linecap:butt;stroke-linejoin:miter;stroke-opacity:1.0000000;font-family:serif"
       xml:space="preserve"><tspan
         id="tspan1464"
         sodipodi:role="line"
         y="4.2369075"
         x="132.69385">Original shapes</tspan></text>
    <text
       sodipodi:insensitive="true"
       sodipodi:linespacing="110.00000%"
       id="text1468"
       y="75.103027"
       x="72.512367"
       style="font-size:5.5761971;font-style:normal;font-weight:normal;line-height:110.00000%;writing-mode:lr-tb;text-anchor:start;fill:#000000;fill-opacity:1.0000000;stroke:none;stroke-width:3.0000000pt;stroke-linecap:butt;stroke-linejoin:miter;stroke-opacity:1.0000000;font-family:serif"
       xml:space="preserve"><tspan
         id="tspan1469"
         sodipodi:role="line"
         y="75.103027"
         x="72.512367">Union (Ctrl++)</tspan></text>
    <text
       sodipodi:insensitive="true"
       sodipodi:linespacing="110.00000%"
       id="text1471"
       y="75.103027"
       x="135.35332"
       style="font-size:5.5761971;font-style:normal;font-weight:normal;line-height:110.00000%;writing-mode:lr-tb;text-anchor:start;fill:#000000;fill-opacity:1.0000000;stroke:none;stroke-width:3.0000000pt;stroke-linecap:butt;stroke-linejoin:miter;stroke-opacity:1.0000000;font-family:serif"
       xml:space="preserve"><tspan
         id="tspan1472"
         sodipodi:role="line"
         y="75.103027"
         x="135.35332">Difference (Ctrl+-)</tspan></text>
    <text
       sodipodi:insensitive="true"
       sodipodi:linespacing="110.00000%"
       id="text1476"
       y="75.103027"
       x="202.23427"
       style="font-size:5.5761971;font-style:normal;font-weight:normal;line-height:110.00000%;writing-mode:lr-tb;text-anchor:start;fill:#000000;fill-opacity:1.0000000;stroke:none;stroke-width:3.0000000pt;stroke-linecap:butt;stroke-linejoin:miter;stroke-opacity:1.0000000;font-family:serif"
       xml:space="preserve"><tspan
         id="tspan1477"
         sodipodi:role="line"
         y="75.103027"
         x="202.23427">Intersection</tspan><tspan
         y="81.236844"
         x="202.23427"
         id="tspan1482"
         sodipodi:role="line">(Ctrl+*)</tspan></text>
    <text
       sodipodi:insensitive="true"
       sodipodi:linespacing="110.00000%"
       id="text1479"
       y="149.98067"
       x="73.13726"
       style="font-size:5.5761971;font-style:normal;font-weight:normal;line-height:110.00000%;writing-mode:lr-tb;text-anchor:start;fill:#000000;fill-opacity:1.0000000;stroke:none;stroke-width:3.0000000pt;stroke-linecap:butt;stroke-linejoin:miter;stroke-opacity:1.0000000;font-family:serif"
       xml:space="preserve"><tspan
         id="tspan1480"
         sodipodi:role="line"
         y="149.98067"
         x="73.13726">Exclusion</tspan><tspan
         y="156.11448"
         x="73.13726"
         id="tspan1484"
         sodipodi:role="line">(Ctrl+^)</tspan></text>
    <text
       sodipodi:insensitive="true"
       sodipodi:linespacing="110.00000%"
       id="text2252"
       y="149.98067"
       x="136.91679"
       style="font-size:5.5761971;font-style:normal;font-weight:normal;line-height:110.00000%;writing-mode:lr-tb;text-anchor:start;fill:#000000;fill-opacity:1.0000000;stroke:none;stroke-width:3.0000000pt;stroke-linecap:butt;stroke-linejoin:miter;stroke-opacity:1.0000000;font-family:serif"
       xml:space="preserve"><tspan
         id="tspan1820"
         sodipodi:role="line"
         y="149.98067"
         x="136.91679">Division</tspan><tspan
         y="156.11448"
         x="136.91679"
         id="tspan1822"
         sodipodi:role="line">(Ctrl+/)</tspan></text>
    <text
       sodipodi:insensitive="true"
       sodipodi:linespacing="110.00000%"
       id="text1828"
       y="149.98067"
       x="199.6328"
       style="font-size:5.5761971;font-style:normal;font-weight:normal;line-height:110.00000%;writing-mode:lr-tb;text-anchor:start;fill:#000000;fill-opacity:1.0000000;stroke:none;stroke-width:3.0000000pt;stroke-linecap:butt;stroke-linejoin:miter;stroke-opacity:1.0000000;font-family:serif"
       xml:space="preserve"><tspan
         id="tspan1829"
         sodipodi:role="line"
         y="149.98067"
         x="199.6328">Cut Path</tspan><tspan
         y="156.11448"
         x="199.6328"
         id="tspan1831"
         sodipodi:role="line">(Ctrl+Alt+/)</tspan><tspan
         y="162.2483"
         x="199.6328"
         id="tspan1833"
         sodipodi:role="line" /></text>
    <rect
       y="12.862536"
       x="136.71416"
       height="27.397606"
       width="37.561234"
       id="rect1449"
       style="font-size:12.000000;fill:#0000ff;fill-opacity:0.75000000;fill-rule:evenodd;stroke:#000000;stroke-width:1.0000000pt" />
    <ellipse
       transform="translate(125.2248,-4014.097)"
       ry="15.687339"
       rx="15.245441"
       cy="4055.4646"
       cx="39.549770"
       id="path1450"
       style="stroke-width:1.0000000pt;stroke:#000000;fill-rule:evenodd;fill-opacity:0.75000000;fill:#ff0000;font-size:12.000000" />
    <path
       id="path1459"
       d="M 72.939902,90.828000 L 72.939902,118.20300 L 85.877403,118.20300 C 85.850687,118.58230 85.752403,118.94170 85.752403,119.32800 C 85.752403,127.98740 92.586921,135.01550 101.00241,135.01550 C 109.41790,135.01550 116.25243,127.98740 116.25243,119.32800 C 116.25243,114.38910 113.97302,110.01670 110.50242,107.14050 L 110.50242,90.828000 L 72.939902,90.828000 z "
       style="font-size:12.000000;fill:#0000ff;fill-opacity:0.75000000;fill-rule:evenodd;stroke:#000000;stroke-width:1.0000000pt" />
    <path
       id="path1460"
       d="M 136.71405,90.828000 L 136.71405,118.20300 L 149.65155,118.20300 C 150.22373,110.07910 156.73646,103.64050 164.77655,103.64050 C 168.38748,103.64060 171.66375,104.97900 174.27655,107.14050 L 174.27655,90.828000 L 136.71405,90.828000 z "
       style="font-size:12.000000;fill:#0000ff;fill-opacity:0.75000000;fill-rule:evenodd;stroke:#000000;stroke-width:1.0000000pt" />
    <path
       id="path1461"
       d="M 228.55067,103.64050 C 220.51058,103.64050 213.99785,110.07910 213.42567,118.20300 L 238.05067,118.20300 L 238.05067,107.14050 C 235.43787,104.97900 232.16160,103.64060 228.55067,103.64050 z "
       style="font-size:12.000000;fill:#0000ff;fill-opacity:0.75000000;fill-rule:evenodd;stroke:#000000;stroke-width:1.0000000pt" />
    <path
       id="path1462"
       d="M 72.923684,165.70460 L 72.923684,193.07960 L 85.861184,193.07960 C 86.433364,184.95570 92.946095,178.51710 100.98619,178.51710 C 104.59712,178.51720 107.87339,179.85560 110.48619,182.01710 L 110.48619,165.70460 L 72.923684,165.70460 z M 110.48619,182.01710 L 110.48619,193.07960 L 85.861184,193.07960 C 85.834474,193.45890 85.736184,193.81830 85.736184,194.20460 C 85.736184,202.86400 92.570714,209.89210 100.98619,209.89210 C 109.40167,209.89210 116.23620,202.86400 116.23620,194.20460 C 116.23620,189.26080 113.96267,184.89310 110.48619,182.01710 z "
       style="font-size:12.000000;fill:#0000ff;fill-opacity:0.75000000;fill-rule:evenodd;stroke:#000000;stroke-width:1.0000000pt" />
    <path
       id="path1817"
       d="M 136.72861,165.73750 L 136.72861,193.11250 L 149.66611,193.11250 C 149.71425,192.42900 149.72293,191.73790 149.85361,191.08130 C 150.05680,190.06040 150.34271,189.05090 150.72861,188.11250 C 151.11451,187.17420 151.58674,186.29090 152.13486,185.45630 C 152.68298,184.62170 153.32000,183.85360 154.00986,183.14380 C 154.69971,182.43400 155.44875,181.77030 156.25986,181.20630 C 157.07096,180.64230 157.94174,180.16590 158.85361,179.76880 C 159.76548,179.37170 160.70521,179.07160 161.69736,178.86250 C 162.68950,178.65350 163.70792,178.55010 164.75986,178.55010 C 165.81179,178.55010 166.86146,178.65350 167.85361,178.86250 C 168.84575,179.07160 169.78549,179.37170 170.69736,179.76880 C 171.60923,180.16590 172.48000,180.64230 173.29111,181.20630 C 173.64204,181.45030 173.93054,181.77760 174.25986,182.05010 L 174.25986,165.73750 L 136.72861,165.73750 z "
       style="font-size:12.000000;fill:#0000ff;fill-opacity:0.75000000;fill-rule:evenodd;stroke:#000000;stroke-width:1.0000000pt" />
    <path
       id="path1818"
       d="M 174.25986,182.05010 C 173.93054,181.77760 173.64204,181.45030 173.29111,181.20630 C 172.48000,180.64230 171.60923,180.16590 170.69736,179.76880 C 169.78549,179.37170 168.84575,179.07160 167.85361,178.86250 C 166.86146,178.65350 165.81179,178.55010 164.75986,178.55010 C 163.70792,178.55010 162.68950,178.65350 161.69736,178.86250 C 160.70521,179.07160 159.76548,179.37170 158.85361,179.76880 C 157.94174,180.16590 157.07096,180.64230 156.25986,181.20630 C 155.44875,181.77030 154.69971,182.43400 154.00986,183.14380 C 153.32000,183.85360 152.68298,184.62170 152.13486,185.45630 C 151.58674,186.29090 151.11451,187.17420 150.72861,188.11250 C 150.34271,189.05090 150.05680,190.06040 149.85361,191.08130 C 149.72293,191.73790 149.71425,192.42900 149.66611,193.11250 L 174.25986,193.11250 L 174.25986,182.05010 z "
       style="font-size:12.000000;fill:#0000ff;fill-opacity:0.75000000;fill-rule:evenodd;stroke:#000000;stroke-width:1.0000000pt" />
    <path
       id="path1826"
       d="M 214.49432,194.74890 L 239.11849,194.74890 L 239.11849,183.65860"
       style="font-size:12.000000;fill:none;fill-opacity:0.75000000;fill-rule:evenodd;stroke:#000000;stroke-width:1.0000000pt" />
    <path
       id="path1827"
       d="M 238.05496,182.24050 L 238.05496,165.93310 L 200.49373,165.93310 L 200.49373,165.93310 L 200.49373,193.33080 L 213.43079,193.33080"
       style="font-size:12.000000;fill:none;fill-opacity:0.75000000;fill-rule:evenodd;stroke:#000000;stroke-width:1.0000000pt" />
    <flowRoot
       xml:space="preserve"
       id="flowRoot2628"
       style="font-size:5.57619715px"><flowRegion
         id="flowRegion2630"><rect
           id="rect2632"
           width="63.134533"
           height="14.647212"
           x="135.36044"
           y="76.049751" /></flowRegion><flowPara
         id="flowPara2634"
         style="font-family:serif">(bottom minus top)</flowPara></flowRoot>  </g>
</svg>
